[
    {
        "annotations": [
            {
                "class": "Wall",
                "xn": "476;1427;1427;476",
                "yn": "72;72;158;158"
            },
            {
                "class": "Wall",
                "xn": "2778;3558;3558;2778",
                "yn": "5912;5912;5998;5998"
            },
            {
                "class": "Wall",
                "xn": "3923;4726;4726;3923",
                "yn": "5912;5912;5998;5998"
            },
            {
                "class": "Unknown",
                "xn": "1975;2114;2114;1975",
                "yn": "1202;1202;1271;1271"
            },
            {
                "class": "wall",
                "height": 5913.4051698046405,
                "width": 55.0675266529085,
                "x": 482.8998491101211,
                "y": 76.24734459633491
            },
            {
                "class": "wall",
                "height": 84.71927177370617,
                "width": 792.1251910841461,
                "x": 482.8998491101211,
                "y": 5913.4051698046405
            },
            {
                "class": "wall",
                "height": 80.48330818502018,
                "width": 770.9453731407195,
                "x": 1643.5538724098858,
                "y": 5909.1692062159555
            },
            {
                "class": "wall",
                "height": 88.95523536239034,
                "width": 775.1813367294048,
                "x": 2778.792114177539,
                "y": 5904.93324262727
            },
            {
                "class": "wall",
                "height": 88.95523536239034,
                "width": 792.1251910841461,
                "x": 3930.974210299935,
                "y": 5909.169206215958
            },
            {
                "class": "wall",
                "height": 1639.3179088212016,
                "width": 110.13505330581756,
                "x": 4604.492420900894,
                "y": 84.71927177370551
            },
            {
                "class": "wall",
                "height": 4265.615333806072,
                "width": 67.77541741896403,
                "x": 4655.323983965118,
                "y": 1724.037180594907
            },
            {
                "class": "wall",
                "height": 54.076130919386515,
                "width": 519.7317027252147,
                "x": 4160.85785129724,
                "y": 1673.3558290054602
            },
            {
                "class": "wall",
                "height": 305.24337714166154,
                "width": 64.9775505796606,
                "x": 3212.610989124617,
                "y": 1589.6833304605348
            },
            {
                "class": "wall",
                "height": 55.910915615056865,
                "width": 539.4647803939265,
                "x": 3215.633200779485,
                "y": 1672.794150969403
            },
            {
                "class": "wall",
                "height": 64.21184772802417,
                "width": 2796.7827010428405,
                "x": 478.02153308640385,
                "y": 2382.973015684461
            },
            {
                "class": "wall",
                "height": 111.24900265293809,
                "width": 64.59619508880314,
                "x": 3211.866366915471,
                "y": 2332.640378206767
            },
            {
                "class": "wall",
                "height": 1657.6830926950647,
                "width": 66.48865640709482,
                "x": 3637.231726633565,
                "y": 67.99976223452863
            },
            {
                "class": "wall",
                "height": 91.61834631732158,
                "width": 2411.906233283908,
                "x": 2307.5039316664947,
                "y": 68.18109493382072
            },
            {
                "class": "wall",
                "height": 448.798430747889,
                "width": 61.95533892479261,
                "x": 3212.6109891246197,
                "y": 66.48865640709467
            },
            {
                "class": "wall",
                "height": 216.08813332305766,
                "width": 482.0427589514361,
                "x": 3218.6554124343556,
                "y": 152.62168857083094
            },
            {
                "class": "window",
                "height": 85.50877722448601,
                "width": 895.3271968210886,
                "x": 1418.4397163120623,
                "y": 55.32920879231448
            },
            {
                "class": "window",
                "height": 1073.7647870075216,
                "width": 42.8078984853496,
                "x": 3224.861685896344,
                "y": 510.12745695041724
            },
            {
                "class": "window",
                "height": 107.50875588083272,
                "width": 382.25335424295895,
                "x": 1272.186944589848,
                "y": 5924.9269907658645
            },
            {
                "class": "window",
                "height": 89.59062990069378,
                "width": 376.2806455829127,
                "x": 2412.974298658679,
                "y": 5924.9269907658645
            },
            {
                "class": "window",
                "height": 65.69979526050884,
                "width": 370.3079369228667,
                "x": 3553.7616527275095,
                "y": 5942.845116746003
            },
            {
                "class": "Stairs",
                "xn": "4647.54302957;4040.68867148;4037.68444198;4656.55571806",
                "yn": "3178.47480626;3175.47057677;5915.32787668;5906.3151882"
            },
            {
                "class": "door",
                "height": 442.7530871711683,
                "width": 493.3534399907303,
                "x": 2783.0194050759164,
                "y": 1897.5132307335793
            },
            {
                "class": "door",
                "height": 468.74502767001695,
                "width": 400.5639327361964,
                "x": 3758.4828582268633,
                "y": 1259.219597059
            },
            {
                "class": "Text",
                "height": 161.2631338212484,
                "text": "bedroom 4",
                "width": 1194.5417320092477,
                "x": 1272.186944589849,
                "y": 1164.6781887090167
            },
            {
                "class": "Text",
                "height": 101.5360472207858,
                "text": "bar",
                "width": 197.09938578152605,
                "x": 1110.9238107686003,
                "y": 3243.180802405108
            },
            {
                "class": "Text",
                "height": 173.20855114134065,
                "text": "living room",
                "width": 1290.1050705699874,
                "x": 1367.7502831505888,
                "y": 4527.313164315049
            },
            {
                "class": "Text",
                "height": 334.4716849625893,
                "text": "open to below",
                "width": 418.08960620323705,
                "x": 3476.116440146911,
                "y": 4222.705022652691
            },
            {
                "class": "Text",
                "height": 628.7410090035714,
                "text": "wardrobe",
                "width": 95.56863336854303,
                "x": 3289.572959106685,
                "y": 684.0702177958856
            },
            {
                "class": "Text",
                "height": 342.0351088979429,
                "text": "bath 3",
                "width": 487.9030229867708,
                "x": 3712.0869171570853,
                "y": 1016.0454705497713
            },
            {
                "class": "Text",
                "height": 331.97525275388557,
                "text": "linen",
                "width": 95.56863336854349,
                "x": 4456.516271817313,
                "y": 1866.1033147225996
            },
            {
                "class": "Text",
                "height": 115.68834565665702,
                "text": "dn",
                "width": 176.04748252100035,
                "x": 4225.139580503999,
                "y": 3012.926915145114
            }
        ],
        "class": "image",
        "filename": "106.png"
    }
]
