[
    {
        "annotations": [
            {
                "class": "Wall",
                "xn": "1649;1667;1667;1649",
                "yn": "43;43;106;106"
            },
            {
                "class": "Wall",
                "xn": "288;322;322;288",
                "yn": "548;548;1603;1603"
            },
            {
                "class": "Wall",
                "xn": "1726;2015;2015;1726",
                "yn": "1780;1780;1814;1814"
            },
            {
                "class": "Wall",
                "xn": "845;879;879;845",
                "yn": "961;961;1136;1136"
            },
            {
                "class": "Wall",
                "xn": "287;706;706;287",
                "yn": "959;959;993;993"
            },
            {
                "class": "Wall",
                "xn": "2295;2446;2446;2295",
                "yn": "845;845;879;879"
            },
            {
                "class": "Wall",
                "xn": "2412;2445;2445;2412",
                "yn": "548;548;1811;1811"
            },
            {
                "class": "Wall",
                "xn": "959;993;993;959",
                "yn": "1090;1090;1446;1446"
            },
            {
                "class": "Wall",
                "xn": "902;936;936;902",
                "yn": "548;548;769;769"
            },
            {
                "class": "Wall",
                "xn": "844;994;994;844",
                "yn": "1089;1089;1124;1124"
            },
            {
                "class": "Wall",
                "xn": "1889;1921;1921;1889",
                "yn": "548;548;716;716"
            },
            {
                "class": "Wall",
                "xn": "2291;2446;2446;2291",
                "yn": "1172;1172;1202;1202"
            },
            {
                "class": "Wall",
                "xn": "287;2446;2446;287",
                "yn": "548;548;574;574"
            },
            {
                "class": "Wall",
                "xn": "842;994;994;842",
                "yn": "1371;1371;1399;1399"
            },
            {
                "class": "Wall",
                "xn": "592;606;606;592",
                "yn": "944;944;995;995"
            },
            {
                "class": "Wall",
                "xn": "575;611;611;575",
                "yn": "548;548;821;821"
            },
            {
                "class": "Wall",
                "xn": "574;626;626;574",
                "yn": "738;738;773;773"
            },
            {
                "class": "Wall",
                "xn": "878;936;936;878",
                "yn": "738;738;767;767"
            },
            {
                "class": "Wall",
                "xn": "570;591;591;570",
                "yn": "942;942;995;995"
            },
            {
                "class": "Wall",
                "xn": "829;880;880;829",
                "yn": "961;961;992;992"
            },
            {
                "class": "Wall",
                "xn": "287;405;405;287",
                "yn": "853;853;858;858"
            },
            {
                "class": "Wall",
                "xn": "964;1005;1005;964",
                "yn": "1170;1170;1175;1175"
            },
            {
                "class": "Text",
                "height": 63,
                "text": "bath",
                "width": 159,
                "x": 1643,
                "y": 161
            },
            {
                "class": "Text",
                "height": 48,
                "text": "kitchen",
                "width": 218,
                "x": 1449,
                "y": 750
            },
            {
                "class": "Text",
                "height": 48,
                "text": "bath",
                "width": 125,
                "x": 420,
                "y": 819
            },
            {
                "class": "Text",
                "height": 48,
                "text": "bath",
                "width": 126,
                "x": 2136,
                "y": 1066
            },
            {
                "class": "Text",
                "height": 49,
                "text": "bedroom",
                "width": 246,
                "x": 444,
                "y": 1240
            },
            {
                "class": "Text",
                "height": 43,
                "text": "livingroom",
                "width": 359,
                "x": 1187,
                "y": 1516
            },
            {
                "class": "Text",
                "height": 61,
                "text": "patiobalcony",
                "width": 387,
                "x": 1916,
                "y": 1914
            },
            {
                "class": "Wall",
                "xn": "290.921381132;572.343288595;572.343288595;286.171644298",
                "yn": "1568.6005897;1566.22572128;1603.03618175;1600.66131333"
            },
            {
                "class": "Wall",
                "xn": "878.43;878.43;841.77;843.18;689.49;692.31;963.03;960.21;989.82;992.64;963.03;960.21;874.2",
                "yn": "1369.11;1352.19;1347.96;1569.33;1573.56;1605.99;1603.17;1625.73;1627.14;1545.36;1545.36;1570.74;1569.33"
            },
            {
                "class": "Wall",
                "xn": "986.524822695;958.865248227;962.411347518;1035.46099291;1034.75177305;987.943262411",
                "yn": "1784.39716312;1784.39716312;2024.11347518;2022.69503546;1991.4893617;1991.4893617"
            },
            {
                "class": "Wall",
                "xn": "1155.31914894;1156.73758865;1217.0212766;1217.0212766;1497.87234043;1496.45390071;1556.02836879;1556.02836879;1463.12056738;1465.24822695;1248.22695035;1248.93617021",
                "yn": "1991.4893617;2020.56737589;2021.27659574;2121.9858156;2124.11347518;2019.14893617;2019.85815603;1991.4893617;1993.61702128;2093.61702128;2095.03546099;1991.4893617"
            },
            {
                "class": "Wall",
                "xn": "1675.34477914;1675.94205001;1755.97634605;1756.57361692;1723.72371929;1724.91826102;1724.91826102",
                "yn": "1995.48196332;2018.17825623;2018.17825623;1973.98021215;1973.98021215;1995.48196332;1995.48196332"
            },
            {
                "class": "Wall",
                "xn": "1773.0;1752.0;1727.0;1728.0;1761.0;1753.0",
                "yn": "1314.0;1294.0;1326.0;1832.0;1834.0;1333.0"
            },
            {
                "class": "Wall",
                "xn": "2166.01474098;2443.08272301;2442.24057109;2165.17258906",
                "yn": "1777.78270537;1775.25624961;1808.94232645;1810.62663029"
            },
            {
                "class": "Wall",
                "xn": "2095.82137836;2097.00881257;1918.89368127;1918.89368127;1885.64552342;1888.02039184;1730.09164208;1731.27907629;1764.52723413;1764.52723413;1756.21519467;1752.65289205;1853.58479979;1853.58479979;1838.14815507;1836.96072086;1853.58479979;1854.772234;1828.6486814;1854.772234;1869.0214445;2142.1313125;2142.1313125;2111.25802308;2110.07058887;1886.83295763;1886.83295763;1910.5816418;1908.20677339;2112.44545728;2113.63289149;2148.06848355;2144.50618092;2193.19098348;2195.56585189;2121.94493095;2121.94493095;2120.75749675;2120.75749675",
                "yn": "574.718157013;850.202893432;851.390327641;832.391380301;830.016511884;850.202893432;847.828025015;1024.75572211;1020.00598528;991.507564268;991.507564268;878.701314441;878.701314441;985.570393224;986.757827433;1018.81855107;1016.44368265;1162.49809032;1188.62164291;1213.5577613;1193.37137975;1192.18394554;1149.43631403;1147.06144561;1166.06039295;1166.06039295;1020.00598528;1018.81855107;887.013353902;882.263617067;1040.19236682;1040.19236682;882.263617067;879.88874865;847.828025015;849.015459223;573.530722804;571.155854387;571.155854387"
            },
            {
                "class": "Text",
                "height": 56.92559596526405,
                "text": "d",
                "width": 63.62272490235398,
                "x": 647.9472246634466,
                "y": 624.507273383632
            },
            {
                "class": "Text",
                "height": 53.71097407546097,
                "text": "w",
                "width": 60.97735897220366,
                "x": 793.609779045152,
                "y": 626.1815556179048
            },
            {
                "class": "Text",
                "height": 78.4901880000059,
                "text": "dining room",
                "width": 386.8444980000294,
                "x": 933.4725930000706,
                "y": 840.9663000000636
            },
            {
                "class": "Text",
                "height": 75.68696700000578,
                "text": "master bedroom",
                "width": 465.33468600003494,
                "x": 1875.354849000142,
                "y": 1491.3135720001128
            },
            {
                "class": "window",
                "height": 40.37276309593199,
                "width": 122.30572349649981,
                "x": 571.1558543865671,
                "y": 1568.6005896978277
            },
            {
                "class": "window",
                "height": 30.13708021690468,
                "width": 118.87403863334566,
                "x": 1034.7064207803896,
                "y": 1994.0701410185177
            },
            {
                "class": "window",
                "height": 28.498421008893274,
                "width": 118.74342087038826,
                "x": 1555.5388134020866,
                "y": 1996.0769048312272
            },
            {
                "class": "window",
                "height": 33.84000000000242,
                "width": 148.05000000001178,
                "x": 2017.7100000001558,
                "y": 1782.2400000001378
            },
            {
                "class": "door",
                "height": 77.5500000000061,
                "width": 252.39000000001965,
                "x": 624.6300000000485,
                "y": 741.6600000000576
            },
            {
                "class": "door",
                "height": 150.8700000000116,
                "width": 131.1300000000101,
                "x": 702.1800000000546,
                "y": 963.0300000000749
            },
            {
                "class": "door",
                "height": 126.90000000000998,
                "width": 142.41000000001122,
                "x": 466.71000000003664,
                "y": 820.6200000000645
            },
            {
                "class": "door",
                "height": 216.11302598410703,
                "width": 60.55914464389821,
                "x": 819.3296040056807,
                "y": 1135.1871035209142
            },
            {
                "class": "door",
                "height": 98.5570393224225,
                "width": 122.30572349650015,
                "x": 963.0091432588513,
                "y": 1446.2948662013328
            },
            {
                "class": "door",
                "height": 161.49105238372863,
                "width": 176.927697096879,
                "x": 963.0091432588513,
                "y": 1626.7848659243232
            },
            {
                "class": "door",
                "height": 3.9779045991579096,
                "width": 4.2866374934208125,
                "x": 1136.8376370710132,
                "y": 1783.11057950019
            },
            {
                "class": "door",
                "height": 146.6400000000117,
                "width": 190.35000000001514,
                "x": 1570.7400000001246,
                "y": 1833.0000000001453
            },
            {
                "class": "door",
                "height": 120.54832086761849,
                "width": 147.3368366159782,
                "x": 1766.3677571574653,
                "y": 709.8956673315311
            },
            {
                "class": "door",
                "height": 101.05823052799042,
                "width": 76.6358248170593,
                "x": 1765.150426555564,
                "y": 987.0020514900386
            },
            {
                "class": "door",
                "height": 109.98000000000866,
                "width": 131.13000000001057,
                "x": 2017.7100000001606,
                "y": 1041.990000000083
            },
            {
                "class": "door",
                "height": 123.49315770520423,
                "width": 99.74447353112646,
                "x": 2194.3784176847817,
                "y": 847.8280250145748
            },
            {
                "class": "Door",
                "xn": "1751.22;1831.59;1972.59;1871.07",
                "yn": "1300.02;1191.45;1280.28;1390.26"
            }
        ],
        "class": "image",
        "filename": "17_250.png"
    }
]
