[
    {
        "annotations": [
            {
                "class": "Window",
                "xn": "2509;2523;2523;2509",
                "yn": "972;972;1043;1043"
            },
            {
                "class": "Window",
                "xn": "1677;1803;1803;1677",
                "yn": "256;256;265;265"
            },
            {
                "class": "Window",
                "xn": "1086;1240;1240;1086",
                "yn": "1398;1398;1408;1408"
            },
            {
                "class": "Window",
                "xn": "2509;2523;2523;2509",
                "yn": "990;990;1043;1043"
            },
            {
                "class": "Window",
                "xn": "1263;1276;1276;1263",
                "yn": "1233;1233;1338;1338"
            },
            {
                "class": "Window",
                "xn": "2509;2523;2523;2509",
                "yn": "1098;1098;1150;1150"
            },
            {
                "class": "Window",
                "xn": "2043;2056;2056;2043",
                "yn": "1352;1352;1404;1404"
            },
            {
                "class": "Window",
                "xn": "1480;1489;1489;1480",
                "yn": "1028;1028;1198;1198"
            },
            {
                "class": "Window",
                "xn": "1263;1276;1276;1263",
                "yn": "1233;1233;1312;1312"
            },
            {
                "class": "Window",
                "xn": "2386;2437;2437;2386",
                "yn": "1276;1276;1290;1290"
            },
            {
                "class": "Window",
                "xn": "1925;1934;1934;1925",
                "yn": "296;296;375;375"
            },
            {
                "class": "Window",
                "xn": "1665;1803;1803;1665",
                "yn": "256;256;267;267"
            },
            {
                "class": "Window",
                "xn": "2509;2523;2523;2509",
                "yn": "1205;1205;1258;1258"
            },
            {
                "class": "Window",
                "xn": "1548;1803;1803;1548",
                "yn": "256;256;265;265"
            },
            {
                "class": "Window",
                "xn": "1965;2016;2016;1965",
                "yn": "539;539;548;548"
            },
            {
                "class": "Window",
                "xn": "1548;1658;1658;1548",
                "yn": "256;256;265;265"
            },
            {
                "class": "Window",
                "xn": "813;1150;1150;813",
                "yn": "538;538;547;547"
            },
            {
                "class": "Window",
                "xn": "1480;1489;1489;1480",
                "yn": "717;717;887;887"
            },
            {
                "class": "Window",
                "xn": "2256;2307;2307;2256",
                "yn": "1276;1276;1290;1290"
            },
            {
                "class": "Window",
                "xn": "1548;1598;1598;1548",
                "yn": "256;256;265;265"
            },
            {
                "class": "Window",
                "xn": "2126;2176;2176;2126",
                "yn": "1276;1276;1290;1290"
            },
            {
                "class": "Wall",
                "xn": "678;775;775;678",
                "yn": "255;255;271;271"
            },
            {
                "class": "Wall",
                "xn": "1260;1276;1276;1260",
                "yn": "487;487;547;547"
            },
            {
                "class": "Wall",
                "xn": "393;811;811;393",
                "yn": "963;963;975;975"
            },
            {
                "class": "Wall",
                "xn": "234;311;311;234",
                "yn": "906;906;919;919"
            },
            {
                "class": "Wall",
                "xn": "1164;1277;1277;1164",
                "yn": "958;958;971;971"
            },
            {
                "class": "Wall",
                "xn": "680;692;692;680",
                "yn": "906;906;975;975"
            },
            {
                "class": "Wall",
                "xn": "234;315;315;234",
                "yn": "1578;1578;1590;1590"
            },
            {
                "class": "Wall",
                "xn": "1264;1276;1276;1264",
                "yn": "932;932;1234;1234"
            },
            {
                "class": "Wall",
                "xn": "1264;1276;1276;1264",
                "yn": "1312;1312;1434;1434"
            },
            {
                "class": "Wall",
                "xn": "234;300;300;234",
                "yn": "539;539;551;551"
            },
            {
                "class": "Wall",
                "xn": "730;811;811;730",
                "yn": "1578;1578;1590;1590"
            },
            {
                "class": "Wall",
                "xn": "666;814;814;666",
                "yn": "538;538;551;551"
            },
            {
                "class": "Wall",
                "xn": "802;814;814;802",
                "yn": "963;963;1590;1590"
            },
            {
                "class": "Wall",
                "xn": "387;403;403;387",
                "yn": "906;906;920;920"
            },
            {
                "class": "Wall",
                "xn": "952;966;966;952",
                "yn": "1331;1331;1720;1720"
            },
            {
                "class": "Wall",
                "xn": "680;693;693;680",
                "yn": "501;501;567;567"
            },
            {
                "class": "Wall",
                "xn": "953;965;965;953",
                "yn": "1177;1177;1252;1252"
            },
            {
                "class": "Wall",
                "xn": "590;775;775;590",
                "yn": "255;255;264;264"
            },
            {
                "class": "Wall",
                "xn": "1050;1087;1087;1050",
                "yn": "1399;1399;1408;1408"
            },
            {
                "class": "Wall",
                "xn": "801;844;844;801",
                "yn": "1529;1529;1539;1539"
            },
            {
                "class": "Wall",
                "xn": "1240;1277;1277;1240",
                "yn": "1399;1399;1409;1409"
            },
            {
                "class": "Wall",
                "xn": "1039;1059;1059;1039",
                "yn": "1236;1236;1246;1246"
            },
            {
                "class": "Wall",
                "xn": "919;962;962;919",
                "yn": "1529;1529;1539;1539"
            },
            {
                "class": "Wall",
                "xn": "952;980;980;952",
                "yn": "1236;1236;1246;1246"
            },
            {
                "class": "Wall",
                "xn": "952;978;978;952",
                "yn": "1337;1337;1347;1347"
            },
            {
                "class": "Wall",
                "xn": "1189;1277;1277;1189",
                "yn": "255;255;271;271"
            },
            {
                "class": "Wall",
                "xn": "1261;1276;1276;1261",
                "yn": "255;255;308;308"
            },
            {
                "class": "Wall",
                "xn": "2043;2063;2063;2043",
                "yn": "1207;1207;1353;1353"
            },
            {
                "class": "Wall",
                "xn": "2437;2524;2524;2437",
                "yn": "1277;1277;1290;1290"
            },
            {
                "class": "Wall",
                "xn": "2049;2062;2062;2049",
                "yn": "645;645;1046;1046"
            },
            {
                "class": "Wall",
                "xn": "2510;2523;2523;2510",
                "yn": "1150;1150;1206;1206"
            },
            {
                "class": "Wall",
                "xn": "1906;1919;1919;1906",
                "yn": "651;651;1039;1039"
            },
            {
                "class": "Wall",
                "xn": "2510;2523;2523;2510",
                "yn": "1258;1258;1290;1290"
            },
            {
                "class": "Wall",
                "xn": "2043;2127;2127;2043",
                "yn": "1276;1276;1290;1290"
            },
            {
                "class": "Wall",
                "xn": "2307;2387;2387;2307",
                "yn": "1277;1277;1290;1290"
            },
            {
                "class": "Wall",
                "xn": "2176;2257;2257;2176",
                "yn": "1277;1277;1290;1290"
            },
            {
                "class": "Wall",
                "xn": "2510;2523;2523;2510",
                "yn": "1043;1043;1099;1099"
            },
            {
                "class": "Wall",
                "xn": "2509;2523;2523;2509",
                "yn": "934;934;991;991"
            },
            {
                "class": "Wall",
                "xn": "2044;2056;2056;2044",
                "yn": "1404;1404;1617;1617"
            },
            {
                "class": "Wall",
                "xn": "2016;2115;2115;2016",
                "yn": "540;540;554;554"
            },
            {
                "class": "Wall",
                "xn": "1867;1881;1881;1867",
                "yn": "1207;1207;1540;1540"
            },
            {
                "class": "Wall",
                "xn": "1480;1838;1838;1480",
                "yn": "647;647;659;659"
            },
            {
                "class": "Wall",
                "xn": "1803;1935;1935;1803",
                "yn": "257;257;267;267"
            },
            {
                "class": "Wall",
                "xn": "1807;1915;1915;1807",
                "yn": "798;798;807;807"
            },
            {
                "class": "Wall",
                "xn": "2179;2524;2524;2179",
                "yn": "964;964;973;973"
            },
            {
                "class": "Wall",
                "xn": "1798;1920;1920;1798",
                "yn": "944;944;954;954"
            },
            {
                "class": "Wall",
                "xn": "1812;1966;1966;1812",
                "yn": "539;539;548;548"
            },
            {
                "class": "Wall",
                "xn": "1867;1980;1980;1867",
                "yn": "1030;1030;1039;1039"
            },
            {
                "class": "Wall",
                "xn": "2039;2090;2090;2039",
                "yn": "1031;1031;1040;1040"
            },
            {
                "class": "Wall",
                "xn": "1867;1900;1900;1867",
                "yn": "1470;1470;1480;1480"
            },
            {
                "class": "Wall",
                "xn": "2048;2103;2103;2048",
                "yn": "963;963;973;973"
            },
            {
                "class": "Wall",
                "xn": "1867;1894;1894;1867",
                "yn": "1212;1212;1222;1222"
            },
            {
                "class": "Wall",
                "xn": "2040;2063;2063;2040",
                "yn": "866;866;876;876"
            },
            {
                "class": "Wall",
                "xn": "772;784;784;772",
                "yn": "1001;1001;1014;1014"
            },
            {
                "class": "Wall",
                "xn": "1813;1825;1825;1813",
                "yn": "499;499;554;554"
            },
            {
                "class": "Wall",
                "xn": "1870;1881;1881;1870",
                "yn": "945;945;1046;1046"
            },
            {
                "class": "Wall",
                "xn": "801;818;818;801",
                "yn": "1176;1176;1188;1188"
            },
            {
                "class": "Wall",
                "xn": "680;688;688;680",
                "yn": "255;255;293;293"
            },
            {
                "class": "Wall",
                "xn": "1150;1277;1277;1150",
                "yn": "539;539;547;547"
            },
            {
                "class": "Wall",
                "xn": "394;402;402;394",
                "yn": "906;906;1049;1049"
            },
            {
                "class": "Wall",
                "xn": "235;243;243;235",
                "yn": "517;517;1062;1062"
            },
            {
                "class": "Wall",
                "xn": "1051;1058;1058;1051",
                "yn": "1177;1177;1269;1269"
            },
            {
                "class": "Wall",
                "xn": "1165;1173;1173;1165",
                "yn": "1156;1156;1185;1185"
            },
            {
                "class": "Wall",
                "xn": "235;243;243;235",
                "yn": "1126;1126;1590;1590"
            },
            {
                "class": "Wall",
                "xn": "1041;1277;1277;1041",
                "yn": "1338;1338;1346;1346"
            },
            {
                "class": "Wall",
                "xn": "952;1064;1064;952",
                "yn": "1712;1712;1720;1720"
            },
            {
                "class": "Wall",
                "xn": "1051;1058;1058;1051",
                "yn": "1329;1329;1408;1408"
            },
            {
                "class": "Wall",
                "xn": "1961;2063;2063;1961",
                "yn": "1213;1213;1221;1221"
            },
            {
                "class": "Wall",
                "xn": "1905;2063;2063;1905",
                "yn": "708;708;716;716"
            },
            {
                "class": "Wall",
                "xn": "1897;1915;1915;1897",
                "yn": "651;651;657;657"
            },
            {
                "class": "Wall",
                "xn": "1905;1981;1981;1905",
                "yn": "867;867;875;875"
            },
            {
                "class": "Wall",
                "xn": "1960;2057;2057;1960",
                "yn": "1472;1472;1480;1480"
            },
            {
                "class": "Wall",
                "xn": "1976;2057;2057;1976",
                "yn": "1609;1609;1617;1617"
            },
            {
                "class": "Wall",
                "xn": "1859;1877;1877;1859",
                "yn": "1275;1275;1282;1282"
            },
            {
                "class": "Wall",
                "xn": "1808;1816;1816;1808",
                "yn": "651;651;815;815"
            },
            {
                "class": "Wall",
                "xn": "1481;1489;1489;1481",
                "yn": "257;257;718;718"
            },
            {
                "class": "Wall",
                "xn": "1926;1934;1934;1926",
                "yn": "257;257;297;297"
            },
            {
                "class": "Wall",
                "xn": "1808;1816;1816;1808",
                "yn": "875;875;953;953"
            },
            {
                "class": "Wall",
                "xn": "1926;1934;1934;1926",
                "yn": "375;375;548;548"
            },
            {
                "class": "Wall",
                "xn": "1269;1276;1276;1269",
                "yn": "487;487;577;577"
            },
            {
                "class": "Wall",
                "xn": "385;403;403;385",
                "yn": "1040;1040;1047;1047"
            },
            {
                "class": "Wall",
                "xn": "234;318;318;234",
                "yn": "1041;1041;1049;1049"
            },
            {
                "class": "Wall",
                "xn": "1480;1549;1549;1480",
                "yn": "257;257;265;265"
            },
            {
                "class": "Wall",
                "xn": "1480;1735;1735;1480",
                "yn": "945;945;953;953"
            },
            {
                "class": "Wall",
                "xn": "1481;1489;1489;1481",
                "yn": "887;887;1029;1029"
            },
            {
                "class": "Wall",
                "xn": "1480;1796;1796;1480",
                "yn": "1273;1273;1281;1281"
            },
            {
                "class": "Wall",
                "xn": "1481;1489;1489;1481",
                "yn": "1198;1198;1307;1307"
            },
            {
                "class": "Wall",
                "xn": "1658;1666;1666;1658",
                "yn": "257;257;582;582"
            },
            {
                "class": "Wall",
                "xn": "1598;1678;1678;1598",
                "yn": "257;257;265;265"
            },
            {
                "class": "Text",
                "height": 54,
                "text": "diningroom",
                "width": 110,
                "x": 400,
                "y": 377
            },
            {
                "class": "Text",
                "height": 47,
                "text": "coveredpatio",
                "width": 103,
                "x": 907,
                "y": 381
            },
            {
                "class": "Text",
                "height": 53,
                "text": "greatroom",
                "width": 111,
                "x": 920,
                "y": 726
            },
            {
                "class": "Text",
                "height": 54,
                "text": "masterbedroom",
                "width": 152,
                "x": 2218,
                "y": 729
            },
            {
                "class": "Text",
                "height": 22,
                "text": "bedroom 2",
                "width": 191,
                "x": 1553,
                "y": 789
            },
            {
                "class": "Text",
                "height": 23,
                "text": "kitchen",
                "width": 150,
                "x": 393,
                "y": 839
            },
            {
                "class": "Text",
                "height": 43,
                "text": "bath",
                "width": 112,
                "x": 1926,
                "y": 893
            },
            {
                "class": "Text",
                "height": 11,
                "text": "pantry",
                "width": 64,
                "x": 494,
                "y": 936
            },
            {
                "class": "Text",
                "height": 14,
                "text": "storage",
                "width": 92,
                "x": 542,
                "y": 1009
            },
            {
                "class": "Text",
                "height": 17,
                "text": "up",
                "width": 33,
                "x": 951,
                "y": 1016
            },
            {
                "class": "Text",
                "height": 59,
                "text": "bonusroom",
                "width": 105,
                "x": 1618,
                "y": 1104
            },
            {
                "class": "Text",
                "height": 43,
                "text": "opentobelow",
                "width": 104,
                "x": 2291,
                "y": 1107
            },
            {
                "class": "Text",
                "height": 18,
                "text": "dn",
                "width": 36,
                "x": 2347,
                "y": 1231
            },
            {
                "class": "Text",
                "height": 22,
                "text": "bath 3",
                "width": 109,
                "x": 1071,
                "y": 1278
            },
            {
                "class": "Text",
                "height": 29,
                "text": "laundry",
                "width": 94,
                "x": 1885,
                "y": 1322
            },
            {
                "class": "Text",
                "height": 18,
                "text": "entry",
                "width": 87,
                "x": 827,
                "y": 1371
            },
            {
                "class": "Text",
                "height": 22,
                "text": "bedroom 3",
                "width": 190,
                "x": 1575,
                "y": 1455
            },
            {
                "class": "Text",
                "height": 22,
                "text": "bedroom 4",
                "width": 191,
                "x": 1032,
                "y": 1554
            },
            {
                "class": "Text",
                "height": 47,
                "text": "coveredporch",
                "width": 112,
                "x": 976,
                "y": 1756
            },
            {
                "class": "window",
                "height": 8.09630375232453,
                "width": 78.26426960580352,
                "x": 331.2737618659443,
                "y": 254.35887621886152
            },
            {
                "class": "window",
                "height": 8.770995731684906,
                "width": 76.24019366772245,
                "x": 422.35717907959497,
                "y": 254.35887621886152
            },
            {
                "class": "window",
                "height": 6.74691979360378,
                "width": 72.86673377092052,
                "x": 513.4405962932457,
                "y": 255.70826017758228
            },
            {
                "class": "window",
                "height": 50.60189845202814,
                "width": 6.746919793603752,
                "x": 235.46750079677102,
                "y": 285.3947072694388
            },
            {
                "class": "window",
                "height": 50.60189845202808,
                "width": 6.746919793603752,
                "x": 234.79280881741064,
                "y": 466.2121577380194
            },
            {
                "class": "window",
                "height": 6.659209836286891,
                "width": 98.93683185340569,
                "x": 1064.5222581150092,
                "y": 1713.319559307535
            },
            {
                "class": "window",
                "height": 53.273678690295355,
                "width": 7.610525527185246,
                "x": 1268.1038159672094,
                "y": 1634.3603569629902
            },
            {
                "class": "door",
                "height": 11.415788290777527,
                "width": 414.7736412315854,
                "x": 314.88549368728155,
                "y": 1579.1840468908986
            },
            {
                "class": "window",
                "height": 47.56578454490659,
                "width": 7.610525527185018,
                "x": 1268.1038159672103,
                "y": 1434.5840618743832
            },
            {
                "class": "window",
                "height": 208.65299581964,
                "width": 11.149396723186896,
                "x": 678.5204291539438,
                "y": 293.0698567237692
            },
            {
                "class": "window",
                "height": 76.91062431653643,
                "width": 8.011523366305937,
                "x": 1268.224148886219,
                "y": 855.6306955214667
            },
            {
                "class": "window",
                "height": 76.91062431653643,
                "width": 7.210371029675343,
                "x": 1267.4229965495883,
                "y": 576.0285300373919
            },
            {
                "class": "window",
                "height": 53.27367869029558,
                "width": 6.659209836287118,
                "x": 1481.1985307283967,
                "y": 1307.107759294038
            },
            {
                "class": "window",
                "height": 50.4197316176012,
                "width": 7.610525527185246,
                "x": 1481.1985307283967,
                "y": 1531.618262345998
            },
            {
                "class": "window",
                "height": 5.707894145388991,
                "width": 52.322362999397455,
                "x": 1560.157733072942,
                "y": 1609.626148999645
            },
            {
                "class": "window",
                "height": 7.610525527185246,
                "width": 101.79077892610053,
                "x": 1718.0761377620324,
                "y": 1608.6748333087469
            },
            {
                "class": "window",
                "height": 8.561841218083373,
                "width": 49.468415926703074,
                "x": 1927.3655897596223,
                "y": 1609.626148999645
            },
            {
                "class": "window",
                "height": 9.389485869164673,
                "width": 49.63013959415548,
                "x": 2113.975675686201,
                "y": 537.8834047907148
            },
            {
                "class": "window",
                "height": 6.250124612011632,
                "width": 50.56919004264,
                "x": 2262.545109548228,
                "y": 540.351682365737
            },
            {
                "class": "window",
                "height": 7.210371029675343,
                "width": 51.27374954435754,
                "x": 2412.269685594702,
                "y": 539.9766748890166
            },
            {
                "class": "window",
                "height": 78.2224781036258,
                "width": 7.942590084368476,
                "x": 2514.672157620563,
                "y": 577.6429152267757
            },
            {
                "class": "window",
                "height": 77.01905536357015,
                "width": 7.942590084368476,
                "x": 2514.672157620563,
                "y": 855.8742527276726
            },
            {
                "class": "Text",
                "height": 41.830902720344,
                "text": "walk-in closet",
                "width": 87.03526533749005,
                "x": 1529.5267172099968,
                "y": 438.5497865842514
            },
            {
                "class": "Text",
                "height": 72.1920417915614,
                "text": "vanity",
                "width": 24.963603236334393,
                "x": 1673.2361088137593,
                "y": 371.75528062757314
            },
            {
                "class": "Text",
                "height": 39.13213480290244,
                "text": "master bath",
                "width": 98.50502898661648,
                "x": 1716.416395492824,
                "y": 382.5503522973393
            },
            {
                "class": "Text",
                "height": 40.90657470862027,
                "text": "opt. door",
                "width": 57.078941453888774,
                "x": 1947.3432192685036,
                "y": 579.3512557569705
            },
            {
                "class": "Text",
                "height": 39.49143855429736,
                "text": "opt. upper/lower cabinets",
                "width": 99.93751797414006,
                "x": 1924.603168727794,
                "y": 656.8473963622914
            },
            {
                "class": "Text",
                "height": 32.0598316433659,
                "text": "walk-in closet",
                "width": 83.25986128277123,
                "x": 1817.3617997239362,
                "y": 861.3089098217707
            },
            {
                "class": "Text",
                "height": 62.48988225718654,
                "text": "low linen",
                "width": 43.262226178052515,
                "x": 2223.9988864865354,
                "y": 1076.7487404315216
            },
            {
                "class": "Text",
                "height": 32.84724580185457,
                "text": "opt. open rail",
                "width": 96.93943273230207,
                "x": 2284.08531173383,
                "y": 1188.910067559805
            },
            {
                "class": "Text",
                "height": 111.99886857382421,
                "text": "opt. upper",
                "width": 19.566067401451164,
                "x": 2017.3290182875583,
                "y": 1223.8912505597427
            },
            {
                "class": "Text",
                "height": 14.843223545928367,
                "text": "w",
                "width": 22.939527298253097,
                "x": 1988.3172631750617,
                "y": 1248.8548537960771
            },
            {
                "class": "Text",
                "height": 13.49383958720773,
                "text": "d",
                "width": 16.867299484009664,
                "x": 1993.7147990099447,
                "y": 1320.3722036082781
            },
            {
                "class": "Text",
                "height": 30.223039709921522,
                "text": "opt. sink",
                "width": 43.52117718228669,
                "x": 1909.6931358042343,
                "y": 1387.4390096167922
            },
            {
                "class": "Text",
                "height": 14.168531566567935,
                "text": "opt. upper",
                "width": 120.76986430550937,
                "x": 1900.6073058582122,
                "y": 1452.6118315629149
            },
            {
                "class": "Text",
                "height": 34.4523563928708,
                "text": "walk-in closet",
                "width": 87.56640583188005,
                "x": 1926.460928301363,
                "y": 1536.4793941320609
            },
            {
                "class": "Text",
                "height": 91.83105044795366,
                "text": "2-car garage",
                "width": 139.32986964517124,
                "x": 436.98913661440054,
                "y": 1253.9688268065408
            },
            {
                "class": "Text",
                "height": 38.455312158268725,
                "text": "ref. space",
                "width": 60.88757758392546,
                "x": 413.3946057013884,
                "y": 911.7113590856202
            },
            {
                "class": "Text",
                "height": 104.95095609860834,
                "text": "opt. upper/lower cabinets",
                "width": 47.267987861205285,
                "x": 246.75491968222408,
                "y": 927.7344058182322
            },
            {
                "class": "Text",
                "height": 20.928945199759255,
                "text": "dw",
                "width": 32.34473349053701,
                "x": 400.5039058681201,
                "y": 627.8683559927773
            },
            {
                "class": "Text",
                "height": 64.68946698107402,
                "text": "opt.lower cabinets",
                "width": 41.85789039951851,
                "x": 249.24471101531464,
                "y": 374.8183822138701
            },
            {
                "class": "Text",
                "height": 44.91614108483941,
                "text": "first floor",
                "width": 231.31812658692206,
                "x": 608.6137116995715,
                "y": 1906.690189051425
            },
            {
                "class": "Wall",
                "xn": "1173.96404409;1184.08442378;1186.10849972;1264.37276932;1263.69807734;1172.61466013;1172.61466013",
                "yn": "1185.43380774;1186.10849972;1208.37333503;1205.67456712;1179.36157992;1178.01219596;1186.10849972"
            },
            {
                "class": "Wall",
                "xn": "954.172432927;1172.08586849;1172.08586849;953.37128059;953.37128059",
                "yn": "1184.90430588;1185.70545821;1175.29047784;1176.09163017;1176.09163017"
            },
            {
                "class": "Wall",
                "xn": "944.570734401;953.03318552;952.630211657;945.779655989;945.779655989",
                "yn": "1177.08665324;1177.89260096;1189.17586912;1188.77289526;1188.77289526"
            },
            {
                "class": "Wall",
                "xn": "1824.36711219;1924.89621712",
                "yn": "497.922680768;497.922680768"
            },
            {
                "class": "Wall",
                "xn": "499.287473979",
                "yn": "254.359388575"
            },
            {
                "class": "Wall",
                "xn": "499.001676913;512.434139006;513.005733138;499.287473979",
                "yn": "254.930982707;255.216779773;263.790691747;263.790691747"
            },
            {
                "class": "Wall",
                "xn": "408.831689183;421.601345316;421.80403827;409.237075092;409.439768047;409.439768047",
                "yn": "255.190429689;254.987736734;262.892761959;263.703533777;256.001201507;255.798508552"
            },
            {
                "class": "Wall",
                "xn": "330.202351953",
                "yn": "254.523909522"
            },
            {
                "class": "Wall",
                "xn": "329.184256315;330.541717166;242.306761865;243.324857503;234.16199676;233.822631547",
                "yn": "254.184544309;263.686770265;263.686770265;284.388048239;283.709317814;254.184544309"
            },
            {
                "class": "Wall",
                "xn": "234.095576377;234.095576377;242.618473575;243.186666722",
                "yn": "335.233956462;464.781993875;464.213800729;336.938535902"
            },
            {
                "class": "Wall",
                "xn": "1658.23744542;1665.08800109;1665.89394881;1658.64041928;1658.64041928",
                "yn": "642.340337302;641.534389576;660.474161127;659.668213402;659.668213402"
            },
            {
                "class": "Wall",
                "xn": "2163.73717781;2263.59159075;2261.56751482;2163.06248583",
                "yn": "539.078891509;540.428275468;547.849887241;547.175195261"
            },
            {
                "class": "Wall",
                "xn": "2314.19348921;2412.69851819;2412.02382621;2314.86818119",
                "yn": "539.078891509;539.078891509;547.849887241;547.175195261"
            },
            {
                "class": "Wall",
                "xn": "2465.32449258;2523.34800281;2523.34800281;2517.27577499;2512.55293114;2465.99918456",
                "yn": "540.428275468;539.753583488;578.885718291;578.885718291;547.849887241;547.175195261"
            },
            {
                "class": "Wall",
                "xn": "2514.57700708;2521.99861885;2523.34800281;2515.92639103",
                "yn": "655.125911959;655.800603938;858.208197746;857.533505767"
            },
            {
                "class": "Text",
                "height": 31.855419209106003,
                "text": "second floor",
                "width": 261.2144375146697,
                "x": 1871.5058785349809,
                "y": 1920.8817783090954
            },
            {
                "class": "Wall",
                "xn": "1481.27953305;1488.09785081;1489.2342371;1481.84772619",
                "yn": "1359.11800654;1360.25439283;1532.41691624;1529.5759505"
            },
            {
                "class": "Wall",
                "xn": "1480.52597192;1487.77950145;1488.58544918;1560.31479676;1559.91182289;1480.92894579;1480.92894579",
                "yn": "1582.47835921;1582.88133307;1609.07463416;1609.47760802;1617.13411141;1615.92518982;1615.92518982"
            },
            {
                "class": "Wall",
                "xn": "1613.32443652;1717.06877142;1717.35456848;1613.89603066",
                "yn": "1609.3232776;1609.3232776;1616.75400131;1616.46820425"
            },
            {
                "class": "Wall",
                "xn": "1867.18740025;1875.33216536;1876.01089578;1925.21885162;1924.5401212;1821.03373133;1821.71246175;1867.52676546",
                "yn": "1602.14316914;1602.48253435;1608.93047339;1609.2698386;1617.41460371;1616.39650807;1607.23364733;1608.59110818"
            },
            {
                "class": "Wall",
                "xn": "2014.46634013;2013.66039241;2041.8685628;2043.48045825;2042.27153667;2041.46558894",
                "yn": "1481.33191965;1512.36090708;1512.76388095;1481.73489351;1484.95868441;1481.73489351"
            },
            {
                "class": "Wall",
                "xn": "1901.63365855;1959.66189479;1959.66189479;1902.03663241;1902.03663241",
                "yn": "1471.66054694;1470.45162535;1479.7200242;1478.91407647;1478.91407647"
            },
            {
                "class": "Wall",
                "xn": "2089.40529393;2089.40529393",
                "yn": "971.797784333;1031.08305724"
            },
            {
                "class": "Wall",
                "xn": "2192.75394536;2193.55509769;2283.2841594;2281.68185472",
                "yn": "973.400089006;1037.49227594;1039.09458061;975.803546016"
            },
            {
                "class": "Stairs",
                "xn": "2302.51181548;2506.00450898;2510.01027066;2389.83742017;2390.63857251;2424.28697064;2419.48005662;2301.71066314",
                "yn": "974.201241343;973.400089006;1277.03682459;1275.43451992;1188.91006756;1187.30776289;1062.32799837;1060.7256937"
            },
            {
                "class": "Wall",
                "xn": "1164.79595042;1173.31884762;1173.88704077;1165.36414357",
                "yn": "1069.90769495;1069.3395018;1090.36264822;1090.36264822"
            },
            {
                "class": "door",
                "height": 62.19400915755466,
                "width": 67.64165959471279,
                "x": 1597.0695198268409,
                "y": 580.1747715573345
            },
            {
                "class": "door",
                "height": 49.92771625655371,
                "width": 35.84553987649997,
                "x": 1805.0789723523276,
                "y": 442.9484570453229
            },
            {
                "class": "door",
                "height": 70.61693080704651,
                "width": 59.83571999681044,
                "x": 1838.1964431452561,
                "y": 649.0288907762135
            },
            {
                "class": "door",
                "height": 88.94498918444788,
                "width": 47.43732756503891,
                "x": 2012.3129977305691,
                "y": 553.6151751056241
            },
            {
                "class": "door",
                "height": 72.20715940155628,
                "width": 63.84633041821826,
                "x": 1734.491976361595,
                "y": 880.1672693368655
            },
            {
                "class": "door",
                "height": 66.12655650458305,
                "width": 49.404898537906774,
                "x": 1766.4151415707042,
                "y": 813.2806374701607
            },
            {
                "class": "door",
                "height": 69.91151394352869,
                "width": 61.74003828779155,
                "x": 1979.3129921674345,
                "y": 805.3443229598689
            },
            {
                "class": "door",
                "height": 68.46068864499932,
                "width": 58.2185383752751,
                "x": 1979.9693652998624,
                "y": 970.8480334617622
            },
            {
                "class": "door",
                "height": 88.97375076488436,
                "width": 75.53167331119676,
                "x": 2104.6452698916532,
                "y": 882.6964194588169
            },
            {
                "class": "door",
                "height": 79.80791302277294,
                "width": 72.20715940155651,
                "x": 1891.8275763207798,
                "y": 1210.800051859784
            },
            {
                "class": "door",
                "height": 72.9672347636781,
                "width": 63.08625505609666,
                "x": 1795.2980053313306,
                "y": 1273.126231553759
            },
            {
                "class": "door",
                "height": 61.56610433185347,
                "width": 68.4067825909483,
                "x": 1867.5051647328871,
                "y": 1538.392532934214
            },
            {
                "class": "door",
                "height": 85.12844055762457,
                "width": 79.04783766065134,
                "x": 842.9235765929075,
                "y": 1452.504017014469
            },
            {
                "class": "door",
                "height": 69.92693331519172,
                "width": 64.60640578034008,
                "x": 975.9367649641958,
                "y": 1338.4927126962218
            },
            {
                "class": "door",
                "height": 60.02305309244957,
                "width": 68.05161433411467,
                "x": 1050.2122728978254,
                "y": 1268.8949886231826
            },
            {
                "class": "door",
                "height": 49.28761733018791,
                "width": 57.60890337294677,
                "x": 979.351357340096,
                "y": 1237.3112246656244
            },
            {
                "class": "door",
                "height": 67.2103872684379,
                "width": 54.408408741116546,
                "x": 1118.8929232879009,
                "y": 1089.4483726750614
            },
            {
                "class": "door",
                "height": 65.36648114246168,
                "width": 75.24746085004324,
                "x": 233.3431361713462,
                "y": 1061.0652055218218
            },
            {
                "class": "door",
                "height": 80.56798838489465,
                "width": 69.92693331519166,
                "x": 316.1913506426059,
                "y": 968.3360113429807
            },
            {
                "class": "Stairs",
                "xn": "989.592940162;991.513236941;1170.74093632;1173.94143096;1262.27508279;1262.91518172",
                "yn": "969.749873445;1063.84441562;1060.00382206;1073.44589952;1088.16817482;972.950368076"
            }
        ],
        "class": "image",
        "filename": "29.png"
    }
]
