[
    {
        "annotations": [
            {
                "class": "Window",
                "xn": "1172;1251;1251;1172",
                "yn": "90;90;113;113"
            },
            {
                "class": "Wall",
                "xn": "1824;1895;1895;1824",
                "yn": "1342;1342;1367;1367"
            },
            {
                "class": "Wall",
                "xn": "65;85;85;65",
                "yn": "603;603;879;879"
            },
            {
                "class": "Wall",
                "xn": "1383;1847;1847;1383",
                "yn": "71;71;91;91"
            },
            {
                "class": "Wall",
                "xn": "62;1251;1251;62",
                "yn": "71;71;91;91"
            },
            {
                "class": "Wall",
                "xn": "387;487;487;387",
                "yn": "603;603;624;624"
            },
            {
                "class": "Wall",
                "xn": "1010;1175;1175;1010",
                "yn": "340;340;361;361"
            },
            {
                "class": "Wall",
                "xn": "630;650;650;630",
                "yn": "71;71;178;178"
            },
            {
                "class": "Wall",
                "xn": "1263;1283;1283;1263",
                "yn": "887;887;1419;1419"
            },
            {
                "class": "Wall",
                "xn": "630;650;650;630",
                "yn": "314;314;724;724"
            },
            {
                "class": "Wall",
                "xn": "812;1109;1109;812",
                "yn": "886;886;906;906"
            },
            {
                "class": "Wall",
                "xn": "1622;1849;1849;1622",
                "yn": "1399;1399;1419;1419"
            },
            {
                "class": "Wall",
                "xn": "826;1032;1032;826",
                "yn": "704;704;724;724"
            },
            {
                "class": "Wall",
                "xn": "1;164;164;1",
                "yn": "603;603;623;623"
            },
            {
                "class": "Wall",
                "xn": "393;413;413;393",
                "yn": "603;603;732;732"
            },
            {
                "class": "Wall",
                "xn": "1011;1031;1031;1011",
                "yn": "71;71;724;724"
            },
            {
                "class": "Wall",
                "xn": "1070;1403;1403;1070",
                "yn": "1399;1399;1419;1419"
            },
            {
                "class": "Wall",
                "xn": "1068;1088;1088;1068",
                "yn": "886;886;1060;1060"
            },
            {
                "class": "Wall",
                "xn": "629;1032;1032;629",
                "yn": "465;465;485;485"
            },
            {
                "class": "Wall",
                "xn": "629;690;690;629",
                "yn": "703;703;724;724"
            },
            {
                "class": "Wall",
                "xn": "392;504;504;392",
                "yn": "886;886;906;906"
            },
            {
                "class": "Wall",
                "xn": "1156;1176;1176;1156",
                "yn": "1300;1300;1419;1419"
            },
            {
                "class": "Wall",
                "xn": "22;83;83;22",
                "yn": "174;174;196;196"
            },
            {
                "class": "Wall",
                "xn": "21;42;42;21",
                "yn": "859;859;980;980"
            },
            {
                "class": "Wall",
                "xn": "1825;1896;1896;1825",
                "yn": "349;349;371;371"
            },
            {
                "class": "Wall",
                "xn": "1067;1284;1284;1067",
                "yn": "1043;1043;1064;1064"
            },
            {
                "class": "Wall",
                "xn": "69;89;89;69",
                "yn": "1293;1293;1419;1419"
            },
            {
                "class": "Wall",
                "xn": "20;120;120;20",
                "yn": "858;858;880;880"
            },
            {
                "class": "Wall",
                "xn": "256;414;414;256",
                "yn": "863;863;883;883"
            },
            {
                "class": "Wall",
                "xn": "4;25;25;4",
                "yn": "1196;1196;1312;1312"
            },
            {
                "class": "Wall",
                "xn": "1154;1174;1174;1154",
                "yn": "71;71;112;112"
            },
            {
                "class": "Wall",
                "xn": "64;414;414;64",
                "yn": "710;710;729;729"
            },
            {
                "class": "Wall",
                "xn": "20;38;38;20",
                "yn": "175;175;293;293"
            },
            {
                "class": "Wall",
                "xn": "1824;1896;1896;1824",
                "yn": "658;658;679;679"
            },
            {
                "class": "Wall",
                "xn": "1730;1847;1847;1730",
                "yn": "608;608;628;628"
            },
            {
                "class": "Wall",
                "xn": "1398;1417;1417;1398",
                "yn": "1;1;91;91"
            },
            {
                "class": "Wall",
                "xn": "63;82;82;63",
                "yn": "71;71;195;195"
            },
            {
                "class": "Wall",
                "xn": "3;23;23;3",
                "yn": "515;515;623;623"
            },
            {
                "class": "Wall",
                "xn": "3;90;90;3",
                "yn": "1292;1292;1313;1313"
            },
            {
                "class": "Wall",
                "xn": "1242;1284;1284;1242",
                "yn": "887;887;905;905"
            },
            {
                "class": "Wall",
                "xn": "288;305;305;288",
                "yn": "710;710;878;878"
            },
            {
                "class": "Wall",
                "xn": "872;1032;1032;872",
                "yn": "395;395;413;413"
            },
            {
                "class": "Wall",
                "xn": "873;889;889;873",
                "yn": "352;352;485;485"
            },
            {
                "class": "Wall",
                "xn": "872;906;906;872",
                "yn": "354;354;370;370"
            },
            {
                "class": "Wall",
                "xn": "995;1175;1175;995",
                "yn": "354;354;366;366"
            },
            {
                "class": "Wall",
                "xn": "673;683;683;673",
                "yn": "906;906;1039;1039"
            },
            {
                "class": "Wall",
                "xn": "688;697;697;688",
                "yn": "574;574;705;705"
            },
            {
                "class": "Wall",
                "xn": "1107;1116;1116;1107",
                "yn": "757;757;892;892"
            },
            {
                "class": "Wall",
                "xn": "1175;1192;1175;1157",
                "yn": "1075;1056;1040;1058"
            },
            {
                "class": "Wall",
                "xn": "28;26;23;25",
                "yn": "1184;1196;1310;1298"
            },
            {
                "class": "Wall",
                "xn": "5;27;27;5",
                "yn": "515;515;530;530"
            },
            {
                "class": "Wall",
                "xn": "7;29;29;7",
                "yn": "1199;1199;1212;1212"
            },
            {
                "class": "Wall",
                "xn": "1826;1852;1852;1826",
                "yn": "71;71;1419;1419"
            },
            {
                "class": "Wall",
                "xn": "1164;1174;1174;1164",
                "yn": "335;335;361;361"
            },
            {
                "class": "Wall",
                "xn": "1156;1173;1173;1156",
                "yn": "1041;1041;1075;1075"
            },
            {
                "class": "Wall",
                "xn": "637;677;677;637",
                "yn": "886;886;908;908"
            },
            {
                "class": "Wall",
                "xn": "68;851;851;68",
                "yn": "1394;1394;1419;1419"
            },
            {
                "class": "Wall",
                "xn": "638;666;666;638",
                "yn": "886;886;1419;1419"
            },
            {
                "class": "Wall",
                "xn": "620;651;651;620",
                "yn": "598;598;619;619"
            },
            {
                "class": "Wall",
                "xn": "1154;1159;1159;1154",
                "yn": "335;335;361;361"
            },
            {
                "class": "Wall",
                "xn": "649;786;786;649",
                "yn": "310;310;317;317"
            },
            {
                "class": "Wall",
                "xn": "120;128;128;120",
                "yn": "879;879;1017;1017"
            },
            {
                "class": "Wall",
                "xn": "989;997;997;989",
                "yn": "265;265;352;352"
            },
            {
                "class": "Wall",
                "xn": "1042;1156;1156;1042",
                "yn": "1071;1071;1079;1079"
            },
            {
                "class": "Wall",
                "xn": "629;636;636;629",
                "yn": "906;906;1039;1039"
            },
            {
                "class": "Text",
                "height": 32,
                "text": "masterbdrm",
                "width": 321,
                "x": 183,
                "y": 300
            },
            {
                "class": "Text",
                "height": 32,
                "text": "dining",
                "width": 154,
                "x": 1073,
                "y": 495
            },
            {
                "class": "Text",
                "height": 31,
                "text": "bdrm 2",
                "width": 185,
                "x": 271,
                "y": 1094
            },
            {
                "class": "Text",
                "height": 32,
                "text": "bdrm 3",
                "width": 184,
                "x": 809,
                "y": 1099
            },
            {
                "class": "Text",
                "height": 28,
                "text": "dn",
                "width": 21,
                "x": 842,
                "y": 258
            },
            {
                "class": "Text",
                "height": 41.79611740201878,
                "text": "master ba.",
                "width": 257.5544531800075,
                "x": 708.2747462450207,
                "y": 210.11021180474296
            },
            {
                "class": "Text",
                "height": 51.96274055386118,
                "text": "opt laundry",
                "width": 116.35135384886303,
                "x": 1057.3288077916097,
                "y": 241.73970605491934
            },
            {
                "class": "Text",
                "height": 34.04359305134335,
                "text": "ba.2",
                "width": 121.04388640477623,
                "x": 752.7416685797024,
                "y": 609.0020534740305
            },
            {
                "class": "Text",
                "height": 28.369660876119383,
                "text": "linen",
                "width": 75.65242900298517,
                "x": 319.6315125376123,
                "y": 784.8939509059711
            },
            {
                "class": "Text",
                "height": 26.13688474114042,
                "text": "hvac",
                "width": 60.228473533932174,
                "x": 1148.3183491705367,
                "y": 968.2011217152868
            },
            {
                "class": "Text",
                "height": 37.826214501492586,
                "text": "living",
                "width": 145.6309258307465,
                "x": 1479.0049870083606,
                "y": 1119.6559492441809
            },
            {
                "class": "Text",
                "height": 53.899369301807724,
                "text": "kitchen",
                "width": 199.87682782753677,
                "x": 1488.970076962438,
                "y": 300.93814526842635
            },
            {
                "class": "window",
                "height": 17.02179652567156,
                "width": 221.28335483373178,
                "x": 852.9811370086583,
                "y": 1401.4612472803012
            },
            {
                "class": "window",
                "height": 17.02179652567179,
                "width": 219.39204410865705,
                "x": 1403.3525580053758,
                "y": 1399.5699365552264
            },
            {
                "class": "Window",
                "xn": "17.6253514059;8.01152336631;27.2391794454;34.4495504751;34.4495504751",
                "yn": "979.809307699;1195.31928625;1197.72274326;981.411612372;981.411612372"
            },
            {
                "class": "Window",
                "xn": "17.1236824362;8.56184121808;25.6855236543;36.1499962541",
                "yn": "293.956548488;512.759157394;511.807841703;290.151285724"
            },
            {
                "class": "Wall",
                "xn": "121.273580929;159.452300851;166.189722014;119.027773875",
                "yn": "4.49161410848;4.49161410848;83.094861007;80.8490539527"
            },
            {
                "class": "door",
                "height": 142.043947778801,
                "width": 225.1547682876739,
                "x": 163.1994293628777,
                "y": 480.5316531240288
            },
            {
                "class": "door",
                "height": 155.64390022570745,
                "width": 132.9773128141967,
                "x": 488.08718226119913,
                "y": 463.90948902225426
            },
            {
                "class": "door",
                "height": 154.32570152517985,
                "width": 140.39352013749004,
                "x": 116.81598240447643,
                "y": 862.7235397761791
            },
            {
                "class": "door",
                "height": 132.67330446789697,
                "width": 152.52917316377273,
                "x": 391.7021370004577,
                "y": 731.9595232888738
            },
            {
                "class": "door",
                "height": 149.82155470524424,
                "width": 132.67330446789697,
                "x": 501.81195431395065,
                "y": 886.2937754249991
            },
            {
                "class": "door",
                "height": 149.82155470524435,
                "width": 139.8936203573063,
                "x": 673.294456687423,
                "y": 887.1963149111753
            },
            {
                "class": "door",
                "height": 219.69978342126342,
                "width": 132.89157631334956,
                "x": 1040.6267790343738,
                "y": 1075.9930856338942
            },
            {
                "class": "door",
                "height": 150.03887648281386,
                "width": 133.96328257394111,
                "x": 1107.0725671910486,
                "y": 754.4812074564359
            },
            {
                "class": "door",
                "height": 144.68034517985632,
                "width": 136.1066950951241,
                "x": 690.1788318209443,
                "y": 576.5779681982423
            },
            {
                "class": "door",
                "height": 136.05348981977562,
                "width": 155.05537387281686,
                "x": 631.6226259230925,
                "y": 177.85763473646648
            },
            {
                "class": "door",
                "height": 103.05592714493872,
                "width": 89.61384969125106,
                "x": 906.3800797343682,
                "y": 265.0009555155568
            },
            {
                "class": "door",
                "height": 223.9866084636297,
                "width": 130.74816379216668,
                "x": 1155.2993489176688,
                "y": 112.5291573621106
            },
            {
                "class": "door",
                "height": 163.971057870504,
                "width": 132.8915763133498,
                "x": 1249.6094998497233,
                "y": 70.73261319904094
            }
        ],
        "class": "image",
        "filename": "31_250.png"
    }
]
