[
    {
        "annotations": [
            {
                "class": "Window",
                "xn": "0;25;25;0",
                "yn": "1288;1288;1468;1468"
            },
            {
                "class": "Window",
                "xn": "1017;1282;1282;1017",
                "yn": "0;0;25;25"
            },
            {
                "class": "Window",
                "xn": "0;25;25;0",
                "yn": "1028;1028;1206;1206"
            },
            {
                "class": "Window",
                "xn": "355;437;437;355",
                "yn": "0;0;24;24"
            },
            {
                "class": "Window",
                "xn": "0;25;25;0",
                "yn": "626;626;686;686"
            },
            {
                "class": "Window",
                "xn": "403;484;484;403",
                "yn": "1914;1914;1937;1937"
            },
            {
                "class": "Window",
                "xn": "556;638;638;556",
                "yn": "1914;1914;1937;1937"
            },
            {
                "class": "Window",
                "xn": "48;130;130;48",
                "yn": "0;0;24;24"
            },
            {
                "class": "Wall",
                "xn": "1283;1384;1384;1283",
                "yn": "1182;1182;1218;1218"
            },
            {
                "class": "Wall",
                "xn": "902;987;987;902",
                "yn": "1183;1183;1218;1218"
            },
            {
                "class": "Wall",
                "xn": "435;470;470;435",
                "yn": "1131;1131;1190;1190"
            },
            {
                "class": "Wall",
                "xn": "886;911;911;886",
                "yn": "1750;1750;1879;1879"
            },
            {
                "class": "Wall",
                "xn": "308;332;332;308",
                "yn": "1856;1856;1937;1937"
            },
            {
                "class": "Wall",
                "xn": "910;1018;1018;910",
                "yn": "1;1;26;26"
            },
            {
                "class": "Wall",
                "xn": "1;25;25;1",
                "yn": "1;1;627;627"
            },
            {
                "class": "Wall",
                "xn": "461;584;584;461",
                "yn": "320;320;343;343"
            },
            {
                "class": "Wall",
                "xn": "1360;1383;1383;1360",
                "yn": "415;415;473;473"
            },
            {
                "class": "Wall",
                "xn": "1360;1383;1383;1360",
                "yn": "1;1;119;119"
            },
            {
                "class": "Wall",
                "xn": "911;934;934;911",
                "yn": "285;285;417;417"
            },
            {
                "class": "Wall",
                "xn": "1;25;25;1",
                "yn": "686;686;816;816"
            },
            {
                "class": "Wall",
                "xn": "1360;1383;1383;1360",
                "yn": "533;533;792;792"
            },
            {
                "class": "Wall",
                "xn": "130;356;356;130",
                "yn": "1;1;24;24"
            },
            {
                "class": "Wall",
                "xn": "1360;1383;1383;1360",
                "yn": "296;296;355;355"
            },
            {
                "class": "Wall",
                "xn": "1360;1384;1384;1360",
                "yn": "1088;1088;1218;1218"
            },
            {
                "class": "Wall",
                "xn": "437;486;486;437",
                "yn": "1;1;25;25"
            },
            {
                "class": "Wall",
                "xn": "722;746;746;722",
                "yn": "1750;1750;1937;1937"
            },
            {
                "class": "Wall",
                "xn": "1;24;24;1",
                "yn": "1561;1561;1879;1879"
            },
            {
                "class": "Wall",
                "xn": "142;191;191;142",
                "yn": "1856;1856;1879;1879"
            },
            {
                "class": "Wall",
                "xn": "1359;1383;1383;1359",
                "yn": "178;178;237;237"
            },
            {
                "class": "Wall",
                "xn": "1;25;25;1",
                "yn": "958;958;1029;1029"
            },
            {
                "class": "Wall",
                "xn": "307;404;404;307",
                "yn": "1914;1914;1937;1937"
            },
            {
                "class": "Wall",
                "xn": "462;485;485;462",
                "yn": "1;1;48;48"
            },
            {
                "class": "Wall",
                "xn": "0;333;333;0",
                "yn": "1468;1468;1490;1490"
            },
            {
                "class": "Wall",
                "xn": "1282;1384;1384;1282",
                "yn": "1;1;25;25"
            },
            {
                "class": "Wall",
                "xn": "1;25;25;1",
                "yn": "1206;1206;1289;1289"
            },
            {
                "class": "Wall",
                "xn": "638;746;746;638",
                "yn": "1914;1914;1937;1937"
            },
            {
                "class": "Wall",
                "xn": "863;935;935;863",
                "yn": "319;319;344;344"
            },
            {
                "class": "Wall",
                "xn": "886;985;985;886",
                "yn": "1855;1855;1879;1879"
            },
            {
                "class": "Wall",
                "xn": "484;557;557;484",
                "yn": "1915;1915;1937;1937"
            },
            {
                "class": "Wall",
                "xn": "462;485;485;462",
                "yn": "285;285;343;343"
            },
            {
                "class": "Wall",
                "xn": "0;49;49;0",
                "yn": "1;1;25;25"
            },
            {
                "class": "Wall",
                "xn": "0;61;61;0",
                "yn": "1855;1855;1879;1879"
            },
            {
                "class": "Wall",
                "xn": "272;333;333;272",
                "yn": "1856;1856;1880;1880"
            },
            {
                "class": "Wall",
                "xn": "911;932;932;911",
                "yn": "1;1;48;48"
            },
            {
                "class": "Wall",
                "xn": "1047;1247;1247;1047",
                "yn": "679;679;694;694"
            },
            {
                "class": "Wall",
                "xn": "0;78;78;0",
                "yn": "409;409;425;425"
            },
            {
                "class": "Wall",
                "xn": "714;729;729;714",
                "yn": "1183;1183;1269;1269"
            },
            {
                "class": "Wall",
                "xn": "461;532;532;461",
                "yn": "802;802;817;817"
            },
            {
                "class": "Wall",
                "xn": "0;345;345;0",
                "yn": "1269;1269;1279;1279"
            },
            {
                "class": "Wall",
                "xn": "402;470;470;402",
                "yn": "1130;1130;1140;1140"
            },
            {
                "class": "Wall",
                "xn": "281;291;291;281",
                "yn": "733;733;805;805"
            },
            {
                "class": "Wall",
                "xn": "423;445;445;423",
                "yn": "1268;1268;1278;1278"
            },
            {
                "class": "Wall",
                "xn": "308;318;318;308",
                "yn": "894;894;972;972"
            },
            {
                "class": "Wall",
                "xn": "920;934;934;920",
                "yn": "611;611;649;649"
            },
            {
                "class": "Wall",
                "xn": "1464;1504;1504;1464",
                "yn": "1204;1204;1219;1219"
            },
            {
                "class": "Wall",
                "xn": "1456;1504;1504;1456",
                "yn": "1855;1855;1879;1879"
            },
            {
                "class": "Wall",
                "xn": "1476;1503;1503;1476",
                "yn": "1194;1194;1879;1879"
            },
            {
                "class": "Wall",
                "xn": "1;25;25;1",
                "yn": "1466;1466;1501;1501"
            },
            {
                "class": "Wall",
                "xn": "903;911;911;903",
                "yn": "1183;1183;1263;1263"
            },
            {
                "class": "Wall",
                "xn": "435;540;540;435",
                "yn": "1182;1182;1190;1190"
            },
            {
                "class": "Wall",
                "xn": "461;469;469;461",
                "yn": "285;285;353;353"
            },
            {
                "class": "Wall",
                "xn": "523;531;531;523",
                "yn": "320;320;685;685"
            },
            {
                "class": "Wall",
                "xn": "0;317;317;0",
                "yn": "796;796;805;805"
            },
            {
                "class": "Wall",
                "xn": "902;1386;1386;902",
                "yn": "1209;1209;1218;1218"
            },
            {
                "class": "Wall",
                "xn": "0;470;470;0",
                "yn": "964;964;972;972"
            },
            {
                "class": "Wall",
                "xn": "383;391;391;383",
                "yn": "1905;1905;1937;1937"
            },
            {
                "class": "Wall",
                "xn": "324;332;332;324",
                "yn": "1737;1737;1937;1937"
            },
            {
                "class": "Wall",
                "xn": "722;729;729;722",
                "yn": "1578;1578;1937;1937"
            },
            {
                "class": "Wall",
                "xn": "903;911;911;903",
                "yn": "1348;1348;1879;1879"
            },
            {
                "class": "Wall",
                "xn": "606;730;730;606",
                "yn": "1261;1261;1269;1269"
            },
            {
                "class": "Wall",
                "xn": "461;469;469;461",
                "yn": "802;802;1190;1190"
            },
            {
                "class": "Wall",
                "xn": "324;332;332;324",
                "yn": "1269;1269;1396;1396"
            },
            {
                "class": "Wall",
                "xn": "436;444;444;436",
                "yn": "1131;1131;1373;1373"
            },
            {
                "class": "Wall",
                "xn": "1467;1504;1504;1467",
                "yn": "1194;1194;1201;1201"
            },
            {
                "class": "Wall",
                "xn": "432;532;532;432",
                "yn": "617;617;626;626"
            },
            {
                "class": "Wall",
                "xn": "186;193;193;186",
                "yn": "703;703;805;805"
            },
            {
                "class": "Wall",
                "xn": "323;392;392;323",
                "yn": "1746;1746;1755;1755"
            },
            {
                "class": "Wall",
                "xn": "477;730;730;477",
                "yn": "1578;1578;1586;1586"
            },
            {
                "class": "Wall",
                "xn": "722;729;729;722",
                "yn": "1183;1183;1461;1461"
            },
            {
                "class": "Wall",
                "xn": "606;614;614;606",
                "yn": "1183;1183;1461;1461"
            },
            {
                "class": "Wall",
                "xn": "435;615;615;435",
                "yn": "1358;1358;1365;1365"
            },
            {
                "class": "Wall",
                "xn": "462;469;469;462",
                "yn": "608;608;685;685"
            },
            {
                "class": "Wall",
                "xn": "383;391;391;383",
                "yn": "1578;1578;1764;1764"
            },
            {
                "class": "Wall",
                "xn": "682;730;730;682",
                "yn": "1452;1452;1461;1461"
            },
            {
                "class": "Wall",
                "xn": "435;624;624;435",
                "yn": "1453;1453;1461;1461"
            },
            {
                "class": "Wall",
                "xn": "323;399;399;323",
                "yn": "1578;1578;1587;1587"
            },
            {
                "class": "Text",
                "height": 31,
                "text": "rumpus",
                "width": 160,
                "x": 1071,
                "y": 231
            },
            {
                "class": "Text",
                "height": 30,
                "text": "wir",
                "width": 83,
                "x": 203,
                "y": 496
            },
            {
                "class": "Text",
                "height": 31,
                "text": "ensuite",
                "width": 150,
                "x": 61,
                "y": 646
            },
            {
                "class": "Text",
                "height": 29,
                "text": "laundry",
                "width": 167,
                "x": 109,
                "y": 838
            },
            {
                "class": "Text",
                "height": 29,
                "text": "living",
                "width": 116,
                "x": 1130,
                "y": 1059
            },
            {
                "class": "Text",
                "height": 29,
                "text": "kitchen",
                "width": 149,
                "x": 569,
                "y": 1117
            },
            {
                "class": "Text",
                "height": 31,
                "text": "bedroom 4",
                "width": 230,
                "x": 129,
                "y": 1210
            },
            {
                "class": "Text",
                "height": 26,
                "text": "pantry",
                "width": 86,
                "x": 514,
                "y": 1274
            },
            {
                "class": "Text",
                "height": 29,
                "text": "entry",
                "width": 113,
                "x": 776,
                "y": 1602
            },
            {
                "class": "Text",
                "height": 31,
                "text": "bedroom",
                "width": 191,
                "x": 114,
                "y": 1780
            },
            {
                "class": "Text",
                "height": 59,
                "text": "closet",
                "width": 22,
                "x": 492,
                "y": 443
            },
            {
                "class": "Wall",
                "xn": "466.192223357;527.279480211",
                "yn": "682.676887997;683.748594257"
            },
            {
                "class": "Wall",
                "xn": "933.372544685;934.89269541;920.451263529;919.691188167",
                "yn": "650.624509976;693.188730255;693.188730255;650.624509976"
            },
            {
                "class": "window",
                "height": 57.422021442491086,
                "width": 22.666587411509635,
                "x": 1.5111058274339757,
                "y": 1503.5502982968057
            },
            {
                "class": "window",
                "height": 24.177693238943448,
                "width": 77.06639719913275,
                "x": 63.46644475222698,
                "y": 1857.1490619163562
            },
            {
                "class": "window",
                "height": 19.644375756641693,
                "width": 74.04418554426482,
                "x": 194.93265173898286,
                "y": 1860.171273571224
            },
            {
                "class": "window",
                "height": 59.811291748891705,
                "width": 21.63387148364177,
                "x": 1359.116161442901,
                "y": 119.62258349778344
            },
            {
                "class": "window",
                "height": 58.53871107338338,
                "width": 19.08871013262501,
                "x": 1361.6613227939179,
                "y": 235.42742496904188
            },
            {
                "class": "window",
                "height": 55.99354972236671,
                "width": 20.36129080813339,
                "x": 1361.6613227939179,
                "y": 356.32258914233364
            },
            {
                "class": "window",
                "height": 55.99354972236671,
                "width": 16.54354878160825,
                "x": 1362.9339034694262,
                "y": 473.4000112891004
            },
            {
                "class": "window",
                "height": 286.33065198937516,
                "width": 21.633871483641542,
                "x": 1362.9339034694262,
                "y": 795.362922192709
            },
            {
                "class": "Text",
                "height": 36.9048395897417,
                "text": "master suite",
                "width": 276.1500065853086,
                "x": 187.06935929972516,
                "y": 334.6887176586919
            },
            {
                "class": "Text",
                "height": 162.8903264650668,
                "text": "sliding door",
                "width": 29.269355536691705,
                "x": 426.314526295292,
                "y": 95.44355066312508
            },
            {
                "class": "Text",
                "height": 51.37759813275517,
                "text": "outdoor room",
                "width": 341.50991700007853,
                "x": 563.6424736328729,
                "y": 220.62145080536044
            },
            {
                "class": "Text",
                "height": 31.733222376113474,
                "text": "sliding door",
                "width": 166.2216410177374,
                "x": 639.1977650045717,
                "y": 350.5765519646824
            },
            {
                "class": "Text",
                "height": 43.82206899558537,
                "text": "dining",
                "width": 149.5994769159637,
                "x": 684.5309398275909,
                "y": 630.1311300399678
            },
            {
                "class": "Text",
                "height": 175.2882759823412,
                "text": "sliding door",
                "width": 34.755434030981405,
                "x": 945.9522479736688,
                "y": 69.51086806196288
            },
            {
                "class": "Text",
                "height": 89.15524381860462,
                "text": "sliding door",
                "width": 54.39980978762312,
                "x": 34.75543403098144,
                "y": 817.5082526417808
            },
            {
                "class": "Text",
                "height": 31.73322237611353,
                "text": "broom liner",
                "width": 137.5106302964918,
                "x": 321.86554124343684,
                "y": 923.2856605621591
            },
            {
                "class": "Text",
                "height": 39.28875151328339,
                "text": "linen",
                "width": 74.0441855442649,
                "x": 628.6200242125338,
                "y": 1346.3952922436724
            },
            {
                "class": "Text",
                "height": 40.79985734071715,
                "text": "bathroom",
                "width": 222.13255663279443,
                "x": 123.91067784958601,
                "y": 1367.5507738277481
            },
            {
                "class": "Text",
                "height": 67.99976223452882,
                "text": "robe",
                "width": 22.666587411509624,
                "x": 353.5987636195503,
                "y": 1627.4609761463919
            },
            {
                "class": "Text",
                "height": 66.48865640709505,
                "text": "robe",
                "width": 25.688799066377612,
                "x": 347.5543403098144,
                "y": 1787.6381938543932
            },
            {
                "class": "Text",
                "height": 40.79985734071738,
                "text": "badroom 2",
                "width": 244.79914404430406,
                "x": 454.8428540576267,
                "y": 1845.0602152968843
            },
            {
                "class": "Text",
                "height": 42.310963168151375,
                "text": "porch",
                "width": 128.4439953318879,
                "x": 758.5751253718558,
                "y": 1808.7936754384689
            },
            {
                "class": "Text",
                "height": 40.79985734071738,
                "text": "double gabage",
                "width": 335.4654936903428,
                "x": 1066.8407141683867,
                "y": 1505.0614041242397
            },
            {
                "class": "Text",
                "height": 60.444233097359074,
                "text": "robe",
                "width": 30.22211654867948,
                "x": 426.13184333638117,
                "y": 1016.9742218630656
            },
            {
                "class": "door",
                "height": 140.53284195135973,
                "width": 22.666587411509635,
                "x": 3.0222116548679514,
                "y": 815.9971468143469
            },
            {
                "class": "door",
                "height": 119.13521217524834,
                "width": 49.63967173968683,
                "x": 418.77832158572136,
                "y": 353.79547858104047
            },
            {
                "class": "door",
                "height": 123.64790960612896,
                "width": 46.029513794982336,
                "x": 421.48594004424973,
                "y": 481.05354613187393
            },
            {
                "class": "door",
                "height": 65.88538249085707,
                "width": 81.22855375585112,
                "x": 352.89293909486435,
                "y": 558.6719419430206
            },
            {
                "class": "door",
                "height": 57.762527115271894,
                "width": 68.59300094938538,
                "x": 202.1688449034517,
                "y": 408.85038723778405
            },
            {
                "class": "Wall",
                "xn": "200.350963953;183.068292941;184.98858972;193.309875763;193.309875763;281.003428675;281.643527601;289.964813644;289.324714717;350.774211649;351.414310575;345.653420238;342.452925606;273.962340485;272.682142632;336.692035269;337.972233121;193.949974689;193.309875763;200.350963953;200.350963953;200.991062879",
                "yn": "407.743016095;407.743016095;632.41773925;631.137541397;626.016749986;624.736552133;733.553369615;734.193468542;624.736552133;625.37665106;617.055365017;616.415266091;409.023213948;409.023213948;417.344499991;416.064302138;618.33556287;615.135068238;418.624697843;417.984598917;417.984598917;417.984598917"
            },
            {
                "class": "door",
                "height": 82.08813910913409,
                "width": 63.08625505609379,
                "x": 253.10509558649667,
                "y": 811.0004113837596
            },
            {
                "class": "door",
                "height": 48.64482317578313,
                "width": 132.25311300916042,
                "x": 320.7518028153201,
                "y": 860.4053099216644
            },
            {
                "class": "Wall",
                "xn": "319.991727453;326.832405712;327.592481074;318.471576729",
                "yn": "904.489680925;905.249756287;913.61058527;912.850509908"
            },
            {
                "class": "Wall",
                "xn": "459.085518721;449.964614376;450.724689738;459.085518721;459.845594084",
                "yn": "906.769907011;903.729605563;912.850509908;913.61058527;904.489680925"
            },
            {
                "class": "Wall",
                "xn": "409.838935765;409.838935765;401.810374523;401.428062083",
                "yn": "974.132097322;980.631408803;980.249096363;973.367472442"
            },
            {
                "class": "Wall",
                "xn": "401.810374523;402.574999403;409.838935765;410.603560645",
                "yn": "1128.20401067;1121.70469919;1121.70469919;1128.58632311"
            },
            {
                "class": "door",
                "height": 139.0937912682549,
                "width": 57.76572752124247,
                "x": 352.6749680244279,
                "y": 982.0173678611226
            },
            {
                "class": "door",
                "height": 80.37796954436044,
                "width": 53.585313029573626,
                "x": 277.5719214931915,
                "y": 1394.2898450295063
            },
            {
                "class": "door",
                "height": 85.73650084731776,
                "width": 65.37408189607982,
                "x": 267.92656514786825,
                "y": 1487.5282897009645
            },
            {
                "class": "door",
                "height": 146.8237577010318,
                "width": 58.943844332531,
                "x": 274.35680271141706,
                "y": 1591.4837969783373
            },
            {
                "class": "door",
                "height": 61.08725685371405,
                "width": 78.2345570231775,
                "x": 397.60302267943644,
                "y": 1578.6233218512396
            },
            {
                "class": "door",
                "height": 143.60863891925737,
                "width": 58.94384433253106,
                "x": 383.67084129174737,
                "y": 1762.9567986729733
            },
            {
                "class": "Wall",
                "xn": "436.099977274;443.107764301;444.185885382;437.178098355",
                "yn": "1443.06506695;1442.52600641;1451.15097506;1453.84627776"
            },
            {
                "class": "door",
                "height": 68.99974918550811,
                "width": 56.062296213225295,
                "x": 436.09997727403135,
                "y": 1372.9871966835078
            },
            {
                "class": "door",
                "height": 49.054509186572204,
                "width": 59.83571999680771,
                "x": 537.9824194307581,
                "y": 1182.159765342337
            },
            {
                "class": "Wall",
                "xn": "612.911834562;598.896260509;599.435321049;613.989955643",
                "yn": "1181.08164426;1181.6207048;1190.78473399;1189.70661291"
            },
            {
                "class": "door",
                "height": 50.164973900026325,
                "width": 57.765727521242525,
                "x": 625.5420230260869,
                "y": 1453.2640923765227
            },
            {
                "class": "door",
                "height": 81.39814161727918,
                "width": 137.46043783050447,
                "x": 747.1379091493296,
                "y": 1690.4938550449478
            },
            {
                "class": "door",
                "height": 86.78874702239682,
                "width": 64.68726486141384,
                "x": 902.9264053572347,
                "y": 1262.4797858785932
            },
            {
                "class": "door",
                "height": 78.2877622985261,
                "width": 76.76761157428291,
                "x": 1386.3774605098215,
                "y": 1194.0783938930535
            },
            {
                "class": "door",
                "height": 238.99049611189866,
                "width": 23.577537733012377,
                "x": 909.8786152421615,
                "y": 47.155075466024854
            },
            {
                "class": "door",
                "height": 232.88226361802558,
                "width": 21.633871483641713,
                "x": 460.67420453401786,
                "y": 48.358065669316794
            },
            {
                "class": "Text",
                "height": 34.56534202376656,
                "text": "wc",
                "width": 58.88910122567626,
                "x": 213.15294247989345,
                "y": 697.7078297389905
            },
            {
                "class": "door",
                "height": 71.69107975299721,
                "width": 60.16929907840836,
                "x": 183.7083918670553,
                "y": 631.7776403232878
            },
            {
                "class": "Text",
                "height": 36.2665398584154,
                "text": "wc.",
                "width": 64.97755057966111,
                "x": 483.5538647788732,
                "y": 1409.8617369959022
            }
        ],
        "class": "image",
        "filename": "49.png"
    }
]
