[
    {
        "annotations": [
            {
                "class": "Door",
                "xn": "335;352;352;335",
                "yn": "1117;1117;1119;1119"
            },
            {
                "class": "Text",
                "height": 17,
                "text": "up",
                "width": 28,
                "x": 2623,
                "y": 170
            },
            {
                "class": "Text",
                "height": 29,
                "text": "hall",
                "width": 94,
                "x": 939,
                "y": 609
            },
            {
                "class": "Text",
                "height": 29,
                "text": "storage",
                "width": 177,
                "x": 1368,
                "y": 1012
            },
            {
                "class": "Text",
                "height": 28,
                "text": "office",
                "width": 128,
                "x": 2692,
                "y": 1242
            },
            {
                "class": "Text",
                "height": 16,
                "text": "storage",
                "width": 94,
                "x": 2500,
                "y": 1537
            },
            {
                "class": "Text",
                "height": 16,
                "text": "storage",
                "width": 94,
                "x": 2806,
                "y": 1537
            },
            {
                "class": "Text",
                "height": 29,
                "text": "dn",
                "width": 17,
                "x": 193,
                "y": 471
            },
            {
                "class": "Text",
                "height": 28,
                "text": "up",
                "width": 17,
                "x": 314,
                "y": 466
            },
            {
                "class": "Text",
                "height": 30,
                "text": "dn",
                "width": 18,
                "x": 2181,
                "y": 1551
            },
            {
                "class": "wall",
                "height": 565.8609055923164,
                "width": 18.21900643005563,
                "x": 141.4652263980791,
                "y": 115.74427614388289
            },
            {
                "class": "wall",
                "height": 40.72483790247736,
                "width": 229.34513976658278,
                "x": 128.60475127098098,
                "y": 682.6768879967907
            },
            {
                "class": "wall",
                "height": 166.11447039168377,
                "width": 38.58142538129428,
                "x": 125.38963248920646,
                "y": 683.7485942573823
            },
            {
                "class": "wall",
                "height": 56.80043181134988,
                "width": 38.58142538129431,
                "x": 126.46133874979796,
                "y": 961.3205157505829
            },
            {
                "class": "wall",
                "height": 279.71533401438364,
                "width": 41.79654416306883,
                "x": 123.24621996802344,
                "y": 1125.2915736210837
            },
            {
                "class": "wall",
                "height": 10.717062605915089,
                "width": 9.645356345323592,
                "x": 163.97105787050074,
                "y": 1277.4738626250778
            },
            {
                "class": "wall",
                "height": 57.872138071941436,
                "width": 167.1861766522753,
                "x": 173.61641421582434,
                "y": 727.688550941634
            },
            {
                "class": "wall",
                "height": 54.657019290166886,
                "width": 330.08552826218465,
                "x": 346.1611221710573,
                "y": 729.8319634628174
            },
            {
                "class": "wall",
                "height": 60.015550593124544,
                "width": 39.65313164188582,
                "x": 125.3896324892065,
                "y": 1511.105827434027
            },
            {
                "class": "wall",
                "height": 279.71533401438387,
                "width": 38.58142538129432,
                "x": 125.3896324892065,
                "y": 1681.507122868077
            },
            {
                "class": "wall",
                "height": 55.7287255507581,
                "width": 39.65313164188582,
                "x": 124.31792622861501,
                "y": 2070.536495462795
            },
            {
                "class": "wall",
                "height": 178.59635198090928,
                "width": 40.067220699169695,
                "x": 123.13220866370526,
                "y": 2237.6618660861004
            },
            {
                "class": "wall",
                "height": 39.28875151328475,
                "width": 246.31024987174646,
                "x": 125.42178367702428,
                "y": 2383.0138898634614
            },
            {
                "class": "wall",
                "height": 43.06413005920331,
                "width": 52.03582382153763,
                "x": 486.26580191850655,
                "y": 2377.4988470185285
            },
            {
                "class": "wall",
                "height": 43.06413005920331,
                "width": 52.03582382153763,
                "x": 644.1676121355862,
                "y": 2377.4988470185285
            },
            {
                "class": "wall",
                "height": 46.65280756413722,
                "width": 48.44714631660395,
                "x": 803.8637611051327,
                "y": 2381.087524523462
            },
            {
                "class": "wall",
                "height": 43.06413005920331,
                "width": 48.44714631660395,
                "x": 970.7372650845464,
                "y": 2379.2931857709955
            },
            {
                "class": "wall",
                "height": 41.269791306736806,
                "width": 53.83016257400436,
                "x": 1125.0503977966923,
                "y": 2377.4988470185285
            },
            {
                "class": "wall",
                "height": 41.26979130673635,
                "width": 55.62450132647132,
                "x": 1284.7465467662387,
                "y": 2379.2931857709955
            },
            {
                "class": "wall",
                "height": 43.06413005920331,
                "width": 50.241485069070905,
                "x": 1451.6200507456529,
                "y": 2375.7045082660625
            },
            {
                "class": "wall",
                "height": 37.68111380180335,
                "width": 48.44714631660395,
                "x": 1611.3161997151994,
                "y": 2382.8818632759294
            },
            {
                "class": "wall",
                "height": 46.65280756413722,
                "width": 50.241485069070905,
                "x": 1771.0123486847458,
                "y": 2377.498847018529
            },
            {
                "class": "wall",
                "height": 46.65280756413722,
                "width": 269.1508128700225,
                "x": 1939.6801914166263,
                "y": 2372.1158307611286
            },
            {
                "class": "wall",
                "height": 40.79985734071897,
                "width": 169.24385267261096,
                "x": 2319.547445111235,
                "y": 2378.480572381162
            },
            {
                "class": "wall",
                "height": 40.79985734071852,
                "width": 34.75543403098254,
                "x": 2597.5909173590953,
                "y": 2378.1973394561296
            },
            {
                "class": "wall",
                "height": 42.31096316815274,
                "width": 25.688799066378124,
                "x": 2738.123759310461,
                "y": 2376.969466553728
            },
            {
                "class": "wall",
                "height": 290.3721900266514,
                "width": 14.978715677281798,
                "x": 2136.8359825887765,
                "y": 2085.0861706996434
            },
            {
                "class": "wall",
                "height": 13.599952446906173,
                "width": 151.11058274340303,
                "x": 2142.748063301454,
                "y": 2129.1481108545477
            },
            {
                "class": "wall",
                "height": 12.088846619472406,
                "width": 39.28875151328475,
                "x": 2381.502784036031,
                "y": 2129.1481108545477
            },
            {
                "class": "wall",
                "height": 258.3990964912191,
                "width": 10.577740792038185,
                "x": 2408.702688929843,
                "y": 2118.5703700625095
            },
            {
                "class": "wall",
                "height": 43.06413005920376,
                "width": 141.75276144487862,
                "x": 2874.530681451842,
                "y": 2373.9101695136
            },
            {
                "class": "wall",
                "height": 113.04334140540959,
                "width": 41.269791306736806,
                "x": 2973.2193128375175,
                "y": 2305.725296919861
            },
            {
                "class": "wall",
                "height": 34.09243629686944,
                "width": 43.06413005920331,
                "x": 2973.2193128375175,
                "y": 2169.355551732383
            },
            {
                "class": "wall",
                "height": 69.97921134620583,
                "width": 41.269791306736806,
                "x": 2975.013651589984,
                "y": 2002.4820477529688
            },
            {
                "class": "wall",
                "height": 12.560371267267783,
                "width": 231.46969906821914,
                "x": 2743.543952521765,
                "y": 2020.425435277637
            },
            {
                "class": "wall",
                "height": 10.766032514800827,
                "width": 244.03007033548738,
                "x": 2411.5912833154034,
                "y": 2020.425435277637
            },
            {
                "class": "wall",
                "height": 371.42812176063126,
                "width": 10.766032514800827,
                "x": 2138.851792940447,
                "y": 1453.4143894981225
            },
            {
                "class": "wall",
                "height": 166.87350397941418,
                "width": 8.97169376233387,
                "x": 2140.646131692914,
                "y": 1839.1972212784883
            },
            {
                "class": "wall",
                "height": 17.943387524668196,
                "width": 127.39805142514388,
                "x": 2140.646131692914,
                "y": 1862.523625060557
            },
            {
                "class": "wall",
                "height": 294.27155540455806,
                "width": 17.943387524668196,
                "x": 2255.48381185079,
                "y": 1580.8124409232666
            },
            {
                "class": "wall",
                "height": 7.1773550098673695,
                "width": 16.14904877220124,
                "x": 2273.4271993754583,
                "y": 1620.2878934775365
            },
            {
                "class": "wall",
                "height": 10.717062605915089,
                "width": 425.4673854548305,
                "x": 2385.6181360767055,
                "y": 1621.4915722749577
            },
            {
                "class": "wall",
                "height": 48.647518403821095,
                "width": 10.24158282185681,
                "x": 2406.1318642100537,
                "y": 1581.6844470505566
            },
            {
                "class": "wall",
                "height": 49.28761733018723,
                "width": 10.24158282185681,
                "x": 2404.8516663573214,
                "y": 1435.1017929127268
            },
            {
                "class": "wall",
                "height": 10.881681748223173,
                "width": 560.0865605703102,
                "x": 2405.4917652836875,
                "y": 1449.1839692927804
            },
            {
                "class": "wall",
                "height": 177.94750152976712,
                "width": 9.601483895491128,
                "x": 2722.3407338348916,
                "y": 1453.0245628509767
            },
            {
                "class": "wall",
                "height": 8.321286042759084,
                "width": 61.449496931142676,
                "x": 2907.9694224810514,
                "y": 1621.3705804852527
            },
            {
                "class": "wall",
                "height": 26.173645099108626,
                "width": 42.41935585027932,
                "x": 2975.67268592279,
                "y": 1873.6719733017023
            },
            {
                "class": "wall",
                "height": 167.87234442876525,
                "width": 42.41935585027932,
                "x": 2972.0625279780857,
                "y": 1593.8847325870936
            },
            {
                "class": "wall",
                "height": 54.1523691705695,
                "width": 40.614276877927296,
                "x": 2974.770146436614,
                "y": 1431.4276250753853
            },
            {
                "class": "wall",
                "height": 175.09266031817447,
                "width": 42.41935585027977,
                "x": 2972.9650674642617,
                "y": 1149.8353053884243
            },
            {
                "class": "wall",
                "height": 7.635484053050277,
                "width": 604.4758208664816,
                "x": 2361.909733743557,
                "y": 1182.2274475472868
            },
            {
                "class": "wall",
                "height": 155.25484241202253,
                "width": 11.453226079575415,
                "x": 2405.177476710842,
                "y": 1180.9548668717784
            },
            {
                "class": "wall",
                "height": 91.2090434545969,
                "width": 10.641055069702816,
                "x": 2136.57184292393,
                "y": 1180.3970373749069
            },
            {
                "class": "wall",
                "height": 14.441431880311256,
                "width": 275.14728108803365,
                "x": 2140.3722197345382,
                "y": 1259.4448750355573
            },
            {
                "class": "wall",
                "height": 91.96911881671849,
                "width": 9.880979707581446,
                "x": 2221.7002834815535,
                "y": 1181.91718809915
            },
            {
                "class": "wall",
                "height": 9.880979707581446,
                "width": 138.33371590613842,
                "x": 2139.6121443724164,
                "y": 1181.91718809915
            },
            {
                "class": "wall",
                "height": 38.80919790557482,
                "width": 189.53329209699314,
                "x": 2824.0460522451995,
                "y": 683.2223910353518
            },
            {
                "class": "wall",
                "height": 194.9485290140501,
                "width": 40.614276877927296,
                "x": 2974.770146436618,
                "y": 682.3198515491757
            },
            {
                "class": "wall",
                "height": 47.83459276733629,
                "width": 12.635552806466421,
                "x": 2866.465408095479,
                "y": 676.0020751459426
            },
            {
                "class": "wall",
                "height": 37.906658419398696,
                "width": 53.24982968439326,
                "x": 2658.8813262749627,
                "y": 684.1249305215281
            },
            {
                "class": "wall",
                "height": 40.72258161626826,
                "width": 237.97258632006788,
                "x": 2314.8242487497505,
                "y": 680.8306613969854
            },
            {
                "class": "wall",
                "height": 40.72258161626826,
                "width": 106.89677674270433,
                "x": 2097.2129532378167,
                "y": 682.1032420724938
            },
            {
                "class": "wall",
                "height": 122.16774484880489,
                "width": 10.180645404067036,
                "x": 2135.390373503068,
                "y": 725.3709850397788
            },
            {
                "class": "wall",
                "height": 13.998387430592174,
                "width": 279.96774861184485,
                "x": 2135.390373503068,
                "y": 838.630665160025
            },
            {
                "class": "wall",
                "height": 29.269355536692842,
                "width": 8.908064728559111,
                "x": 2408.9952187373706,
                "y": 818.2693743518909
            },
            {
                "class": "wall",
                "height": 122.16774484880489,
                "width": 11.453226079575415,
                "x": 2225.7436014641635,
                "y": 724.0984043642704
            },
            {
                "class": "wall",
                "height": 6.3629033775418975,
                "width": 271.0596838832862,
                "x": 2141.75327688061,
                "y": 721.5532430132537
            },
            {
                "class": "wall",
                "height": 10.18064540406715,
                "width": 10.18064540406749,
                "x": 2403.904896035337,
                "y": 725.3709850397788
            },
            {
                "class": "wall",
                "height": 22.666587411510534,
                "width": 1134.8404764029608,
                "x": 149.59947691596952,
                "y": 116.35514871242074
            },
            {
                "class": "wall",
                "height": 415.5541025443599,
                "width": 30.22211654868073,
                "x": 384.4531868619943,
                "y": 117.42685497301238
            },
            {
                "class": "wall",
                "height": 28.71101072124668,
                "width": 105.77740792038253,
                "x": 391.3764093054154,
                "y": 501.6871347081001
            },
            {
                "class": "wall",
                "height": 7.555529137170197,
                "width": 25.68879906637858,
                "x": 486.5760764337597,
                "y": 503.19824053553407
            },
            {
                "class": "wall",
                "height": 81.59971468143794,
                "width": 18.13326992920844,
                "x": 474.4872298142874,
                "y": 498.664923053232
            },
            {
                "class": "wall",
                "height": 40.79985734071897,
                "width": 55.91091561505931,
                "x": 468.44280650455124,
                "y": 683.0198340001845
            },
            {
                "class": "wall",
                "height": 46.844280650455175,
                "width": 21.155481584076483,
                "x": 477.5094414691555,
                "y": 676.9754106904483
            },
            {
                "class": "wall",
                "height": 43.822068995587074,
                "width": 335.4654936903561,
                "x": 631.6422358674272,
                "y": 681.5087281727504
            },
            {
                "class": "wall",
                "height": 435.1984783010025,
                "width": 12.088846619472292,
                "x": 744.9751729249799,
                "y": 720.7974796860353
            },
            {
                "class": "wall",
                "height": 10.577740792038185,
                "width": 67.99976223453166,
                "x": 689.0642573099205,
                "y": 1278.3955300091948
            },
            {
                "class": "wall",
                "height": 54.399809787625145,
                "width": 10.577740792038298,
                "x": 749.508490407282,
                "y": 1228.5290377038716
            },
            {
                "class": "wall",
                "height": 10.577740792038185,
                "width": 234.22140325227565,
                "x": 352.08765779213047,
                "y": 1279.9066358366288
            },
            {
                "class": "wall",
                "height": 27.698569816865884,
                "width": 1719.4419878623671,
                "x": 1282.6568484425588,
                "y": 112.92493848414556
            },
            {
                "class": "wall",
                "height": 264.20174286856695,
                "width": 21.306592166819883,
                "x": 2428.9515070174702,
                "y": 117.18625691750954
            },
            {
                "class": "wall",
                "height": 14.914614516773952,
                "width": 434.65448020312624,
                "x": 2558.921719235072,
                "y": 362.2120668359386
            },
            {
                "class": "wall",
                "height": 262.07108365188503,
                "width": 23.437251383501916,
                "x": 2982.9229033547886,
                "y": 117.18625691750955
            },
            {
                "class": "wall",
                "height": 13.998387430592231,
                "width": 62.35645309991094,
                "x": 604.4758208664837,
                "y": 497.57904412377917
            },
            {
                "class": "wall",
                "height": 66.17419512643613,
                "width": 13.998387430592288,
                "x": 656.6516285623275,
                "y": 500.12420547479593
            },
            {
                "class": "wall",
                "height": 6.362903377542011,
                "width": 427.5871069708179,
                "x": 668.104854641903,
                "y": 558.6629165481817
            },
            {
                "class": "wall",
                "height": 59.811291748894234,
                "width": 10.180645404067036,
                "x": 1088.0564775596706,
                "y": 500.12420547479593
            },
            {
                "class": "wall",
                "height": 8.908064728558713,
                "width": 63.6290337754192,
                "x": 1091.8742195861957,
                "y": 498.85162479928755
            },
            {
                "class": "wall",
                "height": 44.54032364279351,
                "width": 132.34839025287215,
                "x": 1080.4209935066203,
                "y": 682.1032420724953
            },
            {
                "class": "wall",
                "height": 412.60691032773366,
                "width": 11.78876886650687,
                "x": 1286.0475127098193,
                "y": 135.03498883453105
            },
            {
                "class": "wall",
                "height": 9.645356345323648,
                "width": 48.22678172661813,
                "x": 1251.752912370891,
                "y": 498.34341117505505
            },
            {
                "class": "wall",
                "height": 13.932181387689695,
                "width": 229.34513976658445,
                "x": 1292.4777502733684,
                "y": 250.7792649784148
            },
            {
                "class": "wall",
                "height": 55.72872555075887,
                "width": 18.219006430055742,
                "x": 1504.6755898704887,
                "y": 236.84708359072508
            },
            {
                "class": "wall",
                "height": 13.932181387689695,
                "width": 15.003887648281307,
                "x": 1505.7472961310802,
                "y": 140.39352013748862
            },
            {
                "class": "wall",
                "height": 10.717062605915089,
                "width": 232.5602585483589,
                "x": 1291.406044012777,
                "y": 540.1399553381242
            },
            {
                "class": "wall",
                "height": 35.366306599520044,
                "width": 323.65529069863805,
                "x": 1319.2704067881564,
                "y": 684.8203005179788
            },
            {
                "class": "wall",
                "height": 440.47127310311305,
                "width": 10.717062605915089,
                "x": 1596.8423282813592,
                "y": 833.7874707401996
            },
            {
                "class": "wall",
                "height": 11.788768866506643,
                "width": 280.78704027497724,
                "x": 1316.055288006382,
                "y": 1263.5416812373976
            },
            {
                "class": "wall",
                "height": 85.74125118673533,
                "width": 83.03363272820661,
                "x": 1235.576556575164,
                "y": 1186.8394243216512
            },
            {
                "class": "wall",
                "height": 68.59300094938817,
                "width": 61.37268505997895,
                "x": 1247.309569895454,
                "y": 1195.864819183413
            },
            {
                "class": "wall",
                "height": 11.788768866506643,
                "width": 485.48293604795685,
                "x": 758.7680324987934,
                "y": 1263.5416812373976
            },
            {
                "class": "window",
                "height": 104.26630209294865,
                "width": 40.79985734071903,
                "x": 128.44399533189326,
                "y": 852.2636866727976
            },
            {
                "class": "window",
                "height": 99.73298461064655,
                "width": 43.82206899558713,
                "x": 129.95510115932728,
                "y": 1023.0186451728439
            },
            {
                "class": "window",
                "height": 101.24409043808055,
                "width": 45.33317482302114,
                "x": 119.37736036728903,
                "y": 1408.3506311685237
            },
            {
                "class": "window",
                "height": 107.28851374781652,
                "width": 45.33317482302115,
                "x": 123.91067784959114,
                "y": 1574.572272186268
            },
            {
                "class": "window",
                "height": 104.26630209294854,
                "width": 45.33317482302115,
                "x": 128.44399533189326,
                "y": 1964.4375756642498
            },
            {
                "class": "window",
                "height": 106.09891979856002,
                "width": 50.370194247801294,
                "x": 124.31792622861596,
                "y": 2127.336927274161
            },
            {
                "class": "window",
                "height": 60.444233097361575,
                "width": 108.7996195752508,
                "x": 373.2431393762077,
                "y": 2366.3917257617054
            },
            {
                "class": "window",
                "height": 54.399809787625145,
                "width": 107.28851374781675,
                "x": 537.953674566518,
                "y": 2367.9028315891396
            },
            {
                "class": "window",
                "height": 52.88870396019138,
                "width": 98.22187878321256,
                "x": 702.6642097568282,
                "y": 2366.3917257617054
            },
            {
                "class": "window",
                "height": 43.822068995587074,
                "width": 101.24409043808066,
                "x": 530.3981454293478,
                "y": 681.5087281727517
            },
            {
                "class": "window",
                "height": 40.799857340719086,
                "width": 96.71077295577845,
                "x": 973.1521528675213,
                "y": 679.9976223453176
            },
            {
                "class": "window",
                "height": 48.355386477889624,
                "width": 107.28851374781675,
                "x": 856.7970041551002,
                "y": 2372.4361490714414
            },
            {
                "class": "window",
                "height": 48.355386477889624,
                "width": 96.71077295577845,
                "x": 1021.5075393454105,
                "y": 2372.4361490714414
            },
            {
                "class": "window",
                "height": 54.3998097876256,
                "width": 101.24409043808078,
                "x": 1180.173651225985,
                "y": 2367.90283158914
            },
            {
                "class": "window",
                "height": 58.933127269927354,
                "width": 101.24409043808055,
                "x": 1343.3730805888613,
                "y": 2364.880619934272
            },
            {
                "class": "window",
                "height": 49.86649230532328,
                "width": 101.24409043808078,
                "x": 1211.9068736020997,
                "y": 678.4865165178838
            },
            {
                "class": "window",
                "height": 55.910915615059366,
                "width": 104.26630209294876,
                "x": 1505.0614041243034,
                "y": 2369.4139374165743
            },
            {
                "class": "window",
                "height": 54.3998097876256,
                "width": 102.75519626551454,
                "x": 1663.7275160048782,
                "y": 2369.4139374165748
            },
            {
                "class": "window",
                "height": 49.86649230532339,
                "width": 101.24409043808055,
                "x": 1826.9269453677546,
                "y": 2369.4139374165748
            },
            {
                "class": "window",
                "height": 49.00516198368598,
                "width": 110.79427926746393,
                "x": 2203.1016300491856,
                "y": 677.5496309048752
            },
            {
                "class": "window",
                "height": 44.743843550322026,
                "width": 104.40230161741783,
                "x": 2552.529741585033,
                "y": 683.9416085549212
            },
            {
                "class": "window",
                "height": 46.874502767003946,
                "width": 104.40230161741783,
                "x": 2718.721160486229,
                "y": 681.8109493382393
            },
            {
                "class": "window",
                "height": 102.2716424007358,
                "width": 53.266480417049934,
                "x": 2965.877629621341,
                "y": 877.8315972729831
            },
            {
                "class": "window",
                "height": 95.87966475068993,
                "width": 51.1358212003679,
                "x": 2965.877629621341,
                "y": 1050.414993824225
            },
            {
                "class": "wall",
                "height": 157.66878203446777,
                "width": 42.613184333639765,
                "x": 2972.269607271387,
                "y": 722.2934744551973
            },
            {
                "class": "window",
                "height": 105.8659863955429,
                "width": 50.24148506907113,
                "x": 2964.247619075202,
                "y": 1322.427660568053
            },
            {
                "class": "window",
                "height": 102.27730889060922,
                "width": 46.652807564137674,
                "x": 2966.0419578276683,
                "y": 1487.5068257950013
            },
            {
                "class": "window",
                "height": 104.07164764307618,
                "width": 48.44714631660463,
                "x": 2967.8362965801352,
                "y": 1765.6293324273597
            },
            {
                "class": "window",
                "height": 102.27730889060945,
                "width": 41.269791306736806,
                "x": 2969.630635332602,
                "y": 1900.2047388623719
            },
            {
                "class": "window",
                "height": 104.07164764307572,
                "width": 50.24148506907113,
                "x": 2967.8362965801352,
                "y": 2070.666920346721
            },
            {
                "class": "window",
                "height": 96.8942926332088,
                "width": 48.44714631660463,
                "x": 2966.0419578276683,
                "y": 2207.0366655341995
            },
            {
                "class": "window",
                "height": 62.801856336338915,
                "width": 100.48297013814226,
                "x": 2770.459033808784,
                "y": 2366.7328145037477
            },
            {
                "class": "window",
                "height": 59.21317883140546,
                "width": 96.8942926332088,
                "x": 2635.883627373772,
                "y": 2370.321492008681
            },
            {
                "class": "window",
                "height": 50.24148506907113,
                "width": 102.27730889060922,
                "x": 2492.3365271764255,
                "y": 2372.115830761148
            },
            {
                "class": "window",
                "height": 54.399809787625145,
                "width": 104.26630209294854,
                "x": 2218.3033546731726,
                "y": 2370.925043244011
            },
            {
                "class": "Stairs",
                "xn": "170.579962887;259.028832533;259.028832533;251.808516643;253.613595616;168.774883915",
                "yn": "1381.78795334;1384.49557179;1675.11328634;1675.11328634;1816.81198567;1819.51960413"
            },
            {
                "class": "wall",
                "height": 141.23386161409303,
                "width": 5.929665945629864,
                "x": 167.64782809917145,
                "y": 1820.9465058488784
            },
            {
                "class": "wall",
                "height": 10.242150269724334,
                "width": 94.33559458956594,
                "x": 168.72594918019504,
                "y": 1820.4074453083665
            },
            {
                "class": "wall",
                "height": 155.2494356673999,
                "width": 8.624968648188883,
                "x": 254.4365751215721,
                "y": 1675.400159910691
            },
            {
                "class": "window",
                "height": 34.2946003389286,
                "width": 102.88380101678592,
                "x": 359.0215972981592,
                "y": 695.5373631238965
            },
            {
                "class": "Stairs",
                "xn": "822.213471906;757.230628902;758.133168388;781.599195029;798.747445266;790.62458989;805.967761155;826.726169337",
                "yn": "808.675379614;806.870300641;1088.46262033;1066.80167266;1074.92452804;1042.43310653;1048.75088294;1030.70009321"
            },
            {
                "class": "wall",
                "height": 304.1558068413673,
                "width": 12.635552806466308,
                "x": 825.8236298511902,
                "y": 807.7728401276669
            },
            {
                "class": "wall",
                "height": 12.635552806466421,
                "width": 83.03363272820718,
                "x": 758.1331683879778,
                "y": 1102.9032521072725
            },
            {
                "class": "door",
                "height": 92.16673841087083,
                "width": 106.09891979856053,
                "x": 389.0293725947221,
                "y": 580.8647932406043
            },
            {
                "class": "door",
                "height": 97.52526971382844,
                "width": 86.80820710791312,
                "x": 511.20388630215547,
                "y": 499.4151174356487
            },
            {
                "class": "door",
                "height": 97.5252697138285,
                "width": 174.68812047641796,
                "x": 510.13218004156414,
                "y": 1279.6172751462764
            },
            {
                "class": "door",
                "height": 71.80431945963187,
                "width": 85.73650084732174,
                "x": 745.907557371699,
                "y": 1156.3710551782517
            },
            {
                "class": "door",
                "height": 70.73261319904032,
                "width": 79.30626328377252,
                "x": 760.9114450199803,
                "y": 731.9753759840092
            },
            {
                "class": "door",
                "height": 103.07903471617982,
                "width": 92.89838931211261,
                "x": 1156.7758340371295,
                "y": 498.85162479929016
            },
            {
                "class": "door",
                "height": 78.57750302657038,
                "width": 87.6441379911746,
                "x": 1508.0836157791778,
                "y": 157.15500605314077
            },
            {
                "class": "door",
                "height": 94.76664604849736,
                "width": 96.57172502084973,
                "x": 1511.7536393450775,
                "y": 736.4722207197511
            },
            {
                "class": "door",
                "height": 113.25968012024708,
                "width": 90.35322796109631,
                "x": 2461.171026433234,
                "y": 269.7871032077796
            },
            {
                "class": "door",
                "height": 76.35484053050357,
                "width": 82.71774390804558,
                "x": 2405.177476710865,
                "y": 738.0967917948686
            },
            {
                "class": "door",
                "height": 92.96156707614523,
                "width": 94.76664604849748,
                "x": 2407.0728096318358,
                "y": 1337.5635185130786
            },
            {
                "class": "door",
                "height": 95.66918553467372,
                "width": 36.10157944704679,
                "x": 2379.996625046551,
                "y": 1483.7749152736176
            },
            {
                "class": "door",
                "height": 87.54633015908826,
                "width": 89.3514091314405,
                "x": 2293.352834373639,
                "y": 1620.9609171723948
            },
            {
                "class": "door",
                "height": 85.73650084732185,
                "width": 90.02332588968784,
                "x": 2136.982283619497,
                "y": 1997.660469742599
            },
            {
                "class": "door",
                "height": 96.45356345323717,
                "width": 81.44967580495586,
                "x": 2294.523103926451,
                "y": 2127.3369272741734
            },
            {
                "class": "door",
                "height": 80.37796954436453,
                "width": 87.87991336850519,
                "x": 2407.0522612885607,
                "y": 2036.2418951238938
            },
            {
                "class": "door",
                "height": 92.89838931211261,
                "width": 85.26290525906279,
                "x": 2659.693611812546,
                "y": 2017.0403706808065
            },
            {
                "class": "door",
                "height": 105.62419606719686,
                "width": 89.08064728558747,
                "x": 2816.221034900079,
                "y": 1619.995199922187
            },
            {
                "class": "Stairs",
                "xn": "2159.77699042;2245.51824161;2250.03093904;2158.87445093",
                "yn": "1523.48665267;1526.19427112;1866.45165741;1862.84149947"
            },
            {
                "class": "Stairs",
                "xn": "2589.84025608;2589.20015715;2982.86099687;2983.50109579;2587.27986037;2587.9199593;2719.1402392;2772.90854902;2799.79270393;2747.30459196;2885.56596006;2886.20605898",
                "yn": "254.119273767;355.89500306;360.375695544;138.261368095;140.181664874;241.31729524;242.597493093;140.181664874;139.541565948;241.31729524;243.877690945;252.198976988"
            },
            {
                "class": "Text",
                "height": 48.3580656693191,
                "text": "west stair",
                "width": 95.44355066312974,
                "x": 223.9741988894779,
                "y": 551.0274324951359
            },
            {
                "class": "Text",
                "height": 24.17903283465955,
                "text": "206",
                "width": 53.44838837135268,
                "x": 246.88065104862903,
                "y": 610.8387242440306
            },
            {
                "class": "Text",
                "height": 102.7551962655154,
                "text": "unfinished future multi-media",
                "width": 267.4657314558269,
                "x": 814.486040986953,
                "y": 371.7320335487763
            },
            {
                "class": "Text",
                "height": 19.644375756642603,
                "text": "205",
                "width": 54.39980978762571,
                "x": 894.5746498409577,
                "y": 498.6649230532365
            },
            {
                "class": "Text",
                "height": 24.177693238944812,
                "text": "tel.rm",
                "width": 122.39957202215805,
                "x": 1326.750916487096,
                "y": 163.1994293628774
            },
            {
                "class": "Text",
                "height": 27.199904893812914,
                "text": "203",
                "width": 40.79985734071943,
                "x": 1364.5285621729472,
                "y": 197.95486339386056
            },
            {
                "class": "Text",
                "height": 31.73322237611501,
                "text": "elevator",
                "width": 173.77717015491567,
                "x": 1356.973033035777,
                "y": 448.7984307479129
            },
            {
                "class": "Text",
                "height": 32.298097544403106,
                "text": "exhibit",
                "width": 111.249002652944,
                "x": 2004.2763865054599,
                "y": 224.29234405835496
            },
            {
                "class": "Text",
                "height": 28.70942003946942,
                "text": "201",
                "width": 59.213178831405685,
                "x": 2038.36882280233,
                "y": 265.5621353650923
            },
            {
                "class": "Text",
                "height": 58.53871107338628,
                "text": "east stair",
                "width": 87.80806661007955,
                "x": 2475.1694138638322,
                "y": 161.6177457895664
            },
            {
                "class": "Text",
                "height": 24.17903283465955,
                "text": "202",
                "width": 52.175807695844014,
                "x": 2492.98554332095,
                "y": 227.79194091600306
            },
            {
                "class": "Text",
                "height": 17.81612945711754,
                "text": "dn",
                "width": 30.541936212201108,
                "x": 2622.7887722228065,
                "y": 285.05807131388093
            },
            {
                "class": "Text",
                "height": 45.01166294484403,
                "text": "open to below",
                "width": 112.52915736211025,
                "x": 2726.4207269448416,
                "y": 518.7058301262985
            },
            {
                "class": "Text",
                "height": 33.222894078337276,
                "text": "exhibits",
                "width": 172.54470795523548,
                "x": 2606.3896257585907,
                "y": 1005.2604724348512
            },
            {
                "class": "Text",
                "height": 25.720950254196623,
                "text": "214",
                "width": 43.93995668425259,
                "x": 2667.4768826123077,
                "y": 1057.774079203836
            },
            {
                "class": "Text",
                "height": 23.57753773301374,
                "text": "220",
                "width": 49.29848798721014,
                "x": 2726.4207269448416,
                "y": 1290.334337752197
            },
            {
                "class": "Text",
                "height": 27.864362775379732,
                "text": "219",
                "width": 45.01166294484392,
                "x": 2844.3084156099094,
                "y": 1571.1213780271767
            },
            {
                "class": "Text",
                "height": 24.64924399360507,
                "text": "218",
                "width": 53.585313029576355,
                "x": 2532.4418937777755,
                "y": 1572.1930842877682
            },
            {
                "class": "Text",
                "height": 32.15118781774595,
                "text": "214",
                "width": 50.37019424780192,
                "x": 2310.5986978353294,
                "y": 1647.212522529175
            },
            {
                "class": "Text",
                "height": 34.3596782387267,
                "text": "chair storage",
                "width": 94.17096998762145,
                "x": 2275.3742478090153,
                "y": 736.8242111193624
            },
            {
                "class": "Text",
                "height": 20.361290808134413,
                "text": "211",
                "width": 39.450000940760674,
                "x": 2307.1887646967252,
                "y": 794.0903415172403
            },
            {
                "class": "Text",
                "height": 16.54354878160916,
                "text": "controls",
                "width": 101.80645404067172,
                "x": 2261.375860378423,
                "y": 1197.4984156534024
            },
            {
                "class": "Text",
                "height": 26.724194185676424,
                "text": "212",
                "width": 58.53871107338637,
                "x": 2286.8274738885916,
                "y": 1225.4951905145874
            },
            {
                "class": "window",
                "height": 6.317776403233211,
                "width": 74.0082378664456,
                "x": 2282.5223605395317,
                "y": 1180.5216479184292
            },
            {
                "class": "Text",
                "height": 64.98284300468413,
                "text": "stair hall",
                "width": 110.10981731349284,
                "x": 2172.412543226039,
                "y": 1325.8305051927923
            },
            {
                "class": "Text",
                "height": 24.368566126756605,
                "text": "213",
                "width": 47.834592767336744,
                "x": 2199.488727811324,
                "y": 1398.9362035730621
            },
            {
                "class": "Text",
                "height": 24.64924399360507,
                "text": "216",
                "width": 45.011662944844375,
                "x": 2732.8509645083923,
                "y": 2303.09675401119
            },
            {
                "class": "Text",
                "height": 37.50971912070327,
                "text": "rest rm",
                "width": 189.69200812470035,
                "x": 2180.922240303757,
                "y": 2218.4319594244607
            },
            {
                "class": "Text",
                "height": 20.36241895123885,
                "text": "217",
                "width": 36.43801286011194,
                "x": 2263.4436223693046,
                "y": 2260.22850358753
            },
            {
                "class": "Text",
                "height": 39.653131641886375,
                "text": "conference rm.",
                "width": 332.2289407833737,
                "x": 2505.6492372629896,
                "y": 1805.8250490967228
            },
            {
                "class": "Text",
                "height": 24.64924399360507,
                "text": "215",
                "width": 40.72483790247816,
                "x": 2568.8799066378897,
                "y": 1859.410362126299
            },
            {
                "class": "Text",
                "height": 32.151187817745836,
                "text": "exhibits",
                "width": 158.61252656754596,
                "x": 1810.1118741390892,
                "y": 935.5995654964031
            },
            {
                "class": "Text",
                "height": 25.720950254196623,
                "text": "207",
                "width": 48.22678172661881,
                "x": 1861.5537746474824,
                "y": 977.3961096594727
            },
            {
                "class": "Text",
                "height": 30.222116548681015,
                "text": "gross second floor",
                "width": 456.35395988508435,
                "x": 708.7086330665711,
                "y": 1947.8154115624952
            },
            {
                "class": "Text",
                "height": 28.71101072124702,
                "text": "exhibits",
                "width": 169.24385267261414,
                "x": 1180.1736512259959,
                "y": 1802.749252128826
            },
            {
                "class": "Stairs",
                "xn": "163.359646998;266.249148422;267.151687908;277.079622256;278.884701228;383.579281625;382.676742139;158.846949567",
                "yn": "534.303375816;534.303375816;237.367884864;236.465345378;534.303375816;533.40083633;139.893620357;138.088541385"
            }
        ],
        "class": "image",
        "filename": "50.png"
    }
]
