[
    {
        "annotations": [
            {
                "class": "Wall",
                "xn": "652;701;701;652",
                "yn": "1294;1294;1377;1377"
            },
            {
                "class": "Wall",
                "xn": "949;973;973;949",
                "yn": "938;938;1318;1318"
            },
            {
                "class": "Wall",
                "xn": "1530;1554;1554;1530",
                "yn": "238;238;879;879"
            },
            {
                "class": "Wall",
                "xn": "1;25;25;1",
                "yn": "1;1;1318;1318"
            },
            {
                "class": "Wall",
                "xn": "949;973;973;949",
                "yn": "1;1;262;262"
            },
            {
                "class": "Wall",
                "xn": "877;974;974;877",
                "yn": "1;1;26;26"
            },
            {
                "class": "Wall",
                "xn": "272;405;405;272",
                "yn": "1294;1294;1319;1319"
            },
            {
                "class": "Wall",
                "xn": "948;1420;1420;948",
                "yn": "238;238;262;262"
            },
            {
                "class": "Wall",
                "xn": "901;974;974;901",
                "yn": "1293;1293;1318;1318"
            },
            {
                "class": "Wall",
                "xn": "272;354;354;272",
                "yn": "1;1;25;25"
            },
            {
                "class": "Wall",
                "xn": "616;702;702;616",
                "yn": "1;1;25;25"
            },
            {
                "class": "Wall",
                "xn": "604;725;725;604",
                "yn": "1294;1294;1319;1319"
            },
            {
                "class": "Wall",
                "xn": "0;97;97;0",
                "yn": "1;1;26;26"
            },
            {
                "class": "Wall",
                "xn": "0;97;97;0",
                "yn": "1293;1293;1318;1318"
            },
            {
                "class": "Wall",
                "xn": "945;1022;1022;945",
                "yn": "855;855;879;879"
            },
            {
                "class": "Wall",
                "xn": "630;652;652;630",
                "yn": "1235;1235;1318;1318"
            },
            {
                "class": "Wall",
                "xn": "630;653;653;630",
                "yn": "961;961;1028;1028"
            },
            {
                "class": "Wall",
                "xn": "1494;1555;1555;1494",
                "yn": "855;855;879;879"
            },
            {
                "class": "Wall",
                "xn": "358;381;381;358",
                "yn": "770;770;838;838"
            },
            {
                "class": "Wall",
                "xn": "359;381;381;359",
                "yn": "1235;1235;1318;1318"
            },
            {
                "class": "Wall",
                "xn": "1505;1555;1555;1505",
                "yn": "238;238;260;260"
            },
            {
                "class": "Wall",
                "xn": "763;774;774;763",
                "yn": "786;786;805;805"
            },
            {
                "class": "Wall",
                "xn": "629;974;974;629",
                "yn": "961;961;969;969"
            },
            {
                "class": "Wall",
                "xn": "0;107;107;0",
                "yn": "517;517;527;527"
            },
            {
                "class": "Wall",
                "xn": "0;382;382;0",
                "yn": "770;770;778;778"
            },
            {
                "class": "Wall",
                "xn": "949;957;957;949",
                "yn": "1;1;699;699"
            },
            {
                "class": "Wall",
                "xn": "949;957;957;949",
                "yn": "779;779;879;879"
            },
            {
                "class": "Wall",
                "xn": "653;958;958;653",
                "yn": "578;578;588;588"
            },
            {
                "class": "Wall",
                "xn": "494;663;663;494",
                "yn": "518;518;526;526"
            },
            {
                "class": "Wall",
                "xn": "756;958;958;756",
                "yn": "786;786;794;794"
            },
            {
                "class": "Wall",
                "xn": "763;773;773;763",
                "yn": "875;875;969;969"
            },
            {
                "class": "Wall",
                "xn": "373;381;381;373",
                "yn": "763;763;838;838"
            },
            {
                "class": "Wall",
                "xn": "216;224;224;216",
                "yn": "518;518;778;778"
            },
            {
                "class": "Wall",
                "xn": "495;503;503;495",
                "yn": "518;518;636;636"
            },
            {
                "class": "Wall",
                "xn": "175;225;225;175",
                "yn": "518;518;527;527"
            },
            {
                "class": "Wall",
                "xn": "215;382;382;215",
                "yn": "596;596;605;605"
            },
            {
                "class": "Wall",
                "xn": "373;381;381;373",
                "yn": "518;518;693;693"
            },
            {
                "class": "Text",
                "height": 29,
                "text": "dining",
                "width": 126,
                "x": 492,
                "y": 110
            },
            {
                "class": "Text",
                "height": 30,
                "text": "doublegarage",
                "width": 317,
                "x": 1146,
                "y": 537
            },
            {
                "class": "Text",
                "height": 26,
                "text": "pantry",
                "width": 86,
                "x": 98,
                "y": 636
            },
            {
                "class": "Text",
                "height": 29,
                "text": "laundry",
                "width": 168,
                "x": 733,
                "y": 675
            },
            {
                "class": "Text",
                "height": 29,
                "text": "living",
                "width": 116,
                "x": 172,
                "y": 957
            },
            {
                "class": "Text",
                "height": 29,
                "text": "entry",
                "width": 113,
                "x": 465,
                "y": 1129
            },
            {
                "class": "Text",
                "height": 41.56019730463683,
                "text": "sliding door",
                "width": 176.92769709688253,
                "x": 415.60197304636836,
                "y": 32.06072363500556
            },
            {
                "class": "Text",
                "height": 160.30361817502776,
                "text": "kitchen",
                "width": 40.372763095932925,
                "x": 143.67953925317306,
                "y": 231.54967069726237
            },
            {
                "class": "Text",
                "height": 41.5601973046368,
                "text": "family",
                "width": 111.61881561816745,
                "x": 702.9610515527145,
                "y": 360.97999944598854
            },
            {
                "class": "Text",
                "height": 26.123552591486032,
                "text": "linen",
                "width": 73.62092093964236,
                "x": 281.4219074628266,
                "y": 666.1505910828932
            },
            {
                "class": "Text",
                "height": 45.20562032535781,
                "text": "study",
                "width": 123.89688533616595,
                "x": 771.8441099996284,
                "y": 1110.049121322676
            },
            {
                "class": "Text",
                "height": 33.485644685450325,
                "text": "pwdr",
                "width": 122.22260310189336,
                "x": 837.1411171362564,
                "y": 840.4896816048014
            },
            {
                "class": "wall",
                "height": 87.94326241135627,
                "width": 60.99290780142451,
                "x": 319.85815602840063,
                "y": 517.0212765957962
            },
            {
                "class": "wall",
                "height": 348.80618574673485,
                "width": 8.36179212406546,
                "x": 652.8170565431185,
                "y": 520.8201951560835
            },
            {
                "class": "wall",
                "height": 85.76759802916627,
                "width": 6.072042338348069,
                "x": 662.6116201722318,
                "y": 785.3174757596822
            },
            {
                "class": "wall",
                "height": 8.096056451130721,
                "width": 7.337051158837312,
                "x": 669.6956695669712,
                "y": 785.3174757596822
            },
            {
                "class": "window",
                "height": 23.890834640187347,
                "width": 172.61128027535358,
                "x": 97.95242202476811,
                "y": 1.1945417320093672
            },
            {
                "class": "window",
                "height": 22.696292908177977,
                "width": 262.79918104206075,
                "x": 353.5843526747727,
                "y": 1.1945417320093672
            },
            {
                "class": "window",
                "height": 25.682647238201394,
                "width": 174.40309287336765,
                "x": 701.7932675555032,
                "y": 0.5972708660046836
            },
            {
                "class": "door",
                "height": 56.424178711462446,
                "width": 71.58291329066134,
                "x": 105.2689901333255,
                "y": 519.6077352980947
            },
            {
                "class": "door",
                "height": 67.90402897239255,
                "width": 56.83818721392856,
                "x": 323.42437503146976,
                "y": 694.1300739400128
            },
            {
                "class": "door",
                "height": 62.69226111254841,
                "width": 80.48330818502836,
                "x": 676.4833851131062,
                "y": 729.009333612809
            },
            {
                "class": "door",
                "height": 72.01138100765684,
                "width": 56.761912088388385,
                "x": 763.7442350400318,
                "y": 804.4094854914144
            },
            {
                "class": "door",
                "height": 83.68794326241982,
                "width": 62.41134751773677,
                "x": 893.617021276686,
                "y": 699.2907801419146
            },
            {
                "class": "door",
                "height": 78.00000000000796,
                "width": 81.00000000000819,
                "x": 464.00000000004707,
                "y": 1235.0000000001253
            },
            {
                "class": "door",
                "height": 97.10836958780595,
                "width": 83.7141117136257,
                "x": 1419.7913346630937,
                "y": 237.7480772666973
            },
            {
                "class": "window",
                "height": 27.310986800189994,
                "width": 172.17796026206724,
                "x": 97.36960511372081,
                "y": 1293.1158532785605
            },
            {
                "class": "window",
                "height": 20.186381547966675,
                "width": 48.684802556860404,
                "x": 409.66480200284974,
                "y": 1295.4907216959682
            },
            {
                "class": "window",
                "height": 20.186381547966675,
                "width": 52.24710518297218,
                "x": 546.2197360037997,
                "y": 1295.4907216959682
            },
            {
                "class": "window",
                "height": 27.310986800189994,
                "width": 172.17796026206724,
                "x": 729.0846041442021,
                "y": 1293.1158532785605
            },
            {
                "class": "window",
                "height": 56.9968420177878,
                "width": 16.62407892185479,
                "x": 948.7599327544259,
                "y": 881.0761828583029
            },
            {
                "class": "Stairs",
                "xn": "549.083052535;525.502798746;528.029254509;650.141283063;653.509890748;536.450773719;530.555710272;543.187989088;512.87051993;527.187102588;515.396975693;557.504571746;558.346723667;550.767356378;548.240900614;548.240900614",
                "yn": "786.569894276;786.569894276;835.414705698;836.256857619;527.187102588;525.502798746;575.189762088;586.979888983;581.926977457;592.874952431;627.403181195;626.561029274;791.622805803;791.622805803;787.412046197;787.412046197"
            },
            {
                "class": "wall",
                "height": 63.161394079995375,
                "width": 66.5300017642619,
                "x": 888.470276725269,
                "y": 516.2391276138293
            }
        ],
        "class": "image",
        "filename": "62.png"
    }
]
