[
    {
        "annotations": [
            {
                "class": "Window",
                "xn": "2164;2682;2682;2164",
                "yn": "6873;6873;6916;6916"
            },
            {
                "class": "Window",
                "xn": "4266;4676;4676;4266",
                "yn": "421;421;464;464"
            },
            {
                "class": "Window",
                "xn": "670;979;979;670",
                "yn": "6456;6456;6499;6499"
            },
            {
                "class": "Window",
                "xn": "2442;2682;2682;2442",
                "yn": "6873;6873;6916;6916"
            },
            {
                "class": "Window",
                "xn": "2164;2405;2405;2164",
                "yn": "6873;6873;6916;6916"
            },
            {
                "class": "Window",
                "xn": "304;614;614;304",
                "yn": "6456;6456;6499;6499"
            },
            {
                "class": "Window",
                "xn": "3139;3448;3448;3139",
                "yn": "421;421;464;464"
            },
            {
                "class": "Window",
                "xn": "2995;3040;3040;2995",
                "yn": "5855;5855;6874;6874"
            },
            {
                "class": "Window",
                "xn": "4266;4575;4575;4266",
                "yn": "421;421;464;464"
            },
            {
                "class": "Window",
                "xn": "2995;3040;3040;2995",
                "yn": "5414;5414;5794;5794"
            },
            {
                "class": "Wall",
                "xn": "3992;4206;4206;3992",
                "yn": "5866;5866;5942;5942"
            },
            {
                "class": "Wall",
                "xn": "5045;5259;5259;5045",
                "yn": "5864;5864;5942;5942"
            },
            {
                "class": "Wall",
                "xn": "2996;3105;3105;2996",
                "yn": "5794;5794;5856;5856"
            },
            {
                "class": "Wall",
                "xn": "516;1278;1278;516",
                "yn": "4333;4333;4375;4375"
            },
            {
                "class": "Wall",
                "xn": "621;663;663;621",
                "yn": "1714;1714;2644;2644"
            },
            {
                "class": "Wall",
                "xn": "2997;3039;3039;2997",
                "yn": "3622;3622;6916;6916"
            },
            {
                "class": "Wall",
                "xn": "3448;4267;4267;3448",
                "yn": "422;422;464;464"
            },
            {
                "class": "Wall",
                "xn": "2996;3140;3140;2996",
                "yn": "422;422;465;465"
            },
            {
                "class": "Wall",
                "xn": "1235;1278;1278;1235",
                "yn": "422;422;2626;2626"
            },
            {
                "class": "Wall",
                "xn": "5198;5240;5240;5198",
                "yn": "422;422;2296;2296"
            },
            {
                "class": "Wall",
                "xn": "990;1279;1279;990",
                "yn": "1714;1714;1757;1757"
            },
            {
                "class": "Wall",
                "xn": "4640;5241;5241;4640",
                "yn": "2132;2132;2174;2174"
            },
            {
                "class": "Wall",
                "xn": "1235;1277;1277;1235",
                "yn": "2902;2902;4597;4597"
            },
            {
                "class": "Wall",
                "xn": "726;768;768;726",
                "yn": "4333;4333;5102;5102"
            },
            {
                "class": "Wall",
                "xn": "1217;1259;1259;1217",
                "yn": "5508;5508;6499;6499"
            },
            {
                "class": "Wall",
                "xn": "2844;3040;3040;2844",
                "yn": "1256;1256;1300;1300"
            },
            {
                "class": "Wall",
                "xn": "24;934;934;24",
                "yn": "2937;2937;2979;2979"
            },
            {
                "class": "Wall",
                "xn": "24;445;445;24",
                "yn": "422;422;464;464"
            },
            {
                "class": "Wall",
                "xn": "4676;4718;4718;4676",
                "yn": "1923;1923;2174;2174"
            },
            {
                "class": "Wall",
                "xn": "2997;3039;3039;2997",
                "yn": "422;422;2626;2626"
            },
            {
                "class": "Wall",
                "xn": "4575;5241;5241;4575",
                "yn": "422;422;464;464"
            },
            {
                "class": "Wall",
                "xn": "24;664;664;24",
                "yn": "1714;1714;1756;1756"
            },
            {
                "class": "Wall",
                "xn": "990;1436;1436;990",
                "yn": "2353;2353;2397;2397"
            },
            {
                "class": "Wall",
                "xn": "3457;5241;5241;3457",
                "yn": "3289;3289;3331;3331"
            },
            {
                "class": "Wall",
                "xn": "4119;4161;4161;4119",
                "yn": "2132;2132;2979;2979"
            },
            {
                "class": "Wall",
                "xn": "3840;4445;4445;3840",
                "yn": "2937;2937;2979;2979"
            },
            {
                "class": "Wall",
                "xn": "24;769;769;24",
                "yn": "4812;4812;4854;4854"
            },
            {
                "class": "Wall",
                "xn": "24;305;305;24",
                "yn": "6457;6457;6499;6499"
            },
            {
                "class": "Wall",
                "xn": "2682;3040;3040;2682",
                "yn": "6874;6874;6916;6916"
            },
            {
                "class": "Wall",
                "xn": "4675;5241;5241;4675",
                "yn": "1275;1275;1317;1317"
            },
            {
                "class": "Wall",
                "xn": "1808;2165;2165;1808",
                "yn": "6874;6874;6917;6917"
            },
            {
                "class": "Wall",
                "xn": "2996;3601;3601;2996",
                "yn": "2937;2937;2980;2980"
            },
            {
                "class": "Wall",
                "xn": "2735;3040;3040;2735",
                "yn": "5373;5373;5415;5415"
            },
            {
                "class": "Wall",
                "xn": "3458;3500;3500;3458",
                "yn": "2937;2937;3714;3714"
            },
            {
                "class": "Wall",
                "xn": "2996;3114;3114;2996",
                "yn": "3671;3671;3715;3715"
            },
            {
                "class": "Wall",
                "xn": "857;1278;1278;857",
                "yn": "422;422;464;464"
            },
            {
                "class": "Wall",
                "xn": "24;277;277;24",
                "yn": "4333;4333;4376;4376"
            },
            {
                "class": "Wall",
                "xn": "4676;4718;4718;4676",
                "yn": "422;422;673;673"
            },
            {
                "class": "Wall",
                "xn": "2996;3039;3039;2996",
                "yn": "2902;2902;3279;3279"
            },
            {
                "class": "Wall",
                "xn": "4676;4720;4720;4676",
                "yn": "914;914;1682;1682"
            },
            {
                "class": "Wall",
                "xn": "3523;3565;3565;3523",
                "yn": "2132;2132;2626;2626"
            },
            {
                "class": "Wall",
                "xn": "3893;3935;3935;3893",
                "yn": "2937;2937;3331;3331"
            },
            {
                "class": "Wall",
                "xn": "621;663;663;621",
                "yn": "2885;2885;2979;2979"
            },
            {
                "class": "Wall",
                "xn": "2073;2213;2213;2073",
                "yn": "1257;1257;1299;1299"
            },
            {
                "class": "Wall",
                "xn": "1234;1417;1417;1234",
                "yn": "1256;1256;1300;1300"
            },
            {
                "class": "Wall",
                "xn": "979;1295;1295;979",
                "yn": "6457;6457;6500;6500"
            },
            {
                "class": "Wall",
                "xn": "614;671;671;614",
                "yn": "6457;6457;6499;6499"
            },
            {
                "class": "Wall",
                "xn": "1190;1278;1278;1190",
                "yn": "2936;2936;2980;2980"
            },
            {
                "class": "Wall",
                "xn": "2405;2443;2443;2405",
                "yn": "6825;6825;6916;6916"
            },
            {
                "class": "Wall",
                "xn": "287;337;337;287",
                "yn": "2264;2264;2283;2283"
            },
            {
                "class": "Wall",
                "xn": "379;405;405;379",
                "yn": "2222;2222;2243;2243"
            },
            {
                "class": "Wall",
                "xn": "364;420;420;364",
                "yn": "2289;2289;2307;2307"
            },
            {
                "class": "Wall",
                "xn": "399;382;365;382",
                "yn": "2231;2224;2295;2302"
            },
            {
                "class": "Wall",
                "xn": "1717;1822;1822;1717",
                "yn": "5134;5134;5207;5207"
            },
            {
                "class": "Wall",
                "xn": "1779;1852;1852;1779",
                "yn": "5134;5134;5520;5520"
            },
            {
                "class": "Wall",
                "xn": "1778;2479;2479;1778",
                "yn": "5373;5373;5415;5415"
            },
            {
                "class": "Wall",
                "xn": "885;944;944;885",
                "yn": "1009;1009;1031;1031"
            },
            {
                "class": "Wall",
                "xn": "1216;1321;1321;1216",
                "yn": "5133;5133;5207;5207"
            },
            {
                "class": "Wall",
                "xn": "4402;4444;4444;4402",
                "yn": "3255;3255;3331;3331"
            },
            {
                "class": "Wall",
                "xn": "3487;3566;3566;3487",
                "yn": "2392;2392;2436;2436"
            },
            {
                "class": "Wall",
                "xn": "3523;3565;3565;3523",
                "yn": "2902;2902;3331;3331"
            },
            {
                "class": "Wall",
                "xn": "620;699;699;620",
                "yn": "2552;2552;2593;2593"
            },
            {
                "class": "Wall",
                "xn": "3422;3501;3501;3422",
                "yn": "3674;3674;3714;3714"
            },
            {
                "class": "Wall",
                "xn": "1207;1279;1279;1207",
                "yn": "2549;2549;2593;2593"
            },
            {
                "class": "Wall",
                "xn": "955;1056;1056;955",
                "yn": "2552;2552;2592;2592"
            },
            {
                "class": "Wall",
                "xn": "3992;4070;4070;3992",
                "yn": "5795;5795;5942;5942"
            },
            {
                "class": "Wall",
                "xn": "4402;4444;4444;4402",
                "yn": "2937;2937;3014;3014"
            },
            {
                "class": "Wall",
                "xn": "2996;3074;3074;2996",
                "yn": "2395;2395;2436;2436"
            },
            {
                "class": "Wall",
                "xn": "1760;1852;1852;1760",
                "yn": "6457;6457;6500;6500"
            },
            {
                "class": "Wall",
                "xn": "3944;4071;4071;3944",
                "yn": "5799;5799;5854;5854"
            },
            {
                "class": "Wall",
                "xn": "5;68;68;5",
                "yn": "6371;6371;6376;6376"
            },
            {
                "class": "Wall",
                "xn": "1234;1506;1506;1234",
                "yn": "1904;1904;1909;1909"
            },
            {
                "class": "Wall",
                "xn": "1234;1505;1505;1234",
                "yn": "2426;2426;2431;2431"
            },
            {
                "class": "Wall",
                "xn": "990;1279;1279;990",
                "yn": "2531;2531;2536;2536"
            },
            {
                "class": "Wall",
                "xn": "3457;3936;3936;3457",
                "yn": "3166;3166;3171;3171"
            },
            {
                "class": "Wall",
                "xn": "287;304;304;287",
                "yn": "2222;2222;2329;2329"
            },
            {
                "class": "Wall",
                "xn": "404;420;401;385",
                "yn": "2299;2294;2221;2226"
            },
            {
                "class": "Wall",
                "xn": "287;343;343;287",
                "yn": "2313;2313;2329;2329"
            },
            {
                "class": "Wall",
                "xn": "287;343;343;287",
                "yn": "2222;2222;2239;2239"
            },
            {
                "class": "Text",
                "height": 45,
                "text": "dn",
                "width": 68,
                "x": 2249,
                "y": 4602
            },
            {
                "class": "Text",
                "height": 111,
                "text": "kitchen",
                "width": 469,
                "x": 1912,
                "y": 4810
            },
            {
                "class": "Text",
                "height": 154,
                "text": "dining",
                "width": 382,
                "x": 2055,
                "y": 5952
            },
            {
                "class": "Text",
                "height": 72.01138100764962,
                "text": "ac",
                "width": 118.60698048318766,
                "x": 127.07890766055819,
                "y": 122.84294407187292
            },
            {
                "class": "window",
                "height": 59.30349024159386,
                "width": 419.36039527984207,
                "x": 440.5402132232684,
                "y": 410.88846810247145
            },
            {
                "class": "wall",
                "height": 1652.0257995872562,
                "width": 33.88770870948218,
                "x": 29.65174512079691,
                "y": 419.360395279842
            },
            {
                "class": "wall",
                "height": 317.6972691513954,
                "width": 42.359635886852736,
                "x": 63.53945383027909,
                "y": 1719.801217006221
            },
            {
                "class": "wall",
                "height": 711.6418828991259,
                "width": 38.123672298167456,
                "x": 29.65174512079691,
                "y": 2317.0720830108444
            },
            {
                "class": "wall",
                "height": 3151.556909981843,
                "width": 42.35963588685273,
                "x": 21.179817943426364,
                "y": 3333.7033442953098
            },
            {
                "class": "window",
                "height": 251.49640360142894,
                "width": 60.35913686434285,
                "x": 10.059856144057141,
                "y": 2062.2705095317137
            },
            {
                "class": "window",
                "height": 306.8256123937431,
                "width": 65.38906493637143,
                "x": 5.029928072028571,
                "y": 3033.046627433228
            },
            {
                "class": "window",
                "height": 521.0235214082884,
                "width": 63.539453830278944,
                "x": 982.7435525749834,
                "y": 1791.8125980138705
            },
            {
                "class": "wall",
                "height": 234.37251383500825,
                "width": 40.482525116956026,
                "x": 992.8871949737626,
                "y": 2313.8959093165367
            },
            {
                "class": "wall",
                "height": 80.08860885400031,
                "width": 42.31096316815115,
                "x": 991.2854227966827,
                "y": 1715.105114137553
            },
            {
                "class": "door",
                "height": 222.49800530587618,
                "width": 261.9734578601443,
                "x": 692.6147584521623,
                "y": 2366.732814503632
            },
            {
                "class": "door",
                "height": 145.34143894980616,
                "width": 156.10747146460653,
                "x": 1055.0711864504442,
                "y": 2551.549706007707
            },
            {
                "class": "door",
                "height": 242.23573158300997,
                "width": 206.34895653367533,
                "x": 450.37902686915226,
                "y": 2643.060982383511
            },
            {
                "class": "door",
                "height": 238.63383226837232,
                "width": 262.0710836518732,
                "x": 931.0980776899884,
                "y": 2940.309719021016
            },
            {
                "class": "Text",
                "height": 63.25044102445281,
                "text": "linen",
                "width": 149.27104081770835,
                "x": 1065.1374268517832,
                "y": 2438.9370059028956
            },
            {
                "class": "Text",
                "height": 263.12183466172314,
                "text": "fire place",
                "width": 60.720423383474554,
                "x": 1439.580037716543,
                "y": 2029.0741480644422
            },
            {
                "class": "Text",
                "height": 135.55083483792896,
                "text": "gathering room",
                "width": 1025.103188461837,
                "x": 1626.6100180551466,
                "y": 2062.91426768973
            },
            {
                "class": "door",
                "height": 273.24190522563595,
                "width": 657.8045866543084,
                "x": 1409.219826024807,
                "y": 1247.2986970022077
            },
            {
                "class": "door",
                "height": 293.48204635346065,
                "width": 230.23160532900783,
                "x": 2803.2595462037452,
                "y": 746.3552040885422
            },
            {
                "class": "window",
                "height": 60.720423383474554,
                "width": 637.5644455264837,
                "x": 2211.2354182148674,
                "y": 1244.7686793612297
            },
            {
                "class": "Text",
                "height": 184.69128779140203,
                "text": "covered patio",
                "width": 354.2024697369352,
                "x": 1963.2936893990122,
                "y": 646.7921346300742
            },
            {
                "class": "Text",
                "height": 156.8610937406428,
                "text": "opt. garden door",
                "width": 192.2813407143367,
                "x": 2780.489387434942,
                "y": 574.3140045020308
            },
            {
                "class": "Text",
                "height": 129.03089968988365,
                "text": "double garden door",
                "width": 351.67245209595717,
                "x": 1553.430831560559,
                "y": 1108.1477267484117
            },
            {
                "class": "Text",
                "height": 122.84294407187326,
                "text": "bedroom",
                "width": 698.9339921330723,
                "x": 285.93650023077066,
                "y": 3480.580465423968
            },
            {
                "class": "Text",
                "height": 110.13505330581756,
                "text": "breakfast",
                "width": 635.3945383027931,
                "x": 1804.5204887799318,
                "y": 3431.1305068350816
            },
            {
                "class": "Text",
                "height": 55.06752665290878,
                "text": "stop & drop",
                "width": 313.461305562711,
                "x": 3096.4893833289443,
                "y": 3032.949929498665
            },
            {
                "class": "door",
                "height": 208.53260418588798,
                "width": 237.24361490713386,
                "x": 276.53236642041725,
                "y": 4333.851513080637
            },
            {
                "class": "Text",
                "height": 417.06520837177686,
                "text": "double hanging",
                "width": 74.04418554426468,
                "x": 645.2421883143069,
                "y": 4385.229111213393
            },
            {
                "class": "Text",
                "height": 119.37736036728347,
                "text": "w.i.c",
                "width": 317.33222376113457,
                "x": 244.79914404430377,
                "y": 4601.317244536451
            },
            {
                "class": "Text",
                "height": 99.73298461064223,
                "text": "walk-in pantry",
                "width": 197.9548633938507,
                "x": 944.4411421462337,
                "y": 4531.8063764744875
            },
            {
                "class": "door",
                "height": 243.2880382168696,
                "width": 211.55481584075642,
                "x": 1065.3296083409516,
                "y": 4595.272821226715
            },
            {
                "class": "Text",
                "height": 575.2779885041145,
                "text": "flush breakfast bar",
                "width": 61.78911728377511,
                "x": 1883.5027475468032,
                "y": 4118.56426584612
            },
            {
                "class": "Text",
                "height": 76.2473445963351,
                "text": "s",
                "width": 46.595599475538165,
                "x": 2808.44385929835,
                "y": 4680.73976549725
            },
            {
                "class": "wall",
                "height": 362.2120668359239,
                "width": 34.09054746691049,
                "x": 1237.9130048921875,
                "y": 4838.727081084609
            },
            {
                "class": "wall",
                "height": 189.6286702846901,
                "width": 44.74384355032021,
                "x": 1214.4757535086865,
                "y": 5058.184980402845
            },
            {
                "class": "wall",
                "height": 66.05043571713941,
                "width": 93.7490055340038,
                "x": 1227.259708808778,
                "y": 5137.019371420076
            },
            {
                "class": "window",
                "height": 39.475452554268486,
                "width": 518.5638994628918,
                "x": 138.16408393994,
                "y": 5060.035281956245
            },
            {
                "class": "wall",
                "height": 44.85846881166799,
                "width": 116.63201891033897,
                "x": 21.532065029601043,
                "y": 5056.446604451312
            },
            {
                "class": "wall",
                "height": 43.06413005920149,
                "width": 613.6638533436296,
                "x": 656.7279834028318,
                "y": 5058.240943203778
            },
            {
                "class": "door",
                "height": 264.443519800946,
                "width": 222.13255663279483,
                "x": 1035.1074917922745,
                "y": 5246.55943285077
            },
            {
                "class": "Text",
                "height": 120.71827372868665,
                "text": "bedroom",
                "width": 653.8906493637187,
                "x": 281.6759720336019,
                "y": 5668.728937176238
            },
            {
                "class": "Text",
                "height": 181.07741059303044,
                "text": "1",
                "width": 75.4489210804291,
                "x": 477.8431668427175,
                "y": 6025.853830290269
            },
            {
                "class": "Text",
                "height": 150.8978421608581,
                "text": "2",
                "width": 75.44892108042905,
                "x": 779.6388511644338,
                "y": 6035.913686434326
            },
            {
                "class": "Text",
                "height": 131.075809577359,
                "text": "foyer",
                "width": 351.2322664403009,
                "x": 1340.0274513102777,
                "y": 5722.795297760987
            },
            {
                "class": "Text",
                "height": 49.94254823290794,
                "text": "r",
                "width": 74.91382234936236,
                "x": 1947.7593810834178,
                "y": 5158.351767484656
            },
            {
                "class": "Text",
                "height": 38.35186590027388,
                "text": "vaulted ceiling",
                "width": 413.34788803629044,
                "x": 2226.5388814325956,
                "y": 6700.923236464607
            },
            {
                "class": "Text",
                "height": 70.31175415050348,
                "text": "(french country)",
                "width": 445.30777628651913,
                "x": 2205.2322892657767,
                "y": 6754.189716881654
            },
            {
                "class": "door",
                "height": 250.4717464568348,
                "width": 457.9331930170408,
                "x": 1297.8990498217781,
                "y": 6236.4934850110785
            },
            {
                "class": "wall",
                "height": 149.59947691596426,
                "width": 69.51086806196304,
                "x": 1781.593770544662,
                "y": 6349.666686877583
            },
            {
                "class": "wall",
                "height": 676.9754106904229,
                "width": 40.79985734071761,
                "x": 1808.7936754384739,
                "y": 6499.266163793548
            },
            {
                "class": "wall",
                "height": 262.93241397351176,
                "width": 154.13279439826601,
                "x": 1807.28256961104,
                "y": 6914.8202663378925
            },
            {
                "class": "wall",
                "height": 89.15524381860541,
                "width": 197.95486339385138,
                "x": 1758.9271831331525,
                "y": 7087.0863306653655
            },
            {
                "class": "wall",
                "height": 213.06592166819155,
                "width": 89.15524381860496,
                "x": 1095.5517248896354,
                "y": 6459.977412280264
            },
            {
                "class": "wall",
                "height": 160.177217708002,
                "width": 87.64413799117096,
                "x": 1095.5517248896354,
                "y": 7016.064356775969
            },
            {
                "class": "wall",
                "height": 89.1552438186045,
                "width": 197.95486339385138,
                "x": 1098.5739365445033,
                "y": 7088.5974364928
            },
            {
                "class": "Text",
                "height": 132.97731281419055,
                "text": "portico",
                "width": 463.9094890222318,
                "x": 1248.1734134604674,
                "y": 6739.53199035555
            },
            {
                "class": "Text",
                "height": 242.88169353389821,
                "text": "owner's suite",
                "width": 523.7136516824676,
                "x": 3597.6850854708655,
                "y": 1098.0276561844976
            },
            {
                "class": "Text",
                "height": 68.31047630640887,
                "text": "opt.raised tray ceiling",
                "width": 640.0944631674606,
                "x": 3534.434644446413,
                "y": 1786.1924545305424
            },
            {
                "class": "Text",
                "height": 50.60035281956198,
                "text": "(not available w/bonus room option)",
                "width": 1004.4170034683075,
                "x": 3357.3334095779455,
                "y": 1862.0929837598856
            },
            {
                "class": "Text",
                "height": 193.78858526640806,
                "text": "his w.i.c",
                "width": 308.62626542428006,
                "x": 4753.203355284398,
                "y": 931.2618125302388
            },
            {
                "class": "Text",
                "height": 437.818655601885,
                "text": "double hanging",
                "width": 59.21317883140182,
                "x": 5124.6314770450135,
                "y": 647.7562896404936
            },
            {
                "class": "door",
                "height": 250.84356735403867,
                "width": 210.0437100133213,
                "x": 4675.361430080698,
                "y": 669.4198815532479
            },
            {
                "class": "Text",
                "height": 192.29906661676682,
                "text": "her w.i.c",
                "width": 302.5099941244007,
                "x": 4745.1504857251975,
                "y": 1462.3849967219735
            },
            {
                "class": "Text",
                "height": 436.7851394197887,
                "text": "double hanging",
                "width": 63.919776500457374,
                "x": 5122.104756903278,
                "y": 1499.9840885440549
            },
            {
                "class": "door",
                "height": 242.89515070173616,
                "width": 206.67394401814363,
                "x": 4674.66632140008,
                "y": 1681.090121962016
            },
            {
                "class": "door",
                "height": 188.40556900900765,
                "width": 412.69791306735124,
                "x": 3073.702282975532,
                "y": 2242.92344058343
            },
            {
                "class": "door",
                "height": 208.70323078336605,
                "width": 243.06290902209093,
                "x": 4398.038814556786,
                "y": 2130.300050800943
            },
            {
                "class": "wall",
                "height": 59.28587824548549,
                "width": 636.9431534579085,
                "x": 3522.949303433656,
                "y": 2132.0113907511122
            },
            {
                "class": "wall",
                "height": 41.51681636410149,
                "width": 231.95264794726336,
                "x": 4163.414649730444,
                "y": 2130.8957268618205
            },
            {
                "class": "Text",
                "height": 62.35645309990787,
                "text": "opt. uppers",
                "width": 327.0532336056408,
                "x": 3681.5758942455986,
                "y": 2223.1984401130526
            },
            {
                "class": "Text",
                "height": 50.903227020332906,
                "text": "w",
                "width": 44.54032364279146,
                "x": 3686.666216947632,
                "y": 2374.635540498544
            },
            {
                "class": "Text",
                "height": 48.3580656693166,
                "text": "d",
                "width": 30.541936212199744,
                "x": 3962.8162235329396,
                "y": 2374.635540498544
            },
            {
                "class": "Text",
                "height": 109.44193809371654,
                "text": "laundry",
                "width": 512.8500122298565,
                "x": 3584.8597629069664,
                "y": 2490.4403819698023
            },
            {
                "class": "Text",
                "height": 231.32567115515394,
                "text": "owner's bath",
                "width": 501.70632575208674,
                "x": 4326.0904735509275,
                "y": 2478.489333805219
            },
            {
                "class": "door",
                "height": 284.08789555758676,
                "width": 240.26582656200162,
                "x": 3520.8765779211535,
                "y": 2621.7686105979406
            },
            {
                "class": "door",
                "height": 210.0437100133222,
                "width": 241.7769323894354,
                "x": 3600.965186775154,
                "y": 2763.8125583767337
            },
            {
                "class": "door",
                "height": 236.7000056445495,
                "width": 209.9758114588749,
                "x": 4405.674298609842,
                "y": 3009.6532975772025
            },
            {
                "class": "door",
                "height": 240.7644914850548,
                "width": 172.58339655123382,
                "x": 4674.666321400092,
                "y": 3025.5360876883
            },
            {
                "class": "Text",
                "height": 49.00516198368359,
                "text": "ledge",
                "width": 164.06075968450568,
                "x": 4940.99872348533,
                "y": 2697.4145683192874
            },
            {
                "class": "window",
                "height": 417.0652083717764,
                "width": 46.844280650453584,
                "x": 5198.204046372867,
                "y": 2292.347540217337
            },
            {
                "class": "wall",
                "height": 3232.354915791163,
                "width": 45.81290431829984,
                "x": 5195.94689810052,
                "y": 2705.5065161307134
            },
            {
                "class": "wall",
                "height": 204.88548875684137,
                "width": 54.720969046858045,
                "x": 5201.037220802553,
                "y": 5732.9759431650355
            },
            {
                "class": "door",
                "height": 242.23573158301133,
                "width": 305.0375879193475,
                "x": 3114.972074282277,
                "y": 3477.42850228056
            },
            {
                "class": "Text",
                "height": 117.16495032533794,
                "text": "walk-in linen",
                "width": 192.27068771337508,
                "x": 3632.113460085474,
                "y": 3010.237954512527
            },
            {
                "class": "Text",
                "height": 147.2072452805528,
                "text": "7",
                "width": 81.11419637908011,
                "x": 3728.2488039421614,
                "y": 3469.8850673273137
            },
            {
                "class": "Text",
                "height": 121.44757535086819,
                "text": "opt. tub",
                "width": 112.92493848414051,
                "x": 4738.586097900554,
                "y": 3383.486836090863
            },
            {
                "class": "Text",
                "height": 53.26648041704766,
                "text": "hwt",
                "width": 108.66362005077735,
                "x": 5019.833114502565,
                "y": 3421.838701991137
            },
            {
                "class": "Text",
                "height": 174.05085898927473,
                "text": "opt. service door",
                "width": 204.55461778120934,
                "x": 4963.140989323028,
                "y": 3891.9207541003793
            },
            {
                "class": "door",
                "height": 315.44409702975554,
                "width": 345.4863919849713,
                "x": 5203.32548624321,
                "y": 3821.379918303328
            },
            {
                "class": "Text",
                "height": 128.60475127097652,
                "text": "garage",
                "width": 466.19222335728955,
                "x": 3906.369319855914,
                "y": 4519.385300914236
            }
        ],
        "class": "image",
        "filename": "73.png"
    }
]
