[
    {
        "annotations": [
            {
                "class": "Text",
                "height": 31,
                "text": "bathroom",
                "width": 151,
                "x": 1991,
                "y": 289
            },
            {
                "class": "Text",
                "height": 30,
                "text": "livingroom",
                "width": 187,
                "x": 984,
                "y": 456
            },
            {
                "class": "Text",
                "height": 30,
                "text": "deck",
                "width": 79,
                "x": 315,
                "y": 498
            },
            {
                "class": "Text",
                "height": 30,
                "text": "bedroom",
                "width": 141,
                "x": 2697,
                "y": 610
            },
            {
                "class": "Text",
                "height": 29,
                "text": "kitchen",
                "width": 117,
                "x": 1713,
                "y": 739
            },
            {
                "class": "Text",
                "height": 32,
                "text": "entry",
                "width": 68,
                "x": 2228,
                "y": 772
            },
            {
                "class": "Text",
                "height": 24,
                "text": "dn",
                "width": 47,
                "x": 1744,
                "y": 816
            },
            {
                "class": "wall",
                "height": 959.4468406326714,
                "width": 13.061776295741813,
                "x": 13.061776295741813,
                "y": 24.936118382779824
            },
            {
                "class": "wall",
                "height": 27.310986800187425,
                "width": 672.0877621263514,
                "x": 15.436644713149416,
                "y": 22.561249965372223
            },
            {
                "class": "wall",
                "height": 24.936118382779796,
                "width": 675.6500647524629,
                "x": 11.874342087038013,
                "y": 964.1965774674866
            },
            {
                "class": "wall",
                "height": 167.42822342723596,
                "width": 48.55418479389846,
                "x": 683.1071515831227,
                "y": 15.068540108451236
            },
            {
                "class": "wall",
                "height": 43.531338091081345,
                "width": 2451.149190974734,
                "x": 689.8042805202122,
                "y": 15.068540108451236
            },
            {
                "class": "wall",
                "height": 83.71411171361798,
                "width": 48.55418479389846,
                "x": 3092.399286701048,
                "y": 13.394257874178876
            },
            {
                "class": "wall",
                "height": 193.17000000000152,
                "width": 26.789999999999964,
                "x": 2367.390000000019,
                "y": 12.6900000000001
            },
            {
                "class": "wall",
                "height": 94.47000000000082,
                "width": 23.970000000000255,
                "x": 2370.2100000000187,
                "y": 492.0900000000039
            },
            {
                "class": "wall",
                "height": 29.61000000000024,
                "width": 219.96000000000186,
                "x": 2172.810000000017,
                "y": 509.0100000000041
            },
            {
                "class": "wall",
                "height": 518.8800000000041,
                "width": 28.200000000000273,
                "x": 2193.9600000000173,
                "y": 14.100000000000112
            },
            {
                "class": "wall",
                "height": 75.54780000000059,
                "width": 433.4058000000034,
                "x": 1787.3019000000143,
                "y": 11.928600000000095
            },
            {
                "class": "wall",
                "height": 282.3102000000022,
                "width": 23.857200000000148,
                "x": 1787.3019000000143,
                "y": 9.940500000000078
            },
            {
                "class": "wall",
                "height": 23.857200000000205,
                "width": 266.40540000000215,
                "x": 1542.7656000000122,
                "y": 266.4054000000021
            },
            {
                "class": "wall",
                "height": 280.5900000000023,
                "width": 26.79000000000019,
                "x": 1539.7200000000123,
                "y": 253.80000000000203
            },
            {
                "class": "wall",
                "height": 26.79000000000019,
                "width": 456.8400000000038,
                "x": 1546.7700000000123,
                "y": 509.0100000000041
            },
            {
                "class": "wall",
                "height": 167.79000000000133,
                "width": 45.120000000000346,
                "x": 688.0800000000055,
                "y": 833.3100000000067
            },
            {
                "class": "wall",
                "height": 47.940000000000396,
                "width": 1346.5500000000109,
                "x": 734.6100000000058,
                "y": 951.7500000000076
            },
            {
                "class": "wall",
                "height": 217.1400000000018,
                "width": 46.5300000000002,
                "x": 2033.2200000000162,
                "y": 782.5500000000062
            },
            {
                "class": "wall",
                "height": 46.530000000000314,
                "width": 117.03000000000111,
                "x": 2037.4500000000162,
                "y": 783.9600000000063
            },
            {
                "class": "wall",
                "height": 73.32000000000062,
                "width": 26.789999999999964,
                "x": 2367.390000000019,
                "y": 755.760000000006
            },
            {
                "class": "wall",
                "height": 46.53000000000043,
                "width": 774.0900000000061,
                "x": 2367.390000000019,
                "y": 785.3700000000063
            },
            {
                "class": "wall",
                "height": 338.4000000000027,
                "width": 47.94000000000051,
                "x": 3093.5400000000245,
                "y": 494.91000000000395
            },
            {
                "class": "wall",
                "height": 70.31985383943925,
                "width": 678.0843048803065,
                "x": 1404.7227945545112,
                "y": 927.5523577868881
            },
            {
                "class": "window",
                "height": 654.0849000000062,
                "width": 43.73820000000046,
                "x": 689.8707000000065,
                "y": 178.9290000000017
            },
            {
                "class": "Text",
                "height": 36.834209153992106,
                "text": "tv",
                "width": 35.15992691971974,
                "x": 1053.123525357317,
                "y": 835.4668349019097
            },
            {
                "class": "Text",
                "height": 33.485644685447255,
                "text": "f/p",
                "width": 45.20562032535395,
                "x": 1046.4263964202275,
                "y": 905.786688741349
            },
            {
                "class": "Text",
                "height": 35.25000000000034,
                "text": "f",
                "width": 23.970000000000482,
                "x": 1504.4700000000166,
                "y": 836.1300000000093
            },
            {
                "class": "Text",
                "height": 42.300000000000466,
                "text": "w/d",
                "width": 62.040000000000646,
                "x": 1653.930000000019,
                "y": 136.77000000000157
            },
            {
                "class": "Text",
                "height": 37.99789467852179,
                "text": "cl",
                "width": 42.74763151333673,
                "x": 2232.3763123631556,
                "y": 461.9119071857806
            },
            {
                "class": "Text",
                "height": 30.87328942629904,
                "text": "s",
                "width": 17.81151313055716,
                "x": 1961.6413127786877,
                "y": 811.0175645446996
            },
            {
                "class": "window",
                "height": 393.6438000000049,
                "width": 37.773900000000594,
                "x": 3097.4598000000383,
                "y": 97.4169000000012
            },
            {
                "class": "door",
                "height": 216.11302598409281,
                "width": 174.5528286794597,
                "x": 1392.8603268095653,
                "y": 74.80835514833983
            },
            {
                "class": "wall",
                "height": 13.47443073706448,
                "width": 26.1067095530625,
                "x": 1541.1380155517493,
                "y": 59.79278639572361
            },
            {
                "class": "door",
                "height": 66.53000176425587,
                "width": 155.79810539730806,
                "x": 1443.448392708032,
                "y": 719.1977405908165
            },
            {
                "class": "door",
                "height": 141.00000000000188,
                "width": 91.00000000000136,
                "x": 1802.0000000000243,
                "y": 330.0000000000045
            },
            {
                "class": "door",
                "height": 169.27253613437267,
                "width": 170.95683997650576,
                "x": 2000.9529644540776,
                "y": 365.49393374287445
            },
            {
                "class": "door",
                "height": 211.00000000000296,
                "width": 212.00000000000318,
                "x": 2155.000000000031,
                "y": 611.0000000000089
            },
            {
                "class": "door",
                "height": 165.0000000000024,
                "width": 174.00000000000273,
                "x": 2372.000000000034,
                "y": 590.0000000000085
            },
            {
                "class": "door",
                "height": 283.0000000000041,
                "width": 159.00000000000227,
                "x": 2370.000000000034,
                "y": 205.00000000000296
            }
        ],
        "class": "image",
        "filename": "91.png"
    }
]
