<svg xmlns="http://www.w3.org/2000/svg" xmlns:ns1="http://www.w3.org/1999/xlink" enable-background="new 0 0 595.275 841.89" height="841.89px" id="Layer_1" version="1.1" viewBox="0 0 595.275 841.89" width="595.275px" x="0px" y="0px" xml:space="preserve">
<symbol id="New_Symbol_10" viewBox="-28.347 -3.386 56.694 6.771">
	<g id="n_id_0">
		<g id="n_id_1">
			<g id="n_id_2">
				<polygon fill="#FFFFFF" id="n_id_3" points="28.022,-3.31 -26.812,-3.31 -26.812,3.386 28.022,3.386     " />
				<polygon fill="#6E6E6E" id="n_id_4" points="28.347,3.374 28.347,-3.386 26.896,-3.386 26.896,-1.173 26.348,-1.173 26.348,1.04       26.818,1.04 26.812,3.386     " />
				<polygon fill="#6E6E6E" id="n_id_5" points="-28.347,3.374 -28.347,-3.386 -26.896,-3.386 -26.896,-1.173 -26.348,-1.173 -26.348,1.04       -26.818,1.04 -26.812,3.386     " />
				<polygon fill="#6E6E6E" id="n_id_6" points="0.807,-2.833 -27.056,-2.833 -27.056,0.001 0.807,0.001     " />
				<polygon fill="#6E6E6E" id="n_id_7" points="27.303,0.001 -0.708,0.001 -0.708,2.837 27.303,2.837     " />
			</g>
		</g>
	</g>
</symbol>
<symbol id="New_Symbol_11" viewBox="-14.424 -14.424 28.848 28.848">
	<g id="n_id_8">
		<line fill="none" id="n_id_9" stroke="#6E6E6E" x1="-13.924" x2="14.424" y1="-13.924" y2="-13.924" />
		<line fill="none" id="n_id_10" stroke="#6E6E6E" x1="-13.924" x2="10.624" y1="-13.924" y2="0.249" />
		<line fill="none" id="n_id_11" stroke="#6E6E6E" x1="-13.924" x2="0.25" y1="-13.924" y2="10.625" />
		<line fill="none" id="n_id_12" stroke="#6E6E6E" x1="-13.924" x2="-13.924" y1="-13.924" y2="14.424" />
	</g>
</symbol>
<symbol id="New_Symbol_3" viewBox="-12.625 -13.188 25.249 26.378">
	<g id="n_id_13">
		<g id="n_id_14">
			<polygon fill="#6E6E6E" id="n_id_15" points="-10.88,-8.109 -8.756,-8.109 -8.756,13.15 -10.88,13.15    " />
			<path d="M10.419-8.375c0,0,0.283,7.854-5.496,14.26     c-5.779,6.408-12.425,6.66-15.493,6.881" fill="none" id="n_id_16" stroke="#6E6E6E" stroke-width="0.8504" />
			<polygon fill="#AEAFAF" id="n_id_17" points="-11.07,-13.096 11.102,-13.096 11.102,-8.109 -11.07,-8.109    " />
			<polygon fill="#6E6E6E" id="n_id_18" points="12.625,-8.115 12.625,-13.186 10.964,-13.186 10.964,-11.525 10.337,-11.525 10.337,-9.867      10.875,-9.867 10.867,-8.109    " />
			<polygon fill="#6E6E6E" id="n_id_19" points="-12.625,-13.178 -12.625,-8.109 -10.964,-8.109 -10.964,-9.77 -10.336,-9.77 -10.336,-11.43      -10.876,-11.43 -10.868,-13.188    " />
		</g>
	</g>
</symbol>
<symbol id="New_Symbol_4" viewBox="-12.625 -13.188 25.25 26.376">
	<g id="n_id_20">
		<g id="n_id_21">
			<polygon fill="#6E6E6E" id="n_id_22" points="10.881,-8.111 8.756,-8.111 8.756,13.149 10.881,13.149    " />
			<path d="M-10.418-8.377c0,0-0.282,7.854,5.497,14.261     c5.779,6.408,12.422,6.66,15.492,6.88" fill="none" id="n_id_23" stroke="#6E6E6E" stroke-width="0.8504" />
			<polygon fill="#FFFFFF" id="n_id_24" points="11.072,-13.098 -11.1,-13.098 -11.1,-8.111 11.072,-8.111    " />
			<polygon fill="#6E6E6E" id="n_id_25" points="-12.625,-8.117 -12.625,-13.188 -10.962,-13.188 -10.962,-11.527 -10.335,-11.527      -10.335,-9.868 -10.875,-9.868 -10.867,-8.111    " />
			<polygon fill="#6E6E6E" id="n_id_26" points="12.625,-13.18 12.625,-8.111 10.965,-8.111 10.965,-9.771 10.336,-9.771 10.336,-11.431      10.875,-11.431 10.869,-13.188    " />
		</g>
	</g>
</symbol>
<symbol id="New_Symbol_5" viewBox="-12.625 -13.188 25.249 26.377">
	<g id="n_id_27">
		<g id="n_id_28">
			<polygon fill="#6E6E6E" id="n_id_29" points="10.881,-8.109 8.757,-8.109 8.757,13.15 10.881,13.15    " />
			<path d="M-10.418-8.376c0,0-0.283,7.854,5.496,14.261     c5.779,6.408,12.423,6.66,15.493,6.88" fill="none" id="n_id_30" stroke="#6E6E6E" stroke-width="0.8504" />
			<polygon fill="#AEAFAF" id="n_id_31" points="11.071,-13.096 -11.101,-13.096 -11.101,-8.109 11.071,-8.109    " />
			<polygon fill="#6E6E6E" id="n_id_32" points="-12.625,-8.116 -12.625,-13.187 -10.963,-13.187 -10.963,-11.526 -10.336,-11.526      -10.336,-9.867 -10.875,-9.867 -10.866,-8.109    " />
			<polygon fill="#6E6E6E" id="n_id_33" points="12.625,-13.179 12.625,-8.109 10.965,-8.109 10.965,-9.771 10.337,-9.771 10.337,-11.43      10.875,-11.43 10.869,-13.188    " />
		</g>
	</g>
</symbol>
<symbol id="New_Symbol_6" viewBox="-12.625 -13.188 25.25 26.378">
	<g id="n_id_34">
		<polygon fill="#6E6E6E" id="n_id_35" points="-10.881,-8.109 -8.756,-8.109 -8.756,13.15 -10.881,13.15   " />
		<path d="M10.417-8.375c0,0,0.284,7.854-5.496,14.261    c-5.78,6.407-12.421,6.659-15.491,6.88" fill="none" id="n_id_36" stroke="#6E6E6E" stroke-width="0.8504" />
		<polygon fill="#FFFFFF" id="n_id_37" points="-11.071,-13.096 11.101,-13.096 11.101,-8.109 -11.071,-8.109   " />
		<polygon fill="#6E6E6E" id="n_id_38" points="12.625,-8.115 12.625,-13.186 10.963,-13.186 10.963,-11.525 10.336,-11.525 10.336,-9.867     10.873,-9.867 10.867,-8.109   " />
		<polygon fill="#6E6E6E" id="n_id_39" points="-12.625,-13.178 -12.625,-8.109 -10.965,-8.109 -10.965,-9.77 -10.336,-9.77 -10.336,-11.43     -10.875,-11.43 -10.868,-13.188   " />
	</g>
</symbol>
<symbol id="New_Symbol_9" viewBox="-14.174 -11.839 28.348 23.679">
	<g id="n_id_40">
		<g id="n_id_41">
			<line fill="none" id="n_id_42" stroke="#6E6E6E" x1="14.174" x2="-14.174" y1="11.34" y2="11.34" />
			<line fill="none" id="n_id_43" stroke="#6E6E6E" x1="14.174" x2="-14.174" y1="5.67" y2="5.67" />
			<line fill="none" id="n_id_44" stroke="#6E6E6E" x1="14.174" x2="-14.174" y1="0.001" y2="0.001" />
			<line fill="none" id="n_id_45" stroke="#6E6E6E" x1="14.174" x2="-14.174" y1="-5.668" y2="-5.668" />
			<line fill="none" id="n_id_46" stroke="#6E6E6E" x1="14.174" x2="-14.174" y1="-11.339" y2="-11.339" />
		</g>
	</g>
</symbol>
<rect fill="#FFFFFF" height="68.999" id="n_id_47" stroke="#6E6E6E" width="253.418" x="198.958" y="134.669" />
<rect fill="#FFFFFF" height="93.375" id="n_id_48" stroke="#6E6E6E" width="104.5" x="267.292" y="276.626" />
<rect fill="#FFFFFF" height="124.25" id="n_id_49" stroke="#6E6E6E" width="103.877" x="452.292" y="348.751" />
<rect fill="#FFFFFF" height="124.25" id="n_id_50" stroke="#6E6E6E" width="103.877" x="452.292" y="348.751" />
<rect fill="#FFFFFF" height="67.695" id="n_id_51" stroke="#6E6E6E" width="274.438" x="281.75" y="443.753" />
<rect fill="#AEAFAF" height="42.194" id="n_id_52" stroke="#6E6E6E" stroke-width="3" width="119.938" x="89.75" y="233.502" />
<rect fill="#AEAFAF" height="101.203" id="n_id_53" stroke="#6E6E6E" stroke-width="3" width="155.878" x="133.956" y="409.135" />
<path d="M8.636,139.094" fill="#CCE1F0" id="n_id_54" stroke="#000000" stroke-width="3" />
<rect fill="#AEAFAF" height="89.102" id="n_id_55" stroke="#6E6E6E" stroke-width="3" width="116.566" x="171.122" y="275.594" />
<rect fill="#AEAFAF" height="77.896" id="n_id_56" stroke="#6E6E6E" stroke-width="3" width="160.898" x="209.789" y="364.803" />
<use height="28.848" id="n_id_57" overflow="visible" transform="matrix(0 -1 -1 0 184.5007 289.3374)" width="28.848" x="-14.424" y="-14.424" ns1:href="#New_Symbol_11" />
<use height="23.679" id="n_id_58" overflow="visible" transform="matrix(1 0 0 -1 184.8337 320.002)" width="28.348" x="-14.174" y="-11.839" ns1:href="#New_Symbol_9" />
<use enable-background="new    " height="28.848" id="n_id_59" overflow="visible" transform="matrix(-1 0 0 1 185.0017 350.6714)" width="28.848" x="-14.424" y="-14.424" ns1:href="#New_Symbol_11" />
<line fill="none" id="n_id_60" stroke="#6E6E6E" x1="203.847" x2="203.847" y1="303.423" y2="275.075" />
<line fill="none" id="n_id_61" stroke="#6E6E6E" x1="209.347" x2="209.347" y1="303.756" y2="275.409" />
<line fill="none" id="n_id_62" stroke="#6E6E6E" x1="204.68" x2="204.68" y1="365.589" y2="337.242" />
<line fill="none" id="n_id_63" stroke="#6E6E6E" x1="209.68" x2="209.68" y1="365.089" y2="336.742" />
<use height="6.771" id="n_id_64" overflow="visible" transform="matrix(0.9999 0 0 -0.9999 328.5007 364.3369)" width="56.694" x="-28.347" y="-3.386" ns1:href="#New_Symbol_10" />
<use enable-background="new    " height="6.771" id="n_id_65" overflow="visible" transform="matrix(0.9999 0 0 -0.9999 328.8347 442.3374)" width="56.694" x="-28.347" y="-3.386" ns1:href="#New_Symbol_10" />
<use enable-background="new    " height="6.771" id="n_id_66" overflow="visible" transform="matrix(0 -0.9999 -0.9999 0 290.0007 476.0054)" width="56.694" x="-28.347" y="-3.386" ns1:href="#New_Symbol_10" />
<use enable-background="new    " height="6.771" id="n_id_67" overflow="visible" transform="matrix(0.9999 0 0 -0.9999 247.5007 510.5034)" width="56.694" x="-28.347" y="-3.386" ns1:href="#New_Symbol_10" />
<rect fill="#AEAFAF" height="133.729" id="n_id_68" stroke="#6E6E6E" stroke-width="3" width="81.398" x="89.79" y="275.469" />
<use height="26.378" id="n_id_69" overflow="visible" transform="matrix(-1 0 0 1 116.4265 419.3374)" width="25.25" x="-12.625" y="-13.188" ns1:href="#New_Symbol_6" />
<rect fill="#AEAFAF" height="51.229" id="n_id_70" stroke="#6E6E6E" stroke-width="3" width="44.898" x="89.79" y="275.469" />
<use height="26.377" id="n_id_71" overflow="visible" transform="matrix(-1 0 0 1 147.4998 286.0034)" width="25.249" x="-12.625" y="-13.188" ns1:href="#New_Symbol_5" />
<use height="26.378" id="n_id_72" overflow="visible" transform="matrix(0 -1 -1 0 123.8337 313.3354)" width="25.249" x="-12.625" y="-13.188" ns1:href="#New_Symbol_3" />
<rect fill="#B1DFFC" height="105.414" id="n_id_73" stroke="#6E6E6E" stroke-width="3" width="207.553" x="202.949" y="565.589" />
<rect fill="#AEAFAF" height="70.861" id="n_id_74" stroke="#6E6E6E" stroke-width="3" width="77.938" x="209.751" y="204.752" />
<use height="26.376" id="n_id_75" overflow="visible" transform="matrix(-1 0 0 1 226.5007 215.0034)" width="25.25" x="-12.625" y="-13.188" ns1:href="#New_Symbol_4" />
<rect fill="#AEAFAF" height="121.497" id="n_id_76" stroke="#6E6E6E" stroke-width="3" width="77.566" x="132.122" y="111.949" />
<rect fill="#AEAFAF" height="121.203" id="n_id_77" stroke="#6E6E6E" stroke-width="3" width="81.232" x="50.539" y="111.925" />
<rect fill="#AEAFAF" height="42.019" id="n_id_78" stroke="#6E6E6E" stroke-width="3" width="39.315" x="50.479" y="233.285" />
<use enable-background="new    " height="26.378" id="n_id_79" overflow="visible" transform="matrix(0 -1 -1 0 78.9998 258.6689)" width="25.249" x="-12.625" y="-13.188" ns1:href="#New_Symbol_3" />
<rect fill="#AEAFAF" height="51.915" id="n_id_80" stroke="#6E6E6E" stroke-width="3" width="45.315" x="131.979" y="181.368" />
<rect fill="#AEAFAF" height="52.165" id="n_id_81" stroke="#6E6E6E" stroke-width="3" width="46.065" x="50.646" y="180.951" />
<use enable-background="new    " height="26.377" id="n_id_82" overflow="visible" transform="matrix(1 0 0 -1 113.0017 222.8359)" width="25.249" x="-12.625" y="-13.188" ns1:href="#New_Symbol_5" />
<use enable-background="new    " height="26.377" id="n_id_83" overflow="visible" transform="matrix(0 -1 -1 0 86.5007 197.3359)" width="25.249" x="-12.625" y="-13.188" ns1:href="#New_Symbol_5" />
<use enable-background="new    " height="26.377" id="n_id_84" overflow="visible" transform="matrix(0 -1 -1 0 166.8347 196.4185)" width="25.249" x="-12.625" y="-13.188" ns1:href="#New_Symbol_5" />
<use enable-background="new    " height="6.771" id="n_id_85" overflow="visible" transform="matrix(0.9999 0 0 -0.9999 170.7507 111.7529)" width="56.694" x="-28.347" y="-3.386" ns1:href="#New_Symbol_10" />
<use enable-background="new    " height="23.679" id="n_id_86" overflow="visible" transform="matrix(0 -1 -1 0 155.8328 578.6694)" width="28.348" x="-14.174" y="-11.839" ns1:href="#New_Symbol_9" />
<use enable-background="new    " height="23.679" id="n_id_87" overflow="visible" transform="matrix(0 -1 -1 0 127.9167 579.0854)" width="28.348" x="-14.174" y="-11.839" ns1:href="#New_Symbol_9" />
<rect fill="#AEAFAF" height="70.778" id="n_id_88" stroke="#6E6E6E" stroke-width="3" width="80.687" x="372.626" y="204.502" />
<rect fill="#AEAFAF" height="207.278" id="n_id_89" stroke="#6E6E6E" stroke-width="3" width="101.793" x="453.376" y="159.335" />
<use enable-background="new    " height="26.378" id="n_id_90" overflow="visible" transform="matrix(0 1 1 0 463.8376 187.0029)" width="25.25" x="-12.625" y="-13.188" ns1:href="#New_Symbol_6" />
<rect fill="#AEAFAF" height="39.25" id="n_id_91" stroke="#6E6E6E" stroke-width="3" width="51.645" x="503.502" y="159.419" />
<use enable-background="new    " height="26.377" id="n_id_92" overflow="visible" transform="matrix(0 1 1 0 514.1697 184.8369)" width="25.249" x="-12.625" y="-13.188" ns1:href="#New_Symbol_5" />
<rect fill="#AEAFAF" height="54.917" id="n_id_93" stroke="#6E6E6E" stroke-width="3" width="51.645" x="503.336" y="198.586" />
<use enable-background="new    " height="28.848" id="n_id_94" overflow="visible" transform="matrix(1 0 0 -1 541.6687 212.002)" width="28.848" x="-14.424" y="-14.424" ns1:href="#New_Symbol_11" />
<use enable-background="new    " height="28.848" id="n_id_95" overflow="visible" transform="matrix(0 1 1 0 541.6697 239.6704)" width="28.848" x="-14.424" y="-14.424" ns1:href="#New_Symbol_11" />
<rect fill="#AEAFAF" height="67.749" id="n_id_96" width="51.645" x="422.669" y="206.085" />
<rect fill="#AEAFAF" height="25.145" id="n_id_97" width="25.645" x="480.169" y="226.878" />
<use enable-background="new    " height="23.679" id="n_id_98" overflow="visible" transform="matrix(0 1.9466 1 0 516.3347 226.5869)" width="28.348" x="-14.174" y="-11.839" ns1:href="#New_Symbol_9" />
<line fill="none" id="n_id_99" stroke="#6E6E6E" stroke-width="3" x1="501.835" x2="527.896" y1="225.917" y2="225.917" />
<line fill="none" id="n_id_100" stroke="#6E6E6E" stroke-width="3" x1="198.173" x2="209.845" y1="303.292" y2="303.292" />
<line fill="none" id="n_id_101" stroke="#6E6E6E" stroke-width="3" x1="198.798" x2="210.157" y1="336.792" y2="336.792" />
<line fill="none" id="n_id_102" stroke="#6E6E6E" stroke-width="3" x1="198.728" x2="198.728" y1="301.987" y2="338.221" />
<line fill="none" id="n_id_103" stroke="#6E6E6E" stroke-width="3" x1="209.978" x2="209.978" y1="335.285" y2="364.127" />
<rect fill="#AEAFAF" height="35.932" id="n_id_104" width="100.836" x="187.456" y="410.636" />
<rect fill="#AEAFAF" height="51.229" id="n_id_105" width="74.773" x="211.415" y="347.469" />
<rect fill="#AEAFAF" height="25.229" id="n_id_106" width="32.773" x="211.165" y="266.47" />
<rect fill="#AEAFAF" height="39.119" id="n_id_107" width="32.773" x="191.915" y="234.969" />
<use enable-background="new    " height="26.377" id="n_id_108" overflow="visible" transform="matrix(1 0 0 -1 192.0017 222.6689)" width="25.249" x="-12.625" y="-13.188" ns1:href="#New_Symbol_5" />
<line fill="none" id="n_id_109" stroke="#6E6E6E" stroke-width="3" x1="244.394" x2="244.394" y1="307.32" y2="397.002" />
<line fill="none" id="n_id_110" stroke="#6E6E6E" stroke-width="3" x1="242.965" x2="287.49" y1="396.458" y2="396.458" />
<rect fill="#FFFFFF" height="43" id="n_id_111" width="102.959" x="452.79" y="425.126" />
<text fill="#6E6E6E" font-family="'Verdana'" font-size="12" id="n_id_112" transform="matrix(1 0 0 1 292.6624 613.5288)">Pool</text>
<text fill="#6E6E6E" font-family="'Verdana'" font-size="12" id="n_id_113" transform="matrix(1 0 0 1 262.3313 628.5288)">10.0m x 5.0m</text>
<text fill="#FFFFFF" font-family="'Verdana'" font-size="12" id="n_id_114" transform="matrix(1 0 0 1 185.5725 463.7788)">Lounge</text>
<text fill="#FFFFFF" font-family="'Verdana'" font-size="12" id="n_id_115" transform="matrix(1 0 0 1 314.9617 400.7788)">Dining</text>
<text fill="#FFFFFF" font-family="'Verdana'" font-size="12" id="n_id_116" transform="matrix(1 0 0 1 320.3699 415.7788)">Area</text>
<text fill="#FFFFFF" font-family="'Verdana'" font-size="12" id="n_id_117" transform="matrix(0 -1 1 0 268.9607 359.7407)">Kitchen</text>
<text fill="#FFFFFF" font-family="'Verdana'" font-size="12" id="n_id_118" transform="matrix(1 0 0 1 104.3547 369.2788)">Bedroom</text>
<text fill="#FFFFFF" font-family="'Verdana'" font-size="12" id="n_id_119" transform="matrix(1 0 0 1 143.1047 163.2788)">Bedroom</text>
<text fill="#FFFFFF" font-family="'Verdana'" font-size="12" id="n_id_120" transform="matrix(1 0 0 1 63.6047 163.0288)">Bedroom</text>
<text fill="#FFFFFF" font-family="'Verdana'" font-size="12" id="n_id_121" transform="matrix(1 0 0 1 55.0881 250.2788)">WC</text>
<text fill="#FFFFFF" font-family="'Verdana'" font-size="12" id="n_id_122" transform="matrix(0 -1 1 0 67.9607 229.3774)">Ensuite</text>
<text fill="#FFFFFF" font-family="'Verdana'" font-size="12" id="n_id_123" transform="matrix(0 -1 1 0 148.2107 230.1274)">Ensuite</text>
<text fill="#FFFFFF" font-family="'Verdana'" font-size="12" id="n_id_124" transform="matrix(0 -1 1 0 107.7107 324.1274)">Ensuite</text>
<text fill="#FFFFFF" font-family="'Verdana'" font-size="12" id="n_id_125" transform="matrix(1 0 0 1 396.0242 229.9448)">Kitchen/</text>
<text fill="#FFFFFF" font-family="'Verdana'" font-size="12" id="n_id_126" transform="matrix(1 0 0 1 386.0125 244.9448)">Dining Area</text>
<rect fill="#AEAFAF" height="112.816" id="n_id_127" stroke="#6E6E6E" stroke-width="3" width="99.866" x="454.427" y="253.6" />
<text fill="#FFFFFF" font-family="'Verdana'" font-size="12" id="n_id_128" transform="matrix(1 0 0 1 477.9753 318.4448)">Bedroom</text>
<text fill="#FFFFFF" font-family="'Verdana'" font-size="12" id="n_id_129" transform="matrix(1 0 0 1 512.5398 173.1128)">Bthrm</text>
<text fill="#6E6E6E" font-family="'Verdana'" font-size="12" id="n_id_130" transform="matrix(1 0 0 1 384.9089 483.5278)">Covered Terrace</text>
<text fill="#6E6E6E" font-family="'Verdana'" font-size="12" id="n_id_131" transform="matrix(1 0 0 1 306.0476 318.8618)">Covered</text>
<text fill="#6E6E6E" font-family="'Verdana'" font-size="12" id="n_id_132" transform="matrix(1 0 0 1 308.1814 333.8618)">Terrace</text>
<text fill="#6E6E6E" font-family="'Verdana'" font-size="12" id="n_id_133" transform="matrix(1 0 0 1 278.2415 173.1938)">Covered Terrace</text>
<use enable-background="new    " height="6.771" id="n_id_134" overflow="visible" transform="matrix(0.9999 0 0 -0.9999 503.9998 365.9995)" width="56.694" x="-28.347" y="-3.386" ns1:href="#New_Symbol_10" />
<use height="26.377" id="n_id_135" overflow="visible" transform="matrix(1 0 0 1 479.4695 264.4448)" width="25.249" x="-12.625" y="-13.188" ns1:href="#New_Symbol_5" />
</svg>