[
    {
        "annotations": [
            {
                "class": "Wall", 
                "xn": "1472.0;1500.0;1499.0;1473.0", 
                "yn": "149.0;149.0;173.0;173.0"
            }, 
            {
                "class": "Wall", 
                "xn": "2065.0;2089.0;2090.0;2067.0", 
                "yn": "148.0;148.0;175.0;173.0"
            }, 
            {
                "class": "Wall", 
                "xn": "1404.0;1735.0;1732.0;1402.0", 
                "yn": "669.0;669.0;693.0;693.0"
            }, 
            {
                "class": "Wall", 
                "xn": "1828.0;1829.0;2159.0;2159.0", 
                "yn": "668.0;690.0;692.0;670.0"
            }, 
            {
                "class": "Wall", 
                "xn": "1402.0;1428.0;1429.0;1401.0", 
                "yn": "935.0;934.0;667.0;667.0"
            }, 
            {
                "class": "Wall", 
                "xn": "2135.0;2159.0;2160.0;2136.0", 
                "yn": "787.0;788.0;689.0;689.0"
            }, 
            {
                "class": "Wall", 
                "xn": "1404.0;1430.0;1428.0;1404.0", 
                "yn": "1006.0;1004.0;1134.0;1134.0"
            }, 
            {
                "class": "Wall", 
                "xn": "1404.0;1428.0;1428.0;1404.0", 
                "yn": "1206.0;1205.0;1424.0;1424.0"
            }, 
            {
                "class": "Wall", 
                "xn": "1428.0;1163.0;1160.0;1427.0", 
                "yn": "1553.0;1552.0;1596.0;1597.0"
            }, 
            {
                "class": "Wall", 
                "xn": "1404.0;1429.0;1428.0;1404.0", 
                "yn": "1517.0;1516.0;1696.0;1696.0"
            }, 
            {
                "class": "Wall", 
                "xn": "276.0;1020.0;1020.0;276.0", 
                "yn": "1554.0;1552.0;1597.0;1596.0"
            }, 
            {
                "class": "Wall", 
                "xn": "318.0;275.0;276.0;319.0", 
                "yn": "1745.0;1743.0;1594.0;1595.0"
            }, 
            {
                "class": "Wall", 
                "xn": "276.0;318.0;316.0;275.0", 
                "yn": "2025.0;2026.0;2217.0;2217.0"
            }, 
            {
                "class": "Wall", 
                "xn": "302.0;276.0;275.0;300.0", 
                "yn": "2245.0;2245.0;2214.0;2216.0"
            }, 
            {
                "class": "Wall", 
                "xn": "394.0;392.0;273.0;271.0", 
                "yn": "2177.0;2220.0;2223.0;2175.0"
            }, 
            {
                "class": "Wall", 
                "xn": "676.0;677.0;790.0;790.0", 
                "yn": "2174.0;2218.0;2217.0;2176.0"
            }, 
            {
                "class": "Wall", 
                "xn": "748.0;795.0;791.0;747.0", 
                "yn": "2466.0;2466.0;2218.0;2217.0"
            }, 
            {
                "class": "Wall", 
                "xn": "814.0;813.0;748.0;747.0", 
                "yn": "2422.0;2466.0;2467.0;2424.0"
            }, 
            {
                "class": "Wall", 
                "xn": "908.0;908.0;1072.0;1072.0", 
                "yn": "2421.0;2466.0;2466.0;2421.0"
            }, 
            {
                "class": "Wall", 
                "xn": "1074.0;1031.0;1027.0;1073.0", 
                "yn": "2546.0;2546.0;2420.0;2422.0"
            }, 
            {
                "class": "Wall", 
                "xn": "1057.0;1031.0;1031.0;1059.0", 
                "yn": "2605.0;2605.0;2544.0;2543.0"
            }, 
            {
                "class": "Wall", 
                "xn": "1168.0;1170.0;1026.0;1025.0", 
                "yn": "2504.0;2551.0;2552.0;2504.0"
            }, 
            {
                "class": "Wall", 
                "xn": "1309.0;1309.0;1446.0;1446.0", 
                "yn": "2504.0;2551.0;2549.0;2506.0"
            }, 
            {
                "class": "Wall", 
                "xn": "1403.0;1428.0;1430.0;1403.0", 
                "yn": "2203.0;2202.0;2505.0;2506.0"
            }, 
            {
                "class": "Wall", 
                "xn": "1403.0;1403.0;1446.0;1446.0", 
                "yn": "3018.0;2547.0;2550.0;3018.0"
            }, 
            {
                "class": "Wall", 
                "xn": "275.0;274.0;305.0;307.0", 
                "yn": "2577.0;2607.0;2607.0;2577.0"
            }, 
            {
                "class": "Wall", 
                "xn": "642.0;672.0;676.0;644.0", 
                "yn": "2582.0;2583.0;2611.0;2609.0"
            }, 
            {
                "class": "Wall", 
                "xn": "1007.0;1007.0;1054.0;1055.0", 
                "yn": "2582.0;2606.0;2606.0;2580.0"
            }, 
            {
                "class": "Wall", 
                "xn": "1589.0;1589.0;1401.0;1403.0", 
                "yn": "2978.0;3021.0;3021.0;2975.0"
            }, 
            {
                "class": "Wall", 
                "xn": "1727.0;1727.0;2046.0;2047.0", 
                "yn": "2976.0;3021.0;3018.0;2976.0"
            }, 
            {
                "class": "Wall", 
                "xn": "2189.0;2190.0;2373.0;2371.0", 
                "yn": "2978.0;3022.0;3020.0;2976.0"
            }, 
            {
                "class": "Wall", 
                "xn": "2330.0;2373.0;2374.0;2330.0", 
                "yn": "2512.0;2512.0;3021.0;3020.0"
            }, 
            {
                "class": "Wall", 
                "xn": "2331.0;2373.0;2372.0;2330.0", 
                "yn": "2204.0;2204.0;2440.0;2440.0"
            }, 
            {
                "class": "Wall", 
                "xn": "2332.0;2376.0;2374.0;2332.0", 
                "yn": "2064.0;2064.0;1908.0;1908.0"
            }, 
            {
                "class": "Wall", 
                "xn": "2119.0;2377.0;2374.0;2117.0", 
                "yn": "1955.0;1952.0;1909.0;1905.0"
            }, 
            {
                "class": "Wall", 
                "xn": "2118.0;2160.0;2165.0;2118.0", 
                "yn": "1849.0;1849.0;1948.0;1945.0"
            }, 
            {
                "class": "Wall", 
                "xn": "2349.0;2377.0;2377.0;2351.0", 
                "yn": "1886.0;1885.0;1924.0;1921.0"
            }, 
            {
                "class": "Wall", 
                "xn": "1829.0;1854.0;1853.0;1829.0", 
                "yn": "2127.0;2127.0;2541.0;2541.0"
            }, 
            {
                "class": "Wall", 
                "xn": "1854.0;1854.0;1402.0;1402.0", 
                "yn": "1696.0;1739.0;1738.0;1696.0"
            }, 
            {
                "class": "Wall", 
                "xn": "1445.0;1403.0;1402.0;1447.0", 
                "yn": "1951.0;1950.0;1733.0;1735.0"
            }, 
            {
                "class": "Wall", 
                "xn": "1950.0;1952.0;2160.0;2160.0", 
                "yn": "1697.0;1738.0;1742.0;1695.0"
            }, 
            {
                "class": "Wall", 
                "xn": "2185.0;2185.0;2159.0;2159.0", 
                "yn": "1697.0;1721.0;1721.0;1695.0"
            }, 
            {
                "class": "Wall", 
                "xn": "2341.0;2381.0;2378.0;2347.0", 
                "yn": "1697.0;1697.0;1733.0;1733.0"
            }, 
            {
                "class": "Wall", 
                "xn": "2136.0;2159.0;2161.0;2134.0", 
                "yn": "1513.0;1512.0;1693.0;1693.0"
            }, 
            {
                "class": "Wall", 
                "xn": "2133.0;2159.0;2160.0;2133.0", 
                "yn": "1259.0;1258.0;1441.0;1441.0"
            }, 
            {
                "class": "Wall", 
                "xn": "1830.0;1853.0;1853.0;1829.0", 
                "yn": "2641.0;2641.0;2666.0;2664.0"
            }, 
            {
                "class": "Wall", 
                "xn": "1953.0;1976.0;1977.0;1953.0", 
                "yn": "2641.0;2641.0;2663.0;2663.0"
            }, 
            {
                "class": "Wall", 
                "xn": "1656.0;1667.0;1665.0;1655.0", 
                "yn": "1951.0;1950.0;1736.0;1736.0"
            }, 
            {
                "class": "Wall", 
                "xn": "1762.0;1773.0;1773.0;1762.0", 
                "yn": "1951.0;1951.0;1740.0;1740.0"
            }, 
            {
                "class": "Wall", 
                "xn": "1970.0;1981.0;1978.0;1968.0", 
                "yn": "2212.0;2212.0;1944.0;1944.0"
            }, 
            {
                "class": "Wall", 
                "xn": "1965.0;1967.0;2118.0;2118.0", 
                "yn": "1943.0;1954.0;1954.0;1942.0"
            }, 
            {
                "class": "Wall", 
                "xn": "1969.0;1981.0;1981.0;1968.0", 
                "yn": "2419.0;2419.0;2297.0;2298.0"
            }, 
            {
                "class": "Wall", 
                "xn": "2330.0;2330.0;1966.0;1965.0", 
                "yn": "2303.0;2313.0;2313.0;2302.0"
            }, 
            {
                "class": "Wall", 
                "xn": "1970.0;2327.0;2328.0;1968.0", 
                "yn": "2545.0;2545.0;2557.0;2557.0"
            }, 
            {
                "class": "Wall", 
                "xn": "1968.0;1980.0;1979.0;1969.0", 
                "yn": "2502.0;2502.0;2665.0;2666.0"
            }, 
            {
                "class": "Wall", 
                "xn": "1827.0;1836.0;1838.0;1827.0", 
                "yn": "2664.0;2663.0;2976.0;2976.0"
            }, 
            {
                "class": "Wall", 
                "xn": "782.0;793.0;793.0;781.0", 
                "yn": "2097.0;2097.0;2177.0;2176.0"
            }, 
            {
                "class": "Wall", 
                "xn": "1428.0;1427.0;780.0;779.0", 
                "yn": "2094.0;2105.0;2107.0;2094.0"
            }, 
            {
                "class": "Wall", 
                "xn": "1528.0;1826.0;1826.0;1527.0", 
                "yn": "2212.0;2211.0;2202.0;2203.0"
            }, 
            {
                "class": "Wall", 
                "xn": "1428.0;1427.0;1827.0;1826.0", 
                "yn": "2457.0;2467.0;2467.0;2457.0"
            }, 
            {
                "class": "Wall", 
                "xn": "1527.0;1538.0;1536.0;1526.0", 
                "yn": "2127.0;2127.0;2201.0;2201.0"
            }, 
            {
                "class": "Door", 
                "xn": "1740.0;1736.0;1833.0;1813.0;1783.0", 
                "yn": "779.0;689.0;688.0;733.0;766.0"
            }, 
            {
                "class": "Window", 
                "xn": "1393.0;1394.0;1435.0;1479.0;1457.0", 
                "yn": "1010.0;932.0;930.0;994.0;1007.0"
            }, 
            {
                "class": "Window", 
                "xn": "1393.0;1435.0;1474.0;1450.0;1397.0", 
                "yn": "1132.0;1133.0;1197.0;1210.0;1208.0"
            }, 
            {
                "class": "Door", 
                "xn": "1513.0;1397.0;1397.0;1465.0;1499.0", 
                "yn": "1513.0;1513.0;1424.0;1430.0;1462.0"
            }, 
            {
                "class": "Door", 
                "xn": "1947.0;1947.0;1852.0;1861.0;1885.0", 
                "yn": "1826.0;1694.0;1693.0;1783.0;1815.0"
            }, 
            {
                "class": "Window", 
                "xn": "2168.0;2166.0;2107.0;2093.0;2133.0", 
                "yn": "1511.0;1438.0;1439.0;1452.0;1513.0"
            }, 
            {
                "class": "Window", 
                "xn": "1020.0;1162.0;1163.0;1099.0;1088.0;1079.0;1021.0", 
                "yn": "1545.0;1546.0;1596.0;1634.0;1618.0;1634.0;1600.0"
            }, 
            {
                "class": "Window", 
                "xn": "270.0;323.0;321.0;273.0", 
                "yn": "1749.0;1748.0;2024.0;2024.0"
            }, 
            {
                "class": "Window", 
                "xn": "395.0;678.0;676.0;393.0", 
                "yn": "2223.0;2223.0;2166.0;2166.0"
            }, 
            {
                "class": "Door", 
                "xn": "813.0;810.0;909.0;907.0;873.0", 
                "yn": "2327.0;2470.0;2471.0;2374.0;2335.0"
            }, 
            {
                "class": "Window", 
                "xn": "1168.0;1307.0;1309.0;1249.0;1238.0;1231.0;1168.0", 
                "yn": "2554.0;2555.0;2499.0;2465.0;2477.0;2462.0;2501.0"
            }, 
            {
                "class": "Door", 
                "xn": "1303.0;1409.0;1409.0;1362.0;1317.0", 
                "yn": "2108.0;2111.0;2199.0;2191.0;2146.0"
            }, 
            {
                "class": "Door", 
                "xn": "1431.0;1429.0;1531.0;1520.0;1493.0", 
                "yn": "2303.0;2203.0;2206.0;2256.0;2288.0"
            }, 
            {
                "class": "Door", 
                "xn": "1642.0;1553.0;1653.0", 
                "yn": "1999.0;1950.0;1947.0"
            }, 
            {
                "class": "Door", 
                "xn": "1753.0;1660.0;1760.0", 
                "yn": "2000.0;1949.0;1949.0"
            }, 
            {
                "class": "Door", 
                "xn": "2012.0;2163.0;2168.0;2084.0;2017.0", 
                "yn": "1749.0;1741.0;1849.0;1846.0;1796.0"
            }, 
            {
                "class": "Door", 
                "xn": "2072.0;1966.0;1964.0;2019.0;2057.0", 
                "yn": "2298.0;2301.0;2207.0;2206.0;2237.0"
            }, 
            {
                "class": "Door", 
                "xn": "2072.0;1968.0;1964.0;2014.0;2044.0", 
                "yn": "2506.0;2506.0;2411.0;2417.0;2440.0"
            }, 
            {
                "class": "Door", 
                "xn": "1733.0;1839.0;1843.0;1772.0;1743.0", 
                "yn": "2543.0;2548.0;2637.0;2628.0;2581.0"
            }, 
            {
                "class": "Door", 
                "xn": "1855.0;1855.0;1955.0;1947.0;1897.0", 
                "yn": "2753.0;2662.0;2662.0;2718.0;2747.0"
            }, 
            {
                "class": "Window", 
                "xn": "2379.0;2379.0;2330.0;2293.0;2297.0;2285.0;2329.0", 
                "yn": "2061.0;2201.0;2201.0;2144.0;2130.0;2123.0;2066.0"
            }, 
            {
                "class": "Window", 
                "xn": "2379.0;2380.0;2329.0;2288.0;2327.0", 
                "yn": "2438.0;2509.0;2513.0;2448.0;2436.0"
            }, 
            {
                "class": "Window", 
                "xn": "1591.0;1730.0;1725.0;1668.0;1657.0;1649.0;1590.0", 
                "yn": "3023.0;3026.0;2968.0;2940.0;2951.0;2934.0;2967.0"
            }, 
            {
                "class": "Window", 
                "xn": "2049.0;2189.0;2186.0;2127.0;2121.0;2110.0;2044.0", 
                "yn": "3028.0;3025.0;2972.0;2937.0;2950.0;2937.0;2975.0"
            }, 
            {
                "class": "Text", 
                "height": 24, 
                "width": 224, 
                "x": 1524, 
                "y": 374, 
                "text": "abrivoiture"
            }, 
            {
                "class": "Text", 
                "height": 25, 
                "width": 136, 
                "x": 1602, 
                "y": 1117, 
                "text": "garage"
            }, 
            {
                "class": "Text", 
                "height": 25, 
                "width": 130, 
                "x": 463, 
                "y": 1679, 
                "text": "sejour"
            }, 
            {
                "class": "Text", 
                "height": 25, 
                "width": 136, 
                "x": 2182, 
                "y": 1779, 
                "text": "porche"
            }, 
            {
                "class": "Text", 
                "height": 24, 
                "width": 55, 
                "x": 1679, 
                "y": 1862, 
                "text": "wc"
            }, 
            {
                "class": "Text", 
                "height": 24, 
                "width": 79, 
                "x": 1840, 
                "y": 1873, 
                "text": "hall"
            }, 
            {
                "class": "Text", 
                "height": 26, 
                "width": 106, 
                "x": 1114, 
                "y": 1979, 
                "text": "repas"
            }, 
            {
                "class": "Text", 
                "height": 24, 
                "width": 131, 
                "x": 2094, 
                "y": 2092, 
                "text": "bureau"
            }, 
            {
                "class": "Text", 
                "height": 25, 
                "width": 150, 
                "x": 1610, 
                "y": 2156, 
                "text": "placard"
            }, 
            {
                "class": "Text", 
                "height": 26, 
                "width": 128, 
                "x": 1095, 
                "y": 2221, 
                "text": "cuisine"
            }, 
            {
                "class": "Text", 
                "height": 25, 
                "width": 133, 
                "x": 1562, 
                "y": 2257, 
                "text": "cellier"
            }, 
            {
                "class": "Text", 
                "height": 25, 
                "width": 137, 
                "x": 2094, 
                "y": 2422, 
                "text": "douche"
            }, 
            {
                "class": "Text", 
                "height": 25, 
                "width": 150, 
                "x": 1557, 
                "y": 2487, 
                "text": "placard"
            }, 
            {
                "class": "Text", 
                "height": 25, 
                "width": 150, 
                "x": 2076, 
                "y": 2582, 
                "text": "placard"
            }, 
            {
                "class": "Text", 
                "height": 24, 
                "width": 182, 
                "x": 1532, 
                "y": 2765, 
                "text": "chambre 1"
            }, 
            {
                "class": "Text", 
                "height": 24, 
                "width": 186, 
                "x": 2016, 
                "y": 2771, 
                "text": "chambre 2"
            }, 
            {
                "class": "Text", 
                "height": 63.24416968918058, 
                "width": 176.41794702771392, 
                "x": 466.0096713939615, 
                "y": 2333.376997479764, 
                "text": "terrasse couverte"
            }, 
            {
                "class": "Text", 
                "height": 33.28640509956881, 
                "width": 36.615045609525396, 
                "x": 1577.7756017195554, 
                "y": 1857.3814045559322, 
                "text": "pl"
            }
        ], 
        "class": "image", 
        "filename": "fp_16.png"
    }
]