[
    {
        "annotations": [
            {
                "class": "Wall", 
                "xn": "1323.0;1715.0;1718.0;1323.0", 
                "yn": "809.0;806.0;836.0;834.0"
            }, 
            {
                "class": "Wall", 
                "xn": "1285.0;1285.0;1346.0;1346.0", 
                "yn": "1011.0;1051.0;1051.0;1009.0"
            }, 
            {
                "class": "Wall", 
                "xn": "1444.5;1445.5;1717.5;1717.5", 
                "yn": "1010.5;1050.5;1050.5;1007.5"
            }, 
            {
                "class": "Wall", 
                "xn": "1674.0;1718.0;1717.0;1673.0", 
                "yn": "1194.0;1192.0;1011.0;1009.0"
            }, 
            {
                "class": "Wall", 
                "xn": "1718.0;1692.0;1695.0;1720.0", 
                "yn": "808.0;808.0;1012.0;1012.0"
            }, 
            {
                "class": "Wall", 
                "xn": "1120.0;1145.0;1145.0;1121.0", 
                "yn": "809.0;809.0;833.0;834.0"
            }, 
            {
                "class": "Wall", 
                "xn": "1676.0;1718.0;1718.0;1677.0", 
                "yn": "1334.0;1336.0;1553.0;1551.0"
            }, 
            {
                "class": "Wall", 
                "xn": "1674.0;1718.0;1718.0;1677.0", 
                "yn": "1622.0;1621.0;1866.0;1868.0"
            }, 
            {
                "class": "Wall", 
                "xn": "1676.0;1717.0;1720.0;1677.0", 
                "yn": "2006.0;2005.0;2408.0;2409.0"
            }, 
            {
                "class": "Wall", 
                "xn": "1199.0;1198.0;1718.0;1717.0", 
                "yn": "2408.0;2369.0;2369.0;2409.0"
            }, 
            {
                "class": "Wall", 
                "xn": "1198.0;1240.0;1240.0;1196.0", 
                "yn": "2202.0;2202.0;2408.0;2408.0"
            }, 
            {
                "class": "Wall", 
                "xn": "1182.0;1182.0;771.0;770.0", 
                "yn": "1009.5;1051.5;1052.5;1010.5"
            }, 
            {
                "class": "Wall", 
                "xn": "773.0;817.0;812.0;768.0", 
                "yn": "1175.0;1177.0;1010.0;1013.0"
            }, 
            {
                "class": "Wall", 
                "xn": "771.0;813.0;813.0;771.0", 
                "yn": "1386.0;1385.0;1736.0;1734.0"
            }, 
            {
                "class": "Wall", 
                "xn": "771.0;812.0;815.0;774.0", 
                "yn": "1877.0;1876.0;2074.0;2074.0"
            }, 
            {
                "class": "Wall", 
                "xn": "1238.0;1240.0;1198.0;1198.0", 
                "yn": "2030.0;2110.0;2110.0;2029.0"
            }, 
            {
                "class": "Wall", 
                "xn": "774.0;773.0;1238.0;1240.0", 
                "yn": "2029.0;2071.0;2074.0;2029.0"
            }, 
            {
                "class": "Wall", 
                "xn": "1196.0;1224.0;1221.0;1196.0", 
                "yn": "1748.0;1748.0;2027.0;2029.0"
            }, 
            {
                "class": "Wall", 
                "xn": "1320.0;1343.0;1345.0;1324.0", 
                "yn": "1301.0;1301.0;1648.0;1648.0"
            }, 
            {
                "class": "Wall", 
                "xn": "1223.5;1195.5;1194.5;1220.5", 
                "yn": "1645.5;1645.5;1623.5;1622.5"
            }, 
            {
                "class": "Wall", 
                "xn": "773.0;796.0;796.0;773.0", 
                "yn": "2385.0;2387.0;2410.0;2410.0"
            }, 
            {
                "class": "Wall", 
                "xn": "1314.5;1314.5;1684.5;1683.5", 
                "yn": "1744.5;1755.5;1754.5;1745.5"
            }, 
            {
                "class": "Wall", 
                "xn": "1676.0;1679.0;1234.0;1234.0", 
                "yn": "2080.0;2091.0;2089.0;2081.0"
            }, 
            {
                "class": "Wall", 
                "xn": "1489.0;1479.0;1479.0;1490.0", 
                "yn": "1648.0;1649.0;1534.0;1534.0"
            }, 
            {
                "class": "Wall", 
                "xn": "1439.0;1440.0;1493.0;1492.0", 
                "yn": "1638.0;1650.0;1650.0;1638.0"
            }, 
            {
                "class": "Wall", 
                "xn": "1341.5;1342.5;1678.5;1676.5", 
                "yn": "1532.0;1543.0;1544.0;1532.0"
            }, 
            {
                "class": "Wall", 
                "xn": "812.0;811.0;1198.0;1198.0", 
                "yn": "1621.0;1632.0;1634.0;1621.0"
            }, 
            {
                "class": "Door", 
                "xn": "1333.0;1192.0;1193.0;1244.0;1298.0;1322.0", 
                "yn": "2110.0;2109.0;2201.0;2202.0;2185.0;2153.0"
            }, 
            {
                "class": "Window", 
                "xn": "1727.0;1727.0;1672.0;1671.0", 
                "yn": "1867.0;2004.0;2005.0;1867.0"
            }, 
            {
                "class": "Door", 
                "xn": "1225.0;1223.0;1320.0;1315.0;1277.0", 
                "yn": "1844.5;1747.5;1744.5;1795.5;1835.5"
            }, 
            {
                "class": "Door", 
                "xn": "1548.0;1447.0;1440.0;1499.0;1535.0", 
                "yn": "1745.0;1743.0;1651.0;1658.0;1692.0"
            }, 
            {
                "class": "Door", 
                "xn": "1365.0;1445.0;1350.0;1351.0", 
                "yn": "1694.0;1646.0;1642.0;1670.0"
            }, 
            {
                "class": "Door", 
                "xn": "1319.5;1319.5;1225.5;1235.5;1272.5", 
                "yn": "1532.5;1631.5;1629.5;1578.5;1543.5"
            }, 
            {
                "class": "Door", 
                "xn": "1110.0;1206.0;1210.0;1150.0;1116.0", 
                "yn": "1652.0;1652.0;1745.0;1735.0;1694.0"
            }, 
            {
                "class": "Window", 
                "xn": "1726.0;1725.0;1671.0;1671.0", 
                "yn": "1551.0;1620.0;1619.0;1552.0"
            }, 
            {
                "class": "Door", 
                "xn": "1725.5;1727.5;1671.5;1670.5", 
                "yn": "1187.5;1333.5;1335.5;1188.5"
            }, 
            {
                "class": "Door", 
                "xn": "1435.0;1336.0;1339.0;1396.0;1430.0", 
                "yn": "1203.0;1204.0;1298.0;1288.0;1255.0"
            }, 
            {
                "class": "Door", 
                "xn": "1285.0;1288.0;1181.0;1182.0;1200.0;1240.0", 
                "yn": "1152.0;1007.0;1007.0;1059.0;1113.0;1145.0"
            }, 
            {
                "class": "Door", 
                "xn": "1350.0;1348.0;1446.0;1447.0;1427.0;1383.0", 
                "yn": "1141.0;1009.0;1010.0;1055.0;1115.0;1137.0"
            }, 
            {
                "class": "Wall", 
                "xn": "1323.0;1345.0;1347.0;1322.0", 
                "yn": "1200.0;1199.0;808.0;809.0"
            }, 
            {
                "class": "Window", 
                "xn": "765.0;823.0;820.0;765.0", 
                "yn": "1735.0;1735.0;1879.0;1879.0"
            }, 
            {
                "class": "Window", 
                "xn": "765.0;885.0;863.0;838.0;871.0;890.0;815.0;815.0;763.0", 
                "yn": "1176.0;1176.0;1232.0;1245.0;1265.0;1315.0;1314.0;1384.0;1384.0"
            }, 
            {
                "class": "Text", 
                "height": 30, 
                "width": 166, 
                "x": 1466, 
                "y": 905, 
                "text": "cellier"
            }, 
            {
                "class": "Text", 
                "height": 31, 
                "width": 163, 
                "x": 982, 
                "y": 1349, 
                "text": "sejour"
            }, 
            {
                "class": "Text", 
                "height": 30, 
                "width": 159, 
                "x": 1414, 
                "y": 1330, 
                "text": "cuisine"
            }, 
            {
                "class": "Text", 
                "height": 31, 
                "width": 109, 
                "x": 1250, 
                "y": 1667, 
                "text": "degt"
            }, 
            {
                "class": "Text", 
                "height": 32, 
                "width": 117, 
                "x": 1510, 
                "y": 1648, 
                "text": "bains"
            }, 
            {
                "class": "Text", 
                "height": 37.77180720518436, 
                "width": 155.80870472138542, 
                "x": 835.7012344147037, 
                "y": 2212.011459453608, 
                "text": "terrasse"
            }, 
            {
                "class": "Text", 
                "height": 30.68959335421232, 
                "width": 106.23320776458104, 
                "x": 1385.7531768402007, 
                "y": 2212.011459453608, 
                "text": "cave"
            }, 
            {
                "class": "Text", 
                "height": 40.132545155508296, 
                "width": 84.98656621166481, 
                "x": 951.3773939805807, 
                "y": 1756.389035041072, 
                "text": "ch 1"
            }, 
            {
                "class": "Text", 
                "height": 33.05033130453626, 
                "width": 87.34730416198863, 
                "x": 1378.6709629892287, 
                "y": 1893.3118361598654, 
                "text": "ch 2"
            }, 
            {
                "class": "Text", 
                "height": 35.41106925486042, 
                "width": 68.46140055939668, 
                "x": 1366.8672732376085, 
                "y": 1548.644095412558, 
                "text": "wc"
            }, 
            {
                "class": "Text", 
                "height": 35.41106925486031, 
                "width": 125.11911136717322, 
                "x": 1137.8756920561784, 
                "y": 880.5552554708601, 
                "text": "porche"
            }
        ], 
        "class": "image", 
        "filename": "fp_37.png"
    }
]