[
    {
        "annotations": [
            {
                "class": "Wall", 
                "xn": "1559.0;1583.0;1584.0;1559.0", 
                "yn": "921.0;920.0;1179.0;1179.0"
            }, 
            {
                "class": "Wall", 
                "xn": "1233.5;1233.5;1581.5;1582.5", 
                "yn": "1178.0;1205.0;1205.0;1178.0"
            }, 
            {
                "class": "Wall", 
                "xn": "1558.5;1582.5;1582.5;1559.5", 
                "yn": "541.0;541.0;810.0;807.0"
            }, 
            {
                "class": "Wall", 
                "xn": "1736.0;1737.0;1583.0;1584.0", 
                "yn": "561.0;520.0;519.0;561.0"
            }, 
            {
                "class": "Wall", 
                "xn": "1545.5;1545.5;1582.5;1582.5", 
                "yn": "519.0;542.0;543.0;519.0"
            }, 
            {
                "class": "Wall", 
                "xn": "1520.0;1520.0;1629.0;1628.0", 
                "yn": "1728.0;1771.0;1771.0;1729.0"
            }, 
            {
                "class": "Wall", 
                "xn": "1363.0;1362.0;1252.0;1253.0", 
                "yn": "1728.0;1773.0;1773.0;1729.0"
            }, 
            {
                "class": "Wall", 
                "xn": "1672.0;1671.0;1629.0;1630.0", 
                "yn": "1535.0;1772.0;1771.0;1535.0"
            }, 
            {
                "class": "Wall", 
                "xn": "1692.5;1693.5;1701.5;1701.5", 
                "yn": "559.5;807.5;808.5;560.5"
            }, 
            {
                "class": "Wall", 
                "xn": "1682.0;1682.0;1628.0;1629.0", 
                "yn": "1492.0;1535.0;1535.0;1493.0"
            }, 
            {
                "class": "Wall", 
                "xn": "1788.0;1788.0;1965.0;1966.0", 
                "yn": "1493.0;1537.0;1535.0;1494.0"
            }, 
            {
                "class": "Wall", 
                "xn": "1966.0;2009.0;2010.0;1964.0", 
                "yn": "1447.0;1446.0;1535.0;1536.0"
            }, 
            {
                "class": "Wall", 
                "xn": "1253.0;1209.0;1209.0;1253.0", 
                "yn": "1322.0;1321.0;1773.0;1772.0"
            }, 
            {
                "class": "Wall", 
                "xn": "1210.0;1236.0;1234.0;1221.5;1209.0", 
                "yn": "907.0;907.0;1204.0;1204.0;1204.0"
            }, 
            {
                "class": "Wall", 
                "xn": "1233.5;1233.5;1246.5;1246.5", 
                "yn": "544.0;518.0;518.0;544.0"
            }, 
            {
                "class": "Wall", 
                "xn": "1209.0;1235.0;1236.0;1210.0", 
                "yn": "519.0;518.0;819.0;819.0"
            }, 
            {
                "class": "Wall", 
                "xn": "1813.0;1812.0;1936.0;1936.0", 
                "yn": "803.0;809.0;809.0;801.0"
            }, 
            {
                "class": "Wall", 
                "xn": "1936.0;1936.0;1943.0;1943.0", 
                "yn": "809.0;561.0;561.0;809.0"
            }, 
            {
                "class": "Wall", 
                "xn": "1818.5;1819.5;2201.5;2199.5", 
                "yn": "560.0;517.0;518.0;560.0"
            }, 
            {
                "class": "Wall", 
                "xn": "2202.0;2246.0;2245.0;2201.0", 
                "yn": "685.0;685.0;519.0;518.0"
            }, 
            {
                "class": "Wall", 
                "xn": "2200.0;2200.0;1801.0;1802.0", 
                "yn": "920.0;926.0;926.0;921.0"
            }, 
            {
                "class": "Wall", 
                "xn": "2201.0;2245.0;2245.0;2202.0", 
                "yn": "793.0;793.0;1038.0;1038.0"
            }, 
            {
                "class": "Wall", 
                "xn": "2201.0;2246.0;2246.0;2201.0", 
                "yn": "1147.0;1148.0;1255.0;1255.0"
            }, 
            {
                "class": "Wall", 
                "xn": "2126.0;2126.0;2245.0;2245.0", 
                "yn": "1256.0;1299.0;1299.0;1255.0"
            }, 
            {
                "class": "Wall", 
                "xn": "2018.0;2018.0;1966.0;1966.0", 
                "yn": "1257.0;1299.0;1298.0;1256.0"
            }, 
            {
                "class": "Wall", 
                "xn": "1966.0;2010.0;2009.0;1967.0", 
                "yn": "1338.0;1339.0;1298.0;1299.0"
            }, 
            {
                "class": "Wall", 
                "xn": "1690.5;1689.5;1581.5;1581.5", 
                "yn": "918.5;926.5;925.5;919.5"
            }, 
            {
                "class": "Window", 
                "xn": "1279.0;1239.0;1205.0;1204.0;1240.0;1257.0", 
                "yn": "833.0;902.0;901.0;824.0;822.0;826.0"
            }, 
            {
                "class": "Door", 
                "xn": "1345.0;1208.0;1203.0;1258.0;1302.0;1346.0", 
                "yn": "1218.0;1212.0;1319.0;1321.0;1307.0;1260.0"
            }, 
            {
                "class": "Window", 
                "xn": "1368.0;1368.0;1518.0;1514.0;1462.0;1440.0;1413.0", 
                "yn": "1656.0;1773.0;1774.0;1654.0;1669.0;1705.0;1667.0"
            }, 
            {
                "class": "Door", 
                "xn": "1784.0;1787.0;1681.0;1684.0;1697.0;1737.0", 
                "yn": "1395.0;1536.0;1536.0;1485.0;1435.0;1402.0"
            }, 
            {
                "class": "Window", 
                "xn": "1916.0;1962.0;2015.0;2016.0;1959.0;1936.0", 
                "yn": "1357.0;1447.0;1442.0;1341.0;1341.0;1342.0"
            }, 
            {
                "class": "Door", 
                "xn": "2122.0;2125.0;2017.0;2017.0;2035.0;2073.0", 
                "yn": "1160.0;1300.0;1299.0;1254.0;1201.0;1167.0"
            }, 
            {
                "class": "Wall", 
                "xn": "2220.0;2242.0;2243.0;2222.0", 
                "yn": "1747.0;1748.0;1771.0;1769.0"
            }, 
            {
                "class": "Window", 
                "xn": "2153.0;2200.0;2251.0;2250.0;2195.0;2167.0", 
                "yn": "1058.5;1143.5;1143.5;1038.5;1037.5;1043.5"
            }, 
            {
                "class": "Window", 
                "xn": "1749.0;1817.0;1816.0;1736.0;1739.0;1740.0", 
                "yn": "597.0;559.0;512.0;510.0;560.0;580.0"
            }, 
            {
                "class": "Window", 
                "xn": "2152.0;2198.0;2249.0;2249.0;2202.0;2174.0", 
                "yn": "705.5;791.5;792.5;689.5;685.5;694.5"
            }, 
            {
                "class": "Door", 
                "xn": "1923.0;1814.0;1816.0;1877.0;1911.0", 
                "yn": "917.0;914.0;809.0;820.0;865.0"
            }, 
            {
                "class": "Door", 
                "xn": "1703.0;1700.0;1816.0;1804.0;1759.0", 
                "yn": "699.0;805.0;807.0;762.0;711.0"
            }, 
            {
                "class": "Door", 
                "xn": "1581.0;1582.0;1697.0;1683.0;1639.0", 
                "yn": "698.0;810.0;810.0;752.0;705.0"
            }, 
            {
                "class": "Door", 
                "xn": "1688.5;1574.5;1569.5;1628.5;1673.5", 
                "yn": "917.5;919.5;804.5;817.5;862.5"
            }, 
            {
                "class": "Door", 
                "xn": "1693.5;1690.5;1799.5;1792.5;1742.5", 
                "yn": "1024.5;921.5;922.5;974.5;1015.5"
            }, 
            {
                "class": "Text", 
                "height": 25, 
                "width": 137, 
                "x": 1710, 
                "y": 612, 
                "text": "douche"
            }, 
            {
                "class": "Text", 
                "height": 24, 
                "width": 182, 
                "x": 1975, 
                "y": 683, 
                "text": "chambre 1"
            }, 
            {
                "class": "Text", 
                "height": 25, 
                "width": 135, 
                "x": 1308, 
                "y": 854, 
                "text": "garage"
            }, 
            {
                "class": "Text", 
                "height": 25, 
                "width": 92, 
                "x": 1693, 
                "y": 836, 
                "text": "degt"
            }, 
            {
                "class": "Text", 
                "height": 25, 
                "width": 127, 
                "x": 1981, 
                "y": 1049, 
                "text": "cuisine"
            }, 
            {
                "class": "Text", 
                "height": 25, 
                "width": 106, 
                "x": 1693, 
                "y": 1114, 
                "text": "repas"
            }, 
            {
                "class": "Text", 
                "height": 25, 
                "width": 130, 
                "x": 1349, 
                "y": 1462, 
                "text": "sejour"
            }, 
            {
                "class": "Text", 
                "height": 67.60256086524623, 
                "width": 182.0068946372014, 
                "x": 1791.467862929026, 
                "y": 1567.85939237475, 
                "text": "terrasse couverte"
            }, 
            {
                "class": "Text", 
                "height": 31.20118193780604, 
                "width": 57.202166885977704, 
                "x": 1606.8608697970074, 
                "y": 637.0241312302052, 
                "text": "wc"
            }
        ], 
        "class": "image", 
        "filename": "fp_46.png"
    }
]