[
    {
        "annotations": [
            {
                "class": "Wall", 
                "xn": "641.0;905.0;905.0;642.0", 
                "yn": "762.0;761.0;787.0;785.0"
            }, 
            {
                "class": "Wall", 
                "xn": "268.0;292.0;292.0;269.0", 
                "yn": "762.0;762.0;801.0;801.0"
            }, 
            {
                "class": "Wall", 
                "xn": "268.0;291.0;291.0;269.0", 
                "yn": "1157.0;1157.0;1321.0;1321.0"
            }, 
            {
                "class": "Wall", 
                "xn": "711.0;717.0;717.0;710.0", 
                "yn": "1236.0;1236.0;1476.0;1476.0"
            }, 
            {
                "class": "Wall", 
                "xn": "504.0;540.0;540.0;504.0", 
                "yn": "1210.0;1210.0;1234.0;1234.0"
            }, 
            {
                "class": "Wall", 
                "xn": "1537.0;2078.0;2079.0;1537.0", 
                "yn": "1563.0;1563.0;1571.0;1571.0"
            }, 
            {
                "class": "Wall", 
                "xn": "1495.0;1602.0;1603.0;1537.0;1496.0", 
                "yn": "760.0;761.0;804.0;804.0;805.0"
            }, 
            {
                "class": "Wall", 
                "xn": "930.0;1018.0;1018.0;930.0", 
                "yn": "761.0;761.0;803.0;804.0"
            }, 
            {
                "class": "Wall", 
                "xn": "2080.0;2123.0;2123.0;2080.0", 
                "yn": "803.0;802.0;938.0;938.0"
            }, 
            {
                "class": "Wall", 
                "xn": "1489.0;1497.0;1498.0;1491.0", 
                "yn": "922.0;922.0;1121.0;1121.0"
            }, 
            {
                "class": "Wall", 
                "xn": "1551.0;1551.0;1796.0;1796.0", 
                "yn": "2100.0;2144.0;2144.0;2102.0"
            }, 
            {
                "class": "Wall", 
                "xn": "1941.0;1941.0;2079.0;2080.0", 
                "yn": "2100.0;2143.0;2144.0;2100.0"
            }, 
            {
                "class": "Wall", 
                "xn": "2123.0;2079.0;2080.0;2123.0", 
                "yn": "2145.0;2143.0;1476.0;1476.0"
            }, 
            {
                "class": "Wall", 
                "xn": "2123.0;2080.0;2081.0;2123.0", 
                "yn": "1322.0;1322.0;1092.0;1091.0"
            }, 
            {
                "class": "Wall", 
                "xn": "1685.0;1685.0;2123.0;2123.0", 
                "yn": "761.0;803.0;804.0;761.0"
            }, 
            {
                "class": "Wall", 
                "xn": "1495.0;1538.0;1537.0;1495.0", 
                "yn": "878.0;878.0;802.0;803.0"
            }, 
            {
                "class": "Wall", 
                "xn": "1484.0;1484.0;1539.0;1537.0", 
                "yn": "921.0;879.0;879.0;921.0"
            }, 
            {
                "class": "Wall", 
                "xn": "1537.0;1537.0;1491.0;1490.0", 
                "yn": "1121.0;1128.0;1128.0;1121.0"
            }, 
            {
                "class": "Wall", 
                "xn": "1530.0;1538.0;1537.0;1532.0", 
                "yn": "1227.0;1227.0;1570.0;1571.0"
            }, 
            {
                "class": "Wall", 
                "xn": "1638.0;1638.0;2080.0;2080.0", 
                "yn": "1227.0;1234.0;1234.0;1227.0"
            }, 
            {
                "class": "Wall", 
                "xn": "1743.0;1751.0;1751.0;1743.0", 
                "yn": "1120.0;1120.0;803.0;803.0"
            }, 
            {
                "class": "Wall", 
                "xn": "1637.0;1637.0;1750.0;1751.0", 
                "yn": "1121.0;1128.0;1128.0;1121.0"
            }, 
            {
                "class": "Wall", 
                "xn": "1267.0;1224.0;1224.0;1267.0", 
                "yn": "1790.0;1791.0;1660.0;1660.0"
            }, 
            {
                "class": "Wall", 
                "xn": "1260.0;1267.0;1267.0;1260.0", 
                "yn": "1616.0;1616.0;1570.0;1570.0"
            }, 
            {
                "class": "Wall", 
                "xn": "1062.0;1062.0;1266.0;1266.0", 
                "yn": "1616.0;1659.0;1659.0;1616.0"
            }, 
            {
                "class": "Wall", 
                "xn": "710.0;718.0;717.0;710.0", 
                "yn": "1616.0;1616.0;1577.0;1577.0"
            }, 
            {
                "class": "Wall", 
                "xn": "658.0;658.0;915.0;916.0", 
                "yn": "1660.0;1617.0;1618.0;1660.0"
            }, 
            {
                "class": "Wall", 
                "xn": "310.0;310.0;503.0;502.0", 
                "yn": "1617.0;1660.0;1660.0;1617.0"
            }, 
            {
                "class": "Wall", 
                "xn": "269.0;310.0;310.0;268.0", 
                "yn": "1660.0;1659.0;1447.0;1447.0"
            }, 
            {
                "class": "Wall", 
                "xn": "267.0;292.0;292.0;267.0", 
                "yn": "1405.0;1405.0;1421.0;1421.0"
            }, 
            {
                "class": "Wall", 
                "xn": "504.0;504.0;268.0;268.0", 
                "yn": "1415.0;1446.0;1447.0;1421.0"
            }, 
            {
                "class": "Wall", 
                "xn": "528.0;503.0;503.0;528.0", 
                "yn": "1446.0;1446.0;1233.0;1233.0"
            }, 
            {
                "class": "Wall", 
                "xn": "556.0;556.0;292.0;292.0", 
                "yn": "760.0;786.0;785.0;762.0"
            }, 
            {
                "class": "Wall", 
                "xn": "904.0;930.0;929.0;904.0", 
                "yn": "1209.0;1209.0;759.0;759.0"
            }, 
            {
                "class": "Wall", 
                "xn": "1172.0;1172.0;1260.0;1261.0", 
                "yn": "761.0;803.0;805.0;761.0"
            }, 
            {
                "class": "Wall", 
                "xn": "1302.0;1261.0;1260.0;1302.0", 
                "yn": "878.0;878.0;761.0;761.0"
            }, 
            {
                "class": "Wall", 
                "xn": "1307.0;1307.0;1260.0;1260.0", 
                "yn": "921.0;878.0;877.0;921.0"
            }, 
            {
                "class": "Wall", 
                "xn": "1267.0;1260.0;1259.0;1267.0", 
                "yn": "1121.0;1121.0;921.0;921.0"
            }, 
            {
                "class": "Wall", 
                "xn": "1372.0;1372.0;1259.0;1260.0", 
                "yn": "1128.0;1121.0;1120.0;1129.0"
            }, 
            {
                "class": "Wall", 
                "xn": "1268.0;1268.0;1354.0;1354.0", 
                "yn": "1399.0;1406.0;1406.0;1399.0"
            }, 
            {
                "class": "Wall", 
                "xn": "1267.0;1259.0;1259.0;1267.0", 
                "yn": "1235.0;1235.0;1406.0;1406.0"
            }, 
            {
                "class": "Wall", 
                "xn": "930.0;930.0;1372.0;1372.0", 
                "yn": "1228.0;1235.0;1234.0;1228.0"
            }, 
            {
                "class": "Wall", 
                "xn": "1268.0;1405.0;1404.0;1268.0", 
                "yn": "2101.0;2101.0;2143.0;2143.0"
            }, 
            {
                "class": "Wall", 
                "xn": "1225.0;1267.0;1268.0;1225.0", 
                "yn": "2007.0;2006.0;2143.0;2143.0"
            }, 
            {
                "class": "Wall", 
                "xn": "1366.0;1366.0;1378.0;1378.0", 
                "yn": "879.0;922.0;921.0;880.0"
            }, 
            {
                "class": "Wall", 
                "xn": "1366.0;1373.0;1372.0;1366.0", 
                "yn": "1021.0;1021.0;920.0;920.0"
            }, 
            {
                "class": "Wall", 
                "xn": "640.0;640.0;931.0;930.0", 
                "yn": "1234.0;1209.0;1209.0;1235.0"
            }, 
            {
                "class": "Wall", 
                "xn": "1727.0;1720.0;1719.0;1726.0", 
                "yn": "1616.0;1615.0;1571.0;1571.0"
            }, 
            {
                "class": "Wall", 
                "xn": "1720.0;1720.0;1773.0;1773.0", 
                "yn": "1617.0;1624.0;1623.0;1616.0"
            }, 
            {
                "class": "Wall", 
                "xn": "1773.0;1780.0;1780.0;1773.0", 
                "yn": "1572.0;1571.0;1623.0;1623.0"
            }, 
            {
                "class": "Window", 
                "xn": "571.0;639.0;639.0;557.0;560.0;560.0", 
                "yn": "829.0;791.0;756.0;753.0;791.0;811.0"
            }, 
            {
                "class": "Window", 
                "xn": "1085.0;1023.0;1020.0;1170.0;1172.0;1105.0;1093.0", 
                "yn": "841.0;803.0;756.0;758.0;805.0;839.0;823.0"
            }, 
            {
                "class": "Window", 
                "xn": "1318.0;1363.0;1362.5;1362.0;1313.0;1308.0", 
                "yn": "945.0;922.0;899.5;877.0;874.0;919.0"
            }, 
            {
                "class": "Door", 
                "xn": "1481.0;1482.0;1378.0;1378.0;1394.0;1438.0", 
                "yn": "1023.0;880.0;880.0;926.0;980.0;1015.0"
            }, 
            {
                "class": "Window", 
                "xn": "1616.0;1683.0;1683.0;1604.0;1605.0;1608.0", 
                "yn": "838.0;801.0;756.0;753.0;808.0;824.0"
            }, 
            {
                "class": "Window", 
                "xn": "2043.0;2080.0;2128.0;2129.0;2079.0;2042.0;2058.0", 
                "yn": "1006.0;941.0;940.0;1090.0;1090.0;1024.0;1014.0"
            }, 
            {
                "class": "Window", 
                "xn": "2043.0;2078.0;2128.0;2130.0;2080.0;2042.0;2059.0", 
                "yn": "1390.0;1326.0;1326.0;1472.0;1472.0;1407.0;1396.0"
            }, 
            {
                "class": "Window", 
                "xn": "1940.0;1940.0;1797.0;1795.0;1834.0;1859.0;1866.0;1886.0;1909.0", 
                "yn": "2030.0;2145.0;2146.0;2028.0;2032.0;2059.0;2079.0;2049.0;2033.0"
            }, 
            {
                "class": "Window", 
                "xn": "1550.0;1551.0;1405.0;1404.0;1449.0;1477.0;1502.0", 
                "yn": "2030.0;2145.0;2144.0;2027.0;2036.0;2071.0;2038.0"
            }, 
            {
                "class": "Window", 
                "xn": "1270.0;1269.0;1221.0;1220.0;1333.0;1324.0;1283.0;1325.0;1336.0", 
                "yn": "1931.0;2005.0;2005.0;1791.0;1794.0;1845.0;1862.0;1887.0;1927.0"
            }, 
            {
                "class": "Window", 
                "xn": "1061.0;1061.0;912.0;915.0;957.0;987.0;1012.0", 
                "yn": "1546.0;1657.0;1658.0;1544.0;1551.0;1589.0;1549.0"
            }, 
            {
                "class": "Window", 
                "xn": "334.0;297.0;263.0;262.0;298.0;315.0", 
                "yn": "1334.0;1401.0;1400.0;1324.0;1323.0;1326.0"
            }, 
            {
                "class": "Door", 
                "xn": "545.0;541.0;639.0;639.0;625.0;589.0", 
                "yn": "1323.0;1213.0;1210.0;1238.0;1282.0;1314.0"
            }, 
            {
                "class": "Door", 
                "xn": "622.0;718.0;718.0;678.0;633.0", 
                "yn": "1571.0;1571.0;1482.0;1482.0;1517.0"
            }, 
            {
                "class": "Door", 
                "xn": "1417.0;1368.0;1370.0;1395.0", 
                "yn": "1103.0;1017.0;1122.0;1119.0"
            }, 
            {
                "class": "Door", 
                "xn": "1275.0;1377.0;1377.0;1318.0;1284.0", 
                "yn": "1226.0;1231.0;1126.0;1140.0;1183.0"
            }, 
            {
                "class": "Door", 
                "xn": "1353.0;1353.0;1526.0;1524.0;1463.0;1439.0;1406.0", 
                "yn": "1489.0;1400.0;1399.0;1492.0;1475.0;1435.0;1479.0"
            }, 
            {
                "class": "Door", 
                "xn": "1543.0;1539.0;1641.0;1629.0;1590.0", 
                "yn": "1034.0;1126.0;1129.0;1080.0;1039.0"
            }, 
            {
                "class": "Door", 
                "xn": "1735.0;1641.0;1638.0;1704.0;1730.0", 
                "yn": "1132.0;1131.0;1225.0;1208.0;1174.0"
            }, 
            {
                "class": "Door", 
                "xn": "1539.0;1539.0;1638.0;1625.0;1584.0", 
                "yn": "1327.0;1227.0;1228.0;1283.0;1319.0"
            }, 
            {
                "class": "Window", 
                "xn": "508.0;652.0;652.0;588.0;576.0;569.0;503.0", 
                "yn": "1668.0;1666.0;1612.0;1580.0;1597.0;1575.0;1617.0"
            }, 
            {
                "class": "Text", 
                "height": 30, 
                "width": 125, 
                "x": 1342, 
                "y": 806, 
                "text": "porche"
            }, 
            {
                "class": "Text", 
                "height": 31, 
                "width": 233, 
                "x": 992, 
                "y": 894, 
                "text": "chambre 3"
            }, 
            {
                "class": "Text", 
                "height": 31, 
                "width": 170, 
                "x": 543, 
                "y": 935, 
                "text": "garage"
            }, 
            {
                "class": "Text", 
                "height": 31, 
                "width": 116, 
                "x": 1525, 
                "y": 941, 
                "text": "bains"
            }, 
            {
                "class": "Text", 
                "height": 31, 
                "width": 227, 
                "x": 1801, 
                "y": 924, 
                "text": "chambre 1"
            }, 
            {
                "class": "Text", 
                "height": 31, 
                "width": 69, 
                "x": 1286, 
                "y": 1000, 
                "text": "wc"
            }, 
            {
                "class": "Text", 
                "height": 30, 
                "width": 99, 
                "x": 1377, 
                "y": 1160, 
                "text": "hall"
            }, 
            {
                "class": "Text", 
                "height": 30, 
                "width": 54, 
                "x": 1277, 
                "y": 1284, 
                "text": "pl"
            }, 
            {
                "class": "Text", 
                "height": 31, 
                "width": 233, 
                "x": 1736, 
                "y": 1343, 
                "text": "chambre 2"
            }, 
            {
                "class": "Text", 
                "height": 31, 
                "width": 160, 
                "x": 915, 
                "y": 1384, 
                "text": "cuisine"
            }, 
            {
                "class": "Text", 
                "height": 31, 
                "width": 166, 
                "x": 473, 
                "y": 1478, 
                "text": "cellier"
            }, 
            {
                "class": "Text", 
                "height": 31, 
                "width": 162, 
                "x": 1594, 
                "y": 1868, 
                "text": "sejour"
            }
        ], 
        "class": "image", 
        "filename": "fp_44.png"
    }
]