[
    {
        "annotations": [
            {
                "class": "Wall", 
                "xn": "513.0;514.0;707.0;707.0", 
                "yn": "495.0;522.0;522.0;495.0"
            }, 
            {
                "class": "Wall", 
                "xn": "488.0;516.0;515.0;489.0", 
                "yn": "495.0;494.0;1381.0;1380.0"
            }, 
            {
                "class": "Wall", 
                "xn": "785.0;785.0;531.0;532.0", 
                "yn": "1381.0;1424.0;1424.0;1381.0"
            }, 
            {
                "class": "Wall", 
                "xn": "489.0;533.0;532.0;489.0", 
                "yn": "1512.0;1512.0;1381.0;1380.0"
            }, 
            {
                "class": "Wall", 
                "xn": "533.0;489.0;488.0;533.0", 
                "yn": "1765.0;1765.0;1582.0;1581.0"
            }, 
            {
                "class": "Wall", 
                "xn": "531.0;531.0;785.0;785.0", 
                "yn": "1605.0;1612.0;1612.0;1605.0"
            }, 
            {
                "class": "Wall", 
                "xn": "885.0;885.0;1016.0;1016.0", 
                "yn": "1381.0;1424.0;1424.0;1381.0"
            }, 
            {
                "class": "Wall", 
                "xn": "992.0;997.0;998.0;991.0", 
                "yn": "1612.0;1612.0;1424.0;1424.0"
            }, 
            {
                "class": "Wall", 
                "xn": "885.0;892.0;892.0;885.0", 
                "yn": "1689.0;1690.0;1424.0;1424.0"
            }, 
            {
                "class": "Wall", 
                "xn": "1015.0;992.0;992.0;1016.0", 
                "yn": "1180.0;1180.0;1380.0;1381.0"
            }, 
            {
                "class": "Wall", 
                "xn": "992.0;992.0;1356.0;1356.0", 
                "yn": "1156.0;1182.0;1182.0;1157.0"
            }, 
            {
                "class": "Wall", 
                "xn": "1357.0;1400.0;1399.0;1356.0", 
                "yn": "1239.0;1239.0;1157.0;1157.0"
            }, 
            {
                "class": "Wall", 
                "xn": "1400.0;1375.0;1375.0;1401.0", 
                "yn": "1131.0;1134.0;1161.0;1159.0"
            }, 
            {
                "class": "Wall", 
                "xn": "1377.0;1375.0;1399.0;1400.0", 
                "yn": "824.0;851.0;850.0;824.0"
            }, 
            {
                "class": "Wall", 
                "xn": "1375.0;1400.0;1400.0;1376.0", 
                "yn": "545.0;546.0;495.0;495.0"
            }, 
            {
                "class": "Wall", 
                "xn": "779.0;778.0;1375.0;1376.0", 
                "yn": "495.0;522.0;521.0;496.0"
            }, 
            {
                "class": "Wall", 
                "xn": "1399.0;1357.0;1357.0;1399.0", 
                "yn": "1313.0;1312.0;1423.0;1423.0"
            }, 
            {
                "class": "Wall", 
                "xn": "1453.0;1453.0;1399.0;1399.0", 
                "yn": "1423.0;1381.0;1381.0;1423.0"
            }, 
            {
                "class": "Wall", 
                "xn": "1493.0;1453.0;1453.0;1493.0", 
                "yn": "1380.5;1381.5;1523.5;1523.5"
            }, 
            {
                "class": "Wall", 
                "xn": "1452.0;1494.0;1493.0;1452.0", 
                "yn": "1664.0;1664.0;1989.0;1989.0"
            }, 
            {
                "class": "Wall", 
                "xn": "1493.0;1452.0;1452.0;1493.0", 
                "yn": "2096.0;2096.0;2420.0;2420.0"
            }, 
            {
                "class": "Wall", 
                "xn": "1452.0;1493.0;1493.0;1453.0", 
                "yn": "2562.0;2562.0;2661.0;2661.0"
            }, 
            {
                "class": "Wall", 
                "xn": "1304.0;1304.0;1494.0;1493.0", 
                "yn": "2663.0;2704.0;2705.0;2661.0"
            }, 
            {
                "class": "Wall", 
                "xn": "1115.0;1115.0;1357.0;1357.0", 
                "yn": "1416.0;1424.0;1423.0;1415.0"
            }, 
            {
                "class": "Wall", 
                "xn": "1115.0;1122.0;1122.0;1115.0", 
                "yn": "1500.0;1500.0;1415.0;1415.0"
            }, 
            {
                "class": "Wall", 
                "xn": "1123.0;1123.0;1453.0;1453.0", 
                "yn": "1924.0;1931.0;1930.0;1924.0"
            }, 
            {
                "class": "Wall", 
                "xn": "1115.0;1115.0;1123.0;1122.0", 
                "yn": "1600.0;1930.0;1931.0;1599.0"
            }, 
            {
                "class": "Wall", 
                "xn": "1097.0;1097.0;1115.0;1114.0", 
                "yn": "1613.0;1604.0;1604.0;1613.0"
            }, 
            {
                "class": "Wall", 
                "xn": "1015.0;991.0;991.0;1015.0", 
                "yn": "1842.0;1842.0;2084.0;2084.0"
            }, 
            {
                "class": "Wall", 
                "xn": "885.0;884.0;891.0;893.0", 
                "yn": "1788.0;2076.0;2076.0;1788.0"
            }, 
            {
                "class": "Wall", 
                "xn": "784.0;785.0;892.0;891.0", 
                "yn": "2078.0;2085.0;2085.0;2078.0"
            }, 
            {
                "class": "Wall", 
                "xn": "533.0;489.0;489.0;532.0", 
                "yn": "1906.0;1906.0;2299.0;2299.0"
            }, 
            {
                "class": "Wall", 
                "xn": "490.0;532.0;531.0;490.0", 
                "yn": "2438.0;2438.0;2661.0;2661.0"
            }, 
            {
                "class": "Wall", 
                "xn": "678.0;678.0;490.0;490.0", 
                "yn": "2662.0;2704.0;2704.0;2661.0"
            }, 
            {
                "class": "Wall", 
                "xn": "820.0;820.0;1162.0;1163.0", 
                "yn": "2662.0;2704.0;2704.0;2662.0"
            }, 
            {
                "class": "Wall", 
                "xn": "531.0;531.0;685.0;685.0", 
                "yn": "2085.0;2078.0;2078.0;2085.0"
            }, 
            {
                "class": "Window", 
                "xn": "708.0;708.0;779.0;781.0", 
                "yn": "491.0;522.0;523.0;490.0"
            }, 
            {
                "class": "Window", 
                "xn": "1352.0;1403.0;1403.0;1353.0", 
                "yn": "1238.0;1237.0;1311.0;1311.0"
            }, 
            {
                "class": "Window", 
                "xn": "1379.0;1494.0;1497.0;1383.0;1394.0;1427.0;1391.0", 
                "yn": "1527.0;1523.0;1663.0;1661.0;1612.0;1594.0;1569.0"
            }, 
            {
                "class": "Door", 
                "xn": "1352.0;1463.0;1464.0;1418.0;1369.0", 
                "yn": "1993.0;1991.0;2092.0;2091.0;2054.0"
            }, 
            {
                "class": "Window", 
                "xn": "1381.0;1497.0;1497.0;1380.0;1387.0;1423.0;1386.0", 
                "yn": "2424.0;2424.0;2565.0;2560.0;2521.0;2491.0;2466.0"
            }, 
            {
                "class": "Window", 
                "xn": "1302.0;1302.0;1165.0;1165.0;1211.0;1234.0;1258.0", 
                "yn": "2591.0;2707.0;2707.0;2591.0;2603.0;2638.0;2603.0"
            }, 
            {
                "class": "Window", 
                "xn": "682.0;680.0;818.0;817.0;767.0;751.0;727.0", 
                "yn": "2592.0;2704.0;2707.0;2593.0;2602.0;2634.0;2600.0"
            }, 
            {
                "class": "Window", 
                "xn": "600.0;487.0;488.0;600.0;595.0;559.0;595.0", 
                "yn": "2436.0;2437.0;2299.0;2300.0;2339.0;2367.0;2394.0"
            }, 
            {
                "class": "Door", 
                "xn": "778.0;779.0;689.0;694.0;727.0", 
                "yn": "1991.0;2081.0;2087.0;2039.0;2000.0"
            }, 
            {
                "class": "Window", 
                "xn": "481.0;532.0;534.0;484.0", 
                "yn": "1762.0;1765.0;1909.0;1906.0"
            }, 
            {
                "class": "Window", 
                "xn": "484.0;531.0;533.0;486.0", 
                "yn": "1512.0;1511.0;1581.0;1583.0"
            }, 
            {
                "class": "Door", 
                "xn": "880.0;881.0;785.0;793.0;826.0", 
                "yn": "1291.0;1386.0;1388.0;1341.0;1305.0"
            }, 
            {
                "class": "Door", 
                "xn": "882.0;883.0;785.0;798.0;832.0", 
                "yn": "1512.0;1608.0;1611.0;1557.0;1527.0"
            }, 
            {
                "class": "Door", 
                "xn": "975.0;892.0;990.0;987.0", 
                "yn": "1657.0;1608.0;1609.0;1635.0"
            }, 
            {
                "class": "Door", 
                "xn": "796.0;888.0;890.0;837.0;803.0", 
                "yn": "1694.0;1693.0;1789.0;1776.0;1737.0"
            }, 
            {
                "class": "Door", 
                "xn": "1003.0;997.0;1100.0;1086.0;1039.0", 
                "yn": "1514.0;1610.0;1608.0;1559.0;1519.0"
            }, 
            {
                "class": "Door", 
                "xn": "1019.0;1017.0;1111.0;1106.0;1065.0", 
                "yn": "1326.0;1424.0;1424.0;1381.0;1336.0"
            }, 
            {
                "class": "Door", 
                "xn": "1208.0;1121.0;1121.0;1166.0;1202.0", 
                "yn": "1504.0;1502.0;1598.0;1587.0;1547.0"
            }, 
            {
                "class": "Text", 
                "height": 25, 
                "width": 137, 
                "x": 1173, 
                "y": 1303, 
                "text": "douche"
            }, 
            {
                "class": "Text", 
                "height": 25, 
                "width": 86, 
                "x": 1008, 
                "y": 1445, 
                "text": "degt"
            }, 
            {
                "class": "Text", 
                "height": 25, 
                "width": 133, 
                "x": 635, 
                "y": 1498, 
                "text": "cellier"
            }, 
            {
                "class": "Text", 
                "height": 25, 
                "width": 55, 
                "x": 905, 
                "y": 1545, 
                "text": "wc"
            }, 
            {
                "class": "Text", 
                "height": 24, 
                "width": 182, 
                "x": 1196, 
                "y": 1587, 
                "text": "chambre 1"
            }, 
            {
                "class": "Text", 
                "height": 25, 
                "width": 128, 
                "x": 616, 
                "y": 1764, 
                "text": "cuisine"
            }, 
            {
                "class": "Text", 
                "height": 24, 
                "width": 80, 
                "x": 1178, 
                "y": 1995, 
                "text": "hall"
            }, 
            {
                "class": "Text", 
                "height": 25, 
                "width": 107, 
                "x": 694, 
                "y": 2266, 
                "text": "repas"
            }, 
            {
                "class": "Text", 
                "height": 25, 
                "width": 131, 
                "x": 1153, 
                "y": 2449, 
                "text": "sejour"
            }, 
            {
                "class": "Text", 
                "height": 36.44187299999999, 
                "width": 168.19326000000012, 
                "x": 790.5083220000002, 
                "y": 902.6371620000003, 
                "text": "garages"
            }
        ], 
        "class": "image", 
        "filename": "fp_74.png"
    }
]