[
    {
        "annotations": [
            {
                "class": "Wall", 
                "xn": "570.0;546.0;546.0;570.0", 
                "yn": "763.0;763.0;1446.0;1446.0"
            }, 
            {
                "class": "Wall", 
                "xn": "545.5;545.5;1236.5;1236.5", 
                "yn": "739.0;763.0;763.0;739.0"
            }, 
            {
                "class": "Wall", 
                "xn": "1261.0;1237.0;1238.0;1261.0", 
                "yn": "739.0;739.0;813.0;813.0"
            }, 
            {
                "class": "Wall", 
                "xn": "1237.0;1262.0;1262.0;1238.0", 
                "yn": "1244.0;1244.0;1293.0;1293.0"
            }, 
            {
                "class": "Wall", 
                "xn": "1262.0;1262.0;1174.0;1174.0", 
                "yn": "1318.0;1294.0;1294.0;1318.0"
            }, 
            {
                "class": "Wall", 
                "xn": "1131.0;1174.0;1174.0;1131.0", 
                "yn": "1329.0;1329.0;1294.0;1294.0"
            }, 
            {
                "class": "Wall", 
                "xn": "1033.0;1033.0;1131.0;1131.0", 
                "yn": "1294.0;1317.0;1318.0;1294.0"
            }, 
            {
                "class": "Wall", 
                "xn": "848.0;848.0;890.0;932.0;932.0", 
                "yn": "1317.0;1294.0;1294.0;1294.0;1317.0"
            }, 
            {
                "class": "Wall", 
                "xn": "824.0;848.0;848.0;849.0;824.0", 
                "yn": "1294.0;1294.0;1373.0;1446.0;1446.0"
            }, 
            {
                "class": "Wall", 
                "xn": "1131.0;1174.0;1174.0;1131.0", 
                "yn": "1436.0;1436.0;1489.0;1489.0"
            }, 
            {
                "class": "Wall", 
                "xn": "1235.0;1235.0;1173.0;1174.0", 
                "yn": "1447.0;1489.0;1489.0;1446.0"
            }, 
            {
                "class": "Wall", 
                "xn": "1311.0;1311.0;1686.0;1687.0", 
                "yn": "1447.0;1489.0;1490.0;1447.0"
            }, 
            {
                "class": "Wall", 
                "xn": "1728.0;1687.0;1687.0;1729.0", 
                "yn": "1447.0;1447.0;1593.0;1593.0"
            }, 
            {
                "class": "Wall", 
                "xn": "1687.0;1729.0;1729.0;1686.0", 
                "yn": "1740.0;1740.0;2018.0;2018.0"
            }, 
            {
                "class": "Wall", 
                "xn": "1686.0;1729.0;1729.0;1686.0", 
                "yn": "2164.0;2164.0;2323.0;2322.0"
            }, 
            {
                "class": "Wall", 
                "xn": "1417.0;1419.0;1729.0;1729.0", 
                "yn": "2321.0;2363.0;2364.0;2322.0"
            }, 
            {
                "class": "Wall", 
                "xn": "825.0;825.0;1272.0;1272.0", 
                "yn": "2321.0;2363.0;2363.0;2321.0"
            }, 
            {
                "class": "Wall", 
                "xn": "587.0;586.0;680.0;680.0", 
                "yn": "2321.0;2363.0;2363.0;2321.0"
            }, 
            {
                "class": "Wall", 
                "xn": "546.0;589.0;588.0;546.0", 
                "yn": "1941.0;1941.0;2364.0;2364.0"
            }, 
            {
                "class": "Wall", 
                "xn": "588.0;546.0;546.0;588.0", 
                "yn": "1490.0;1490.0;1792.0;1792.0"
            }, 
            {
                "class": "Wall", 
                "xn": "918.0;917.0;546.0;546.0", 
                "yn": "1447.0;1489.0;1490.0;1446.0"
            }, 
            {
                "class": "Wall", 
                "xn": "588.0;588.0;703.0;703.0", 
                "yn": "1689.0;1696.0;1696.0;1689.0"
            }, 
            {
                "class": "Wall", 
                "xn": "804.0;804.0;917.0;917.0", 
                "yn": "1689.0;1695.0;1695.0;1689.0"
            }, 
            {
                "class": "Wall", 
                "xn": "918.0;918.0;925.0;926.0", 
                "yn": "1779.0;1447.0;1447.0;1779.0"
            }, 
            {
                "class": "Wall", 
                "xn": "918.0;919.0;926.0;925.0", 
                "yn": "1879.0;1974.0;1975.0;1879.0"
            }, 
            {
                "class": "Wall", 
                "xn": "1025.0;1025.0;1031.0;1031.0", 
                "yn": "1489.0;1696.0;1696.0;1489.0"
            }, 
            {
                "class": "Wall", 
                "xn": "1131.0;1131.0;1138.0;1138.0", 
                "yn": "1489.0;1688.0;1688.0;1489.0"
            }, 
            {
                "class": "Wall", 
                "xn": "1131.0;1132.0;1238.0;1238.0", 
                "yn": "1689.0;1695.0;1695.0;1689.0"
            }, 
            {
                "class": "Wall", 
                "xn": "1338.0;1345.0;1344.0;1338.0", 
                "yn": "1489.0;1489.0;1689.0;1689.0"
            }, 
            {
                "class": "Wall", 
                "xn": "1149.0;1174.0;1175.0;1149.0", 
                "yn": "1790.0;1790.0;1873.0;1873.0"
            }, 
            {
                "class": "Wall", 
                "xn": "1175.0;1175.0;1686.0;1687.0", 
                "yn": "1866.0;1873.0;1874.0;1866.0"
            }, 
            {
                "class": "Wall", 
                "xn": "1338.0;1345.0;1345.0;1338.0", 
                "yn": "1790.0;1790.0;1866.0;1866.0"
            }, 
            {
                "class": "Door", 
                "xn": "937.0;936.0;1031.0;1026.0;993.0", 
                "yn": "1409.5;1305.5;1305.5;1357.5;1392.5"
            }, 
            {
                "class": "Door", 
                "xn": "1143.0;1031.0;1041.0;1084.0;1142.0", 
                "yn": "1330.0;1333.0;1393.0;1430.0;1433.0"
            }, 
            {
                "class": "Window", 
                "xn": "1234.0;1236.0;1312.0;1312.0", 
                "yn": "1442.0;1491.0;1491.0;1443.0"
            }, 
            {
                "class": "Window", 
                "xn": "1682.0;1736.0;1737.0;1681.0", 
                "yn": "1590.0;1591.0;1738.0;1741.0"
            }, 
            {
                "class": "Window", 
                "xn": "1615.0;1730.0;1733.0;1618.0;1621.0;1656.0;1624.0", 
                "yn": "2023.0;2022.0;2165.0;2162.0;2112.0;2091.0;2067.0"
            }, 
            {
                "class": "Window", 
                "xn": "1412.0;1417.0;1274.0;1276.0;1313.0;1341.0;1367.0", 
                "yn": "2252.0;2364.0;2364.0;2252.0;2254.0;2293.0;2259.0"
            }, 
            {
                "class": "Window", 
                "xn": "821.0;823.0;680.0;682.0;733.0;753.0;776.0", 
                "yn": "2250.0;2366.0;2366.0;2248.0;2255.0;2289.0;2258.0"
            }, 
            {
                "class": "Window", 
                "xn": "542.0;591.0;594.0;541.0", 
                "yn": "1795.0;1794.0;1941.0;1941.0"
            }, 
            {
                "class": "Door", 
                "xn": "798.0;800.0;702.0;715.0;755.0", 
                "yn": "1600.0;1692.0;1694.0;1641.0;1606.0"
            }, 
            {
                "class": "Door", 
                "xn": "827.0;922.0;922.0;864.0;832.0", 
                "yn": "1782.0;1780.0;1878.0;1859.0;1815.0"
            }, 
            {
                "class": "Door", 
                "xn": "1047.0;1136.0;1030.0;1034.0", 
                "yn": "1740.0;1691.0;1690.0;1719.0"
            }, 
            {
                "class": "Door", 
                "xn": "1256.0;1337.0;1237.0;1240.0", 
                "yn": "1740.0;1690.0;1691.0;1717.0"
            }, 
            {
                "class": "Door", 
                "xn": "1433.0;1341.0;1341.0;1385.0;1428.0", 
                "yn": "1784.0;1789.0;1684.0;1700.0;1748.0"
            }, 
            {
                "class": "Text", 
                "height": 31, 
                "width": 170, 
                "x": 790, 
                "y": 1037, 
                "text": "garage"
            }, 
            {
                "class": "Text", 
                "height": 30, 
                "width": 41, 
                "x": 867, 
                "y": 1366, 
                "text": "pl"
            }, 
            {
                "class": "Text", 
                "height": 30, 
                "width": 98, 
                "x": 974, 
                "y": 1420, 
                "text": "hall"
            }, 
            {
                "class": "Text", 
                "height": 30, 
                "width": 166, 
                "x": 649, 
                "y": 1549, 
                "text": "cellier"
            }, 
            {
                "class": "Text", 
                "height": 31, 
                "width": 117, 
                "x": 1214, 
                "y": 1584, 
                "text": "bains"
            }, 
            {
                "class": "Text", 
                "height": 31, 
                "width": 227, 
                "x": 1380, 
                "y": 1631, 
                "text": "chambre 1"
            }, 
            {
                "class": "Text", 
                "height": 38, 
                "width": 91, 
                "x": 1151, 
                "y": 1716, 
                "text": "degt"
            }, 
            {
                "class": "Text", 
                "height": 30, 
                "width": 133, 
                "x": 1192, 
                "y": 1820, 
                "text": "placard"
            }, 
            {
                "class": "Text", 
                "height": 31, 
                "width": 162, 
                "x": 651, 
                "y": 1894, 
                "text": "cuisine"
            }, 
            {
                "class": "Text", 
                "height": 30, 
                "width": 133, 
                "x": 668, 
                "y": 2138, 
                "text": "repas"
            }, 
            {
                "class": "Text", 
                "height": 30, 
                "width": 162, 
                "x": 1264, 
                "y": 2138, 
                "text": "sejour"
            }, 
            {
                "class": "Text", 
                "height": 33.05033130453626, 
                "width": 92.0687800626365, 
                "x": 1026.9210083909468, 
                "y": 1633.6306616242186, 
                "text": "wc"
            }
        ], 
        "class": "image", 
        "filename": "fp_88.png"
    }
]